rtl/cpu_run_tb.vcd
$date
	Wed Nov 12 13:07:50 2025
$end
$version
	Icarus Verilog
$end
$timescale
	1ps
$end
$scope module cpu_run_tb $end
$var parameter 32 ! ADDR_SIZE $end
$var parameter 32 " END_PC $end
$var parameter 32 # PC_BITS $end
$var parameter 32 $ REG_NUM $end
$var parameter 32 % XLEN $end
$var reg 1 & clk $end
$var reg 32 ' curr_inst [31:0] $end
$var reg 1 ( rst $end
$var integer 32 ) cycles [31:0] $end
$var integer 32 * i [31:0] $end
$scope module dut $end
$var wire 1 & clk $end
$var wire 1 ( rst $end
$var wire 1 + stall_D $end
$var wire 5 , pc_plus_1 [4:0] $end
$var wire 1 - WB_we $end
$var wire 5 . WB_rd [4:0] $end
$var wire 32 / WB_data_mem [31:0] $end
$var wire 2 0 WB_D_bp [1:0] $end
$var wire 1 1 MEM_we $end
$var wire 1 2 MEM_taken $end
$var wire 1 3 MEM_str $end
$var wire 5 4 MEM_rd [4:0] $end
$var wire 1 5 MEM_ld $end
$var wire 32 6 MEM_data_mem [31:0] $end
$var wire 1 7 MEM_byt $end
$var wire 32 8 MEM_b2 [31:0] $end
$var wire 32 9 MEM_alu_out [31:0] $end
$var wire 32 : MEM_a2 [31:0] $end
$var wire 2 ; MEM_D_bp [1:0] $end
$var wire 5 < F_pc [4:0] $end
$var wire 32 = F_inst [31:0] $end
$var wire 1 > EX_we $end
$var wire 1 ? EX_taken $end
$var wire 1 @ EX_str $end
$var wire 5 A EX_rd [4:0] $end
$var wire 1 B EX_mul $end
$var wire 1 C EX_ld $end
$var wire 1 D EX_byt $end
$var wire 1 E EX_brn $end
$var wire 32 F EX_b2 [31:0] $end
$var wire 32 G EX_b [31:0] $end
$var wire 32 H EX_alu_out [31:0] $end
$var wire 4 I EX_alu_op [3:0] $end
$var wire 32 J EX_a2 [31:0] $end
$var wire 32 K EX_a [31:0] $end
$var wire 2 L EX_D_bp [1:0] $end
$var wire 1 M D_we $end
$var wire 1 N D_str $end
$var wire 5 O D_rd [4:0] $end
$var wire 5 P D_rb [4:0] $end
$var wire 5 Q D_ra [4:0] $end
$var wire 5 R D_pc [4:0] $end
$var wire 6 S D_opc [5:0] $end
$var wire 1 T D_mul $end
$var wire 1 U D_ld $end
$var wire 32 V D_inst [31:0] $end
$var wire 11 W D_imd [10:0] $end
$var wire 1 X D_byt $end
$var wire 1 Y D_brn $end
$var wire 32 Z D_b2 [31:0] $end
$var wire 32 [ D_b [31:0] $end
$var wire 4 \ D_alu_op [3:0] $end
$var wire 1 ] D_addi $end
$var wire 32 ^ D_a2 [31:0] $end
$var wire 32 _ D_a [31:0] $end
$var parameter 32 ` ADDR_SIZE $end
$var parameter 32 a PC_BITS $end
$var parameter 32 b REG_NUM $end
$var parameter 5 c RESET_PC $end
$var parameter 32 d XLEN $end
$scope module u_Hazard_unit $end
$var wire 1 & clk $end
$var wire 1 e ex_hit_ra $end
$var wire 1 f ex_hit_rb $end
$var wire 1 g mem_hit_ra $end
$var wire 1 h mem_hit_rb $end
$var wire 1 i mul_start $end
$var wire 1 ( rst $end
$var wire 1 + stall_D $end
$var wire 1 j wb_hit_ra $end
$var wire 1 k wb_hit_rb $end
$var wire 1 l mul_stall $end
$var wire 1 - WB_we $end
$var wire 5 m WB_rd [4:0] $end
$var wire 2 n WB_D_bp [1:0] $end
$var wire 1 1 MEM_we $end
$var wire 5 o MEM_rd [4:0] $end
$var wire 2 p MEM_D_bp [1:0] $end
$var wire 1 > EX_we $end
$var wire 5 q EX_rd [4:0] $end
$var wire 1 B EX_mul $end
$var wire 1 C EX_ld $end
$var wire 32 r EX_alu_out [31:0] $end
$var wire 2 s EX_D_bp [1:0] $end
$var wire 5 t D_rd [4:0] $end
$var wire 5 u D_rb [4:0] $end
$var wire 5 v D_ra [4:0] $end
$var parameter 32 w ADDR_SIZE $end
$var parameter 32 x MUL_STALLS $end
$var parameter 32 y XLEN $end
$var reg 3 z mul_cnt [2:0] $end
$upscope $end
$scope module u_alu $end
$var wire 1 E EX_brn $end
$var wire 32 { EX_b2 [31:0] $end
$var wire 32 | EX_b [31:0] $end
$var wire 4 } EX_alu_op [3:0] $end
$var wire 32 ~ EX_a2 [31:0] $end
$var wire 32 !" EX_a [31:0] $end
$var parameter 32 "" SHW $end
$var parameter 32 #" XLEN $end
$var reg 32 $" EX_alu_out [31:0] $end
$var reg 1 ? EX_taken $end
$upscope $end
$scope module u_d_to_ex_reg $end
$var wire 32 %" EX_a [31:0] $end
$var wire 32 &" EX_a2 [31:0] $end
$var wire 4 '" EX_alu_op [3:0] $end
$var wire 32 (" EX_b [31:0] $end
$var wire 32 )" EX_b2 [31:0] $end
$var wire 1 E EX_brn $end
$var wire 1 D EX_byt $end
$var wire 1 @ EX_str $end
$var wire 1 ? EX_taken $end
$var wire 1 & clk $end
$var wire 1 ( rst $end
$var wire 1 + stall_D $end
$var wire 1 > EX_we $end
$var wire 5 *" EX_rd [4:0] $end
$var wire 1 B EX_mul $end
$var wire 1 C EX_ld $end
$var wire 1 M D_we $end
$var wire 1 N D_str $end
$var wire 5 +" D_rd [4:0] $end
$var wire 1 T D_mul $end
$var wire 1 U D_ld $end
$var wire 1 X D_byt $end
$var wire 1 Y D_brn $end
$var wire 32 ," D_b2 [31:0] $end
$var wire 32 -" D_b [31:0] $end
$var wire 4 ." D_alu_op [3:0] $end
$var wire 32 /" D_a2 [31:0] $end
$var wire 32 0" D_a [31:0] $end
$var parameter 32 1" XLEN $end
$var reg 32 2" ex_a2_r [31:0] $end
$var reg 32 3" ex_a_r [31:0] $end
$var reg 4 4" ex_alu_op_r [3:0] $end
$var reg 32 5" ex_b2_r [31:0] $end
$var reg 32 6" ex_b_r [31:0] $end
$var reg 1 7" ex_brn_r $end
$var reg 1 8" ex_byt_r $end
$var reg 1 C ex_ld_r $end
$var reg 1 B ex_mul_r $end
$var reg 5 9" ex_rd_r [4:0] $end
$var reg 1 :" ex_str_r $end
$var reg 1 > ex_we_r $end
$upscope $end
$scope module u_decode $end
$var wire 1 Y D_brn $end
$var wire 1 M D_we $end
$var wire 1 & clk $end
$var wire 1 ;" is_beq $end
$var wire 1 <" is_bgt $end
$var wire 1 =" is_blt $end
$var wire 1 >" is_jmp $end
$var wire 1 ?" is_ctrl $end
$var wire 1 N D_str $end
$var wire 5 @" D_rd [4:0] $end
$var wire 5 A" D_rb [4:0] $end
$var wire 5 B" D_ra [4:0] $end
$var wire 6 C" D_opc [5:0] $end
$var wire 1 T D_mul $end
$var wire 1 U D_ld $end
$var wire 32 D" D_inst [31:0] $end
$var wire 11 E" D_imd [10:0] $end
$var wire 1 X D_byt $end
$var wire 4 F" D_alu_op [3:0] $end
$var wire 1 ] D_addi $end
$var parameter 6 G" OPC_ADD $end
$var parameter 6 H" OPC_ADDI $end
$var parameter 6 I" OPC_AND $end
$var parameter 6 J" OPC_CTRL $end
$var parameter 6 K" OPC_GT $end
$var parameter 5 L" OPC_LOAD $end
$var parameter 6 M" OPC_LT $end
$var parameter 6 N" OPC_MUL $end
$var parameter 6 O" OPC_NOT $end
$var parameter 6 P" OPC_OR $end
$var parameter 6 Q" OPC_SHL $end
$var parameter 6 R" OPC_SHR $end
$var parameter 5 S" OPC_STORE $end
$var parameter 6 T" OPC_SUB $end
$var parameter 6 U" OPC_XOR $end
$var parameter 5 V" RD_BEQ $end
$var parameter 5 W" RD_BGT $end
$var parameter 5 X" RD_BLT $end
$var parameter 5 Y" RD_JMP $end
$var parameter 32 Z" XLEN $end
$upscope $end
$scope module u_ex_to_mem_reg $end
$var wire 32 [" EX_a2 [31:0] $end
$var wire 32 \" EX_alu_out [31:0] $end
$var wire 32 ]" EX_b2 [31:0] $end
$var wire 1 D EX_byt $end
$var wire 1 C EX_ld $end
$var wire 5 ^" EX_rd [4:0] $end
$var wire 1 @ EX_str $end
$var wire 1 ? EX_taken $end
$var wire 1 > EX_we $end
$var wire 32 _" MEM_a2 [31:0] $end
$var wire 32 `" MEM_b2 [31:0] $end
$var wire 1 3 MEM_str $end
$var wire 1 2 MEM_taken $end
$var wire 1 & clk $end
$var wire 1 ( rst $end
$var wire 1 1 MEM_we $end
$var wire 5 a" MEM_rd [4:0] $end
$var wire 1 5 MEM_ld $end
$var wire 1 7 MEM_byt $end
$var wire 32 b" MEM_alu_out [31:0] $end
$var parameter 32 c" XLEN $end
$var reg 32 d" mem_a2_r [31:0] $end
$var reg 32 e" mem_alu_out_r [31:0] $end
$var reg 32 f" mem_b2_r [31:0] $end
$var reg 1 7 mem_byt_r $end
$var reg 1 5 mem_ld_r $end
$var reg 5 g" mem_rd_r [4:0] $end
$var reg 1 h" mem_str_r $end
$var reg 1 i" mem_taken_r $end
$var reg 1 1 mem_we_r $end
$upscope $end
$scope module u_f2d $end
$var wire 1 ? EX_taken $end
$var wire 1 & clk $end
$var wire 1 ( rst $end
$var wire 1 + stall_D $end
$var wire 5 j" F_pc [4:0] $end
$var wire 32 k" F_inst [31:0] $end
$var wire 5 l" D_pc [4:0] $end
$var wire 32 m" D_inst [31:0] $end
$var parameter 32 n" NOP $end
$var parameter 32 o" PC_BITS $end
$var parameter 32 p" XLEN $end
$var reg 32 q" d_inst [31:0] $end
$var reg 5 r" d_pc [4:0] $end
$upscope $end
$scope module u_instruct_reg $end
$var wire 32 s" F_inst [31:0] $end
$var wire 1 & clk $end
$var wire 5 t" F_pc [4:0] $end
$var parameter 32 u" ADDR_SIZE $end
$var parameter 32 v" REG_NUM $end
$var parameter 32 w" XLEN $end
$upscope $end
$scope module u_mem_to_wb_reg $end
$var wire 5 x" MEM_rd [4:0] $end
$var wire 1 1 MEM_we $end
$var wire 1 & clk $end
$var wire 1 ( rst $end
$var wire 1 - WB_we $end
$var wire 5 y" WB_rd [4:0] $end
$var wire 32 z" WB_data_mem [31:0] $end
$var wire 32 {" MEM_data_mem [31:0] $end
$var parameter 32 |" XLEN $end
$var reg 32 }" wb_data_mem_r [31:0] $end
$var reg 5 ~" wb_rd_r [4:0] $end
$var reg 1 - wb_we_r $end
$upscope $end
$scope module u_memory $end
$var wire 32 !# MEM_alu_out [31:0] $end
$var wire 32 "# MEM_b2 [31:0] $end
$var wire 1 7 MEM_byt $end
$var wire 1 5 MEM_ld $end
$var wire 1 3 MEM_str $end
$var wire 1 & clk $end
$var wire 5 ## addr [4:0] $end
$var wire 32 $# MEM_data_mem [31:0] $end
$var parameter 32 %# ADDR_SIZE $end
$var parameter 32 &# REG_NUM $end
$var parameter 32 '# XLEN $end
$var integer 32 (# i [31:0] $end
$upscope $end
$scope module u_pc $end
$var wire 5 )# EX_alt_pc [4:0] $end
$var wire 1 ? EX_taken $end
$var wire 1 & clk $end
$var wire 5 *# pc [4:0] $end
$var wire 1 ( rst $end
$var wire 1 + stall_D $end
$var parameter 5 +# RESET_PC $end
$var parameter 32 ,# XLEN $end
$var reg 5 -# F_pc [4:0] $end
$upscope $end
$scope module u_regfile $end
$var wire 32 .# D_a2 [31:0] $end
$var wire 1 ] D_addi $end
$var wire 32 /# D_b2 [31:0] $end
$var wire 1 Y D_brn $end
$var wire 11 0# D_imd [10:0] $end
$var wire 1 U D_ld $end
$var wire 5 1# D_pc [4:0] $end
$var wire 5 2# D_ra [4:0] $end
$var wire 5 3# D_rb [4:0] $end
$var wire 1 N D_str $end
$var wire 2 4# EX_D_bp [1:0] $end
$var wire 32 5# EX_alu_out [31:0] $end
$var wire 2 6# MEM_D_bp [1:0] $end
$var wire 32 7# MEM_data_mem [31:0] $end
$var wire 2 8# WB_D_bp [1:0] $end
$var wire 32 9# WB_data_mem [31:0] $end
$var wire 5 :# WB_rd [4:0] $end
$var wire 1 - WB_we $end
$var wire 1 & clk $end
$var wire 32 ;# ra_raw [31:0] $end
$var wire 32 <# rb_raw [31:0] $end
$var wire 32 =# rb_fwd [31:0] $end
$var wire 32 ># ra_fwd [31:0] $end
$var wire 32 ?# pc_extended [31:0] $end
$var wire 32 @# offset [31:0] $end
$var wire 32 A# D_b [31:0] $end
$var wire 32 B# D_a [31:0] $end
$var parameter 32 C# ADDR_SIZE $end
$var parameter 32 D# REG_NUM $end
$var parameter 32 E# XLEN $end
$var integer 32 F# i [31:0] $end
$upscope $end
$upscope $end
$scope begin run_loop $end
$upscope $end
$upscope $end
$enddefinitions $end
$comment Show the parameter values. $end
$dumpall
b100000 E#
b100000 D#
b101 C#
b101 ,#
b0 +#
b100000 '#
b100000 &#
b101 %#
b100000 |"
b100000 w"
b100000 v"
b101 u"
b100000 p"
b101 o"
b100000000000000000000000000000 n"
b100000 c"
b100000 Z"
b0 Y"
b10 X"
b11 W"
b1 V"
b100 U"
b1 T"
b1100 S"
b111 R"
b110 Q"
b11 P"
b101 O"
b1110 N"
b1001 M"
b1011 L"
b1010 K"
b1101 J"
b10 I"
b1000 H"
b0 G"
b100000 1"
b100000 #"
b101 ""
b100000 y
b100 x
b101 w
b100000 d
b0 c
b100000 b
b101 a
b101 `
b100000 %
b100000 $
b101 #
b10110 "
b101 !
$end
#0
$dumpvars
b100000 F#
bx B#
bx A#
b0xxxxxxxxxxx @#
b0xxxxx ?#
bx >#
bx =#
bx <#
bx ;#
bx :#
bx 9#
bx 8#
bx 7#
bx 6#
bx 5#
bx 4#
bx 3#
bx 2#
bx 1#
bx 0#
bx /#
bx .#
b0 -#
b1 *#
bx )#
b100000 (#
bx $#
bx ##
bx "#
bx !#
bx ~"
bx }"
bx {"
bx z"
bx y"
bx x"
b0 t"
b10000010000100001000000000000 s"
bx r"
bx q"
bx m"
bx l"
b10000010000100001000000000000 k"
b0 j"
xi"
xh"
bx g"
bx f"
bx e"
bx d"
bx b"
bx a"
bx `"
bx _"
bx ^"
bx ]"
bx \"
bx ["
bx F"
bx E"
bx D"
bx C"
bx B"
bx A"
bx @"
x?"
x>"
x="
x<"
x;"
x:"
bx 9"
x8"
x7"
bx 6"
bx 5"
bx 4"
bx 3"
bx 2"
bx 0"
bx /"
bx ."
bx -"
bx ,"
bx +"
bx *"
bx )"
bx ("
bx '"
bx &"
bx %"
bx $"
bx !"
bx ~
bx }
bx |
bx {
bx z
bx v
bx u
bx t
bx s
bx r
bx q
bx p
bx o
bx n
bx m
xl
xk
xj
xi
xh
xg
xf
xe
bx _
bx ^
x]
bx \
bx [
bx Z
xY
xX
bx W
bx V
xU
xT
bx S
bx R
bx Q
bx P
bx O
xN
xM
bx L
bx K
bx J
bx I
bx H
bx G
bx F
xE
xD
xC
xB
bx A
x@
x?
x>
b10000010000100001000000000000 =
b0 <
bx ;
bx :
bx 9
bx 8
x7
bx 6
x5
bx 4
x3
x2
x1
bx 0
bx /
bx .
x-
b1 ,
x+
bx *
bx )
1(
bx '
0&
$end
#5000
b0 _
b0 0"
b0 B#
b0 Z
b0 ,"
b0 /#
b0 =#
b0 ^
b0 /"
b0 .#
b0 >#
b0 [
b0 -"
b0 A#
0<"
0="
0;"
0>"
0U
0N
0X
1M
b0 \
b0 ."
b0 F"
b0 L
b0 s
b0 4#
b0 )#
b0 @#
b0 W
b0 E"
b0 0#
b0 O
b0 t
b0 +"
b0 @"
b0 <#
b0 P
b0 u
b0 A"
b0 3#
b0 ;#
b0 Q
b0 v
b0 B"
b0 2#
0Y
0?"
0T
1]
b1000 S
b1000 C"
0+
0i
0f
0e
b0 H
b0 r
b0 $"
b0 \"
b0 5#
0?
0h
b0 ;
b0 p
b0 6#
0g
b0 ##
b0 6
b0 {"
b0 $#
b0 7#
0k
b0 0
b0 n
b0 8#
0j
b100000000000000000000000000000 V
b100000000000000000000000000000 D"
b100000000000000000000000000000 m"
b100000000000000000000000000000 q"
b0 ?#
b0 R
b0 l"
b0 r"
b0 1#
0l
b0 z
0B
0>
0D
08"
0@
0:"
0C
b0 A
b0 q
b0 *"
b0 9"
b0 ^"
0E
07"
b0 I
b0 }
b0 '"
b0 4"
b0 F
b0 {
b0 )"
b0 ]"
b0 5"
b0 G
b0 |
b0 ("
b0 6"
b0 J
b0 ~
b0 &"
b0 ["
b0 2"
b0 K
b0 !"
b0 %"
b0 3"
07
03
0h"
05
01
b0 4
b0 o
b0 a"
b0 g"
b0 x"
b0 :
b0 _"
b0 d"
b0 8
b0 `"
b0 "#
b0 f"
02
0i"
b0 9
b0 b"
b0 e"
b0 !#
0-
b0 .
b0 m
b0 y"
b0 ~"
b0 :#
b0 /
b0 z"
b0 }"
b0 9#
1&
#10000
0&
#15000
1&
#20000
0&
#25000
0(
b0 )
1&
#30000
0&
#35000
b100 \
b100 ."
b100 F"
b10 O
b10 t
b10 +"
b10 @"
b10 P
b10 u
b10 A"
b10 3#
b10 Q
b10 v
b10 B"
b10 2#
0]
b100 S
b100 C"
1>
b10000010000100001000000000000 V
b10000010000100001000000000000 D"
b10000010000100001000000000000 m"
b10000010000100001000000000000 q"
b100000010000100001000100101100 =
b100000010000100001000100101100 k"
b100000010000100001000100101100 s"
b10 ,
b10 *#
b1 <
b1 j"
b1 t"
b1 -#
b10000010000100001000000000000 '
b1 )
1&
#40000
0&
#45000
b0 \
b0 ."
b0 F"
b100101100 [
b100101100 -"
b100101100 A#
b11 L
b11 s
b11 4#
b100101100 @#
b100101100 W
b100101100 E"
b100101100 0#
1]
b1000 S
b1000 C"
1f
1e
b100000010000100001000100101100 V
b100000010000100001000100101100 D"
b100000010000100001000100101100 m"
b100000010000100001000100101100 q"
b1 ?#
b1 R
b1 l"
b1 r"
b1 1#
b10 A
b10 q
b10 *"
b10 9"
b10 ^"
b100 I
b100 }
b100 '"
b100 4"
11
b10000011000110001100000000000 =
b10000011000110001100000000000 k"
b10000011000110001100000000000 s"
b11 ,
b11 *#
b10 <
b10 j"
b10 t"
b10 -#
b100000010000100001000100101100 '
b10 )
1&
#50000
0&
#55000
b100 \
b100 ."
b100 F"
b0 _
b0 0"
b0 B#
b0 L
b0 s
b0 4#
b0 ^
b0 /"
b0 .#
b0 >#
b0 Z
b0 ,"
b0 /#
b0 =#
b1100 )#
b0 [
b0 -"
b0 A#
0f
0e
b100101100 H
b100101100 r
b100101100 $"
b100101100 \"
b100101100 5#
b0 @#
b0 W
b0 E"
b0 0#
b11 O
b11 t
b11 +"
b11 @"
b11 P
b11 u
b11 A"
b11 3#
b11 Q
b11 v
b11 B"
b11 2#
0]
b100 S
b100 C"
1-
b10 4
b10 o
b10 a"
b10 g"
b10 x"
b0 I
b0 }
b0 '"
b0 4"
b100101100 G
b100101100 |
b100101100 ("
b100101100 6"
b10000011000110001100000000000 V
b10000011000110001100000000000 D"
b10000011000110001100000000000 m"
b10000011000110001100000000000 q"
b10 ?#
b10 R
b10 l"
b10 r"
b10 1#
b100000011000110001100110100101 =
b100000011000110001100110100101 k"
b100000011000110001100110100101 s"
b100 ,
b100 *#
b11 <
b11 j"
b11 t"
b11 -#
b10000011000110001100000000000 '
b11 )
1&
#60000
0&
#65000
b0 \
b0 ."
b0 F"
b110100101 [
b110100101 -"
b110100101 A#
b11 L
b11 s
b11 4#
b0 )#
b110100101 @#
b110100101 W
b110100101 E"
b110100101 0#
1]
b1000 S
b1000 C"
1f
1e
b0 H
b0 r
b0 $"
b0 \"
b0 5#
b1100 ##
b100101100 6
b100101100 {"
b100101100 $#
b100101100 7#
b100000011000110001100110100101 V
b100000011000110001100110100101 D"
b100000011000110001100110100101 m"
b100000011000110001100110100101 q"
b11 ?#
b11 R
b11 l"
b11 r"
b11 1#
b11 A
b11 q
b11 *"
b11 9"
b11 ^"
b100 I
b100 }
b100 '"
b100 4"
b0 G
b0 |
b0 ("
b0 6"
b100101100 9
b100101100 b"
b100101100 e"
b100101100 !#
b10 .
b10 m
b10 y"
b10 ~"
b10 :#
b10000100001000010000000000000 =
b10000100001000010000000000000 k"
b10000100001000010000000000000 s"
b101 ,
b101 *#
b100 <
b100 j"
b100 t"
b100 -#
b100000011000110001100110100101 '
b100 )
1&
#70000
0&
#75000
b100 \
b100 ."
b100 F"
b0 _
b0 0"
b0 B#
b0 L
b0 s
b0 4#
b0 ^
b0 /"
b0 .#
b0 >#
b0 Z
b0 ,"
b0 /#
b0 =#
b101 )#
b0 [
b0 -"
b0 A#
0f
0e
b0 ##
b0 6
b0 {"
b0 $#
b0 7#
b110100101 H
b110100101 r
b110100101 $"
b110100101 \"
b110100101 5#
b0 @#
b0 W
b0 E"
b0 0#
b100 O
b100 t
b100 +"
b100 @"
b100 P
b100 u
b100 A"
b100 3#
b100 Q
b100 v
b100 B"
b100 2#
0]
b100 S
b100 C"
b100101100 /
b100101100 z"
b100101100 }"
b100101100 9#
b11 4
b11 o
b11 a"
b11 g"
b11 x"
b0 9
b0 b"
b0 e"
b0 !#
b0 I
b0 }
b0 '"
b0 4"
b110100101 G
b110100101 |
b110100101 ("
b110100101 6"
b10000100001000010000000000000 V
b10000100001000010000000000000 D"
b10000100001000010000000000000 m"
b10000100001000010000000000000 q"
b100 ?#
b100 R
b100 l"
b100 r"
b100 1#
b100000100001000010000100000000 =
b100000100001000010000100000000 k"
b100000100001000010000100000000 s"
b110 ,
b110 *#
b101 <
b101 j"
b101 t"
b101 -#
b10000100001000010000000000000 '
b101 )
1&
#80000
0&
#85000
b0 \
b0 ."
b0 F"
b100000000 [
b100000000 -"
b100000000 A#
b11 L
b11 s
b11 4#
b0 )#
b100000000 @#
b100000000 W
b100000000 E"
b100000000 0#
1]
b1000 S
b1000 C"
1f
1e
b0 H
b0 r
b0 $"
b0 \"
b0 5#
b101 ##
b110100101 6
b110100101 {"
b110100101 $#
b110100101 7#
b100000100001000010000100000000 V
b100000100001000010000100000000 D"
b100000100001000010000100000000 m"
b100000100001000010000100000000 q"
b101 ?#
b101 R
b101 l"
b101 r"
b101 1#
b100 A
b100 q
b100 *"
b100 9"
b100 ^"
b100 I
b100 }
b100 '"
b100 4"
b0 G
b0 |
b0 ("
b0 6"
b110100101 9
b110100101 b"
b110100101 e"
b110100101 !#
b11 .
b11 m
b11 y"
b11 ~"
b11 :#
b0 /
b0 z"
b0 }"
b0 9#
b10000101001010010100000000000 =
b10000101001010010100000000000 k"
b10000101001010010100000000000 s"
b111 ,
b111 *#
b110 <
b110 j"
b110 t"
b110 -#
b100000100001000010000100000000 '
b110 )
1&
#90000
0&
#95000
b100 \
b100 ."
b100 F"
b0 _
b0 0"
b0 B#
b0 L
b0 s
b0 4#
b0 ^
b0 /"
b0 .#
b0 >#
b0 Z
b0 ,"
b0 /#
b0 =#
b0 [
b0 -"
b0 A#
0f
0e
b0 ##
b0 6
b0 {"
b0 $#
b0 7#
b100000000 H
b100000000 r
b100000000 $"
b100000000 \"
b100000000 5#
b0 @#
b0 W
b0 E"
b0 0#
b101 O
b101 t
b101 +"
b101 @"
b101 P
b101 u
b101 A"
b101 3#
b101 Q
b101 v
b101 B"
b101 2#
0]
b100 S
b100 C"
b110100101 /
b110100101 z"
b110100101 }"
b110100101 9#
b100 4
b100 o
b100 a"
b100 g"
b100 x"
b0 9
b0 b"
b0 e"
b0 !#
b0 I
b0 }
b0 '"
b0 4"
b100000000 G
b100000000 |
b100000000 ("
b100000000 6"
b10000101001010010100000000000 V
b10000101001010010100000000000 D"
b10000101001010010100000000000 m"
b10000101001010010100000000000 q"
b110 ?#
b110 R
b110 l"
b110 r"
b110 1#
b100000101001010010100111111111 =
b100000101001010010100111111111 k"
b100000101001010010100111111111 s"
b1000 ,
b1000 *#
b111 <
b111 j"
b111 t"
b111 -#
b10000101001010010100000000000 '
b111 )
1&
#100000
0&
#105000
b0 \
b0 ."
b0 F"
b111111111 [
b111111111 -"
b111111111 A#
b11 L
b11 s
b11 4#
b111111111 @#
b111111111 W
b111111111 E"
b111111111 0#
1]
b1000 S
b1000 C"
1f
1e
b0 H
b0 r
b0 $"
b0 \"
b0 5#
b100000000 6
b100000000 {"
b100000000 $#
b100000000 7#
b100000101001010010100111111111 V
b100000101001010010100111111111 D"
b100000101001010010100111111111 m"
b100000101001010010100111111111 q"
b111 ?#
b111 R
b111 l"
b111 r"
b111 1#
b101 A
b101 q
b101 *"
b101 9"
b101 ^"
b100 I
b100 }
b100 '"
b100 4"
b0 G
b0 |
b0 ("
b0 6"
b100000000 9
b100000000 b"
b100000000 e"
b100000000 !#
b100 .
b100 m
b100 y"
b100 ~"
b100 :#
b0 /
b0 z"
b0 }"
b0 9#
b10110000000000100000000000101000 =
b10110000000000100000000000101000 k"
b10110000000000100000000000101000 s"
b1001 ,
b1001 *#
b1000 <
b1000 j"
b1000 t"
b1000 -#
b100000101001010010100111111111 '
b1000 )
1&
#110000
0&
#115000
b0 _
b0 0"
b0 B#
b0 L
b0 s
b0 4#
0M
b0 ^
b0 /"
b0 .#
b0 >#
b100101100 Z
b100101100 ,"
b100101100 /#
b100101100 =#
b11111 )#
b101000 [
b101000 -"
b101000 A#
0f
0e
1N
1X
b0 6
b0 {"
b0 $#
b0 7#
b111111111 H
b111111111 r
b111111111 $"
b111111111 \"
b111111111 5#
b101000 @#
b101000 W
b101000 E"
b101000 0#
b0 O
b0 t
b0 +"
b0 @"
b100101100 <#
b10 P
b10 u
b10 A"
b10 3#
b0 Q
b0 v
b0 B"
b0 2#
0]
b101100 S
b101100 C"
b100000000 /
b100000000 z"
b100000000 }"
b100000000 9#
b101 4
b101 o
b101 a"
b101 g"
b101 x"
b0 9
b0 b"
b0 e"
b0 !#
b0 I
b0 }
b0 '"
b0 4"
b111111111 G
b111111111 |
b111111111 ("
b111111111 6"
b10110000000000100000000000101000 V
b10110000000000100000000000101000 D"
b10110000000000100000000000101000 m"
b10110000000000100000000000101000 q"
b1000 ?#
b1000 R
b1000 l"
b1000 r"
b1000 1#
b10110000000000110000000000101001 =
b10110000000000110000000000101001 k"
b10110000000000110000000000101001 s"
b1010 ,
b1010 *#
b1001 <
b1001 j"
b1001 t"
b1001 -#
b10110000000000100000000000101000 '
b1001 )
1&
#120000
0&
#125000
b110100101 Z
b110100101 ,"
b110100101 /#
b110100101 =#
b101001 [
b101001 -"
b101001 A#
b1000 )#
b101001 @#
b101001 W
b101001 E"
b101001 0#
b110100101 <#
b11 P
b11 u
b11 A"
b11 3#
b101000 H
b101000 r
b101000 $"
b101000 \"
b101000 5#
b11111 ##
b111111111 6
b111111111 {"
b111111111 $#
b111111111 7#
b10110000000000110000000000101001 V
b10110000000000110000000000101001 D"
b10110000000000110000000000101001 m"
b10110000000000110000000000101001 q"
b1001 ?#
b1001 R
b1001 l"
b1001 r"
b1001 1#
0>
1D
18"
1@
1:"
b0 A
b0 q
b0 *"
b0 9"
b0 ^"
b100101100 F
b100101100 {
b100101100 )"
b100101100 ]"
b100101100 5"
b101000 G
b101000 |
b101000 ("
b101000 6"
b111111111 9
b111111111 b"
b111111111 e"
b111111111 !#
b101 .
b101 m
b101 y"
b101 ~"
b101 :#
b0 /
b0 z"
b0 }"
b0 9#
b10110000000001000000000000101010 =
b10110000000001000000000000101010 k"
b10110000000001000000000000101010 s"
b1011 ,
b1011 *#
b1010 <
b1010 j"
b1010 t"
b1010 -#
b10110000000000110000000000101001 '
b1010 )
1&
#130000
0&
#135000
b100000000 Z
b100000000 ,"
b100000000 /#
b100000000 =#
b1001 )#
b101010 [
b101010 -"
b101010 A#
b1000 ##
b101000 6
b101000 {"
b101000 $#
b101000 7#
b101001 H
b101001 r
b101001 $"
b101001 \"
b101001 5#
b101010 @#
b101010 W
b101010 E"
b101010 0#
b100000000 <#
b100 P
b100 u
b100 A"
b100 3#
b111111111 /
b111111111 z"
b111111111 }"
b111111111 9#
17
13
1h"
01
b0 4
b0 o
b0 a"
b0 g"
b0 x"
b100101100 8
b100101100 `"
b100101100 "#
b100101100 f"
b101000 9
b101000 b"
b101000 e"
b101000 !#
b110100101 F
b110100101 {
b110100101 )"
b110100101 ]"
b110100101 5"
b101001 G
b101001 |
b101001 ("
b101001 6"
b10110000000001000000000000101010 V
b10110000000001000000000000101010 D"
b10110000000001000000000000101010 m"
b10110000000001000000000000101010 q"
b1010 ?#
b1010 R
b1010 l"
b1010 r"
b1010 1#
b10110000000001010000000000101011 =
b10110000000001010000000000101011 k"
b10110000000001010000000000101011 s"
b1100 ,
b1100 *#
b1011 <
b1011 j"
b1011 t"
b1011 -#
b10110000000001000000000000101010 '
b1011 )
1&
#140000
0&
#145000
b111111111 Z
b111111111 ,"
b111111111 /#
b111111111 =#
b101011 [
b101011 -"
b101011 A#
b1010 )#
b101011 @#
b101011 W
b101011 E"
b101011 0#
b111111111 <#
b101 P
b101 u
b101 A"
b101 3#
b101010 H
b101010 r
b101010 $"
b101010 \"
b101010 5#
b1001 ##
b101001 6
b101001 {"
b101001 $#
b101001 7#
b10110000000001010000000000101011 V
b10110000000001010000000000101011 D"
b10110000000001010000000000101011 m"
b10110000000001010000000000101011 q"
b1011 ?#
b1011 R
b1011 l"
b1011 r"
b1011 1#
b100000000 F
b100000000 {
b100000000 )"
b100000000 ]"
b100000000 5"
b101010 G
b101010 |
b101010 ("
b101010 6"
b110100101 8
b110100101 `"
b110100101 "#
b110100101 f"
b101001 9
b101001 b"
b101001 e"
b101001 !#
0-
b0 .
b0 m
b0 y"
b0 ~"
b0 :#
b101000 /
b101000 z"
b101000 }"
b101000 9#
b100000000000000000000000000000 =
b100000000000000000000000000000 k"
b100000000000000000000000000000 s"
b1101 ,
b1101 *#
b1100 <
b1100 j"
b1100 t"
b1100 -#
b10110000000001010000000000101011 '
b1100 )
1&
#150000
0&
