rtl/cpu_run_tb.vcd
$date
	Tue Dec  9 20:21:40 2025
$end
$version
	Icarus Verilog
$end
$timescale
	1ps
$end
$scope module cpu_run_tb $end
$var parameter 32 ! ADDR_SIZE $end
$var parameter 32 " END_PC $end
$var parameter 32 # PC_BITS $end
$var parameter 32 $ REG_NUM $end
$var parameter 32 % XLEN $end
$var reg 1 & clk $end
$var reg 32 ' curr_inst [31:0] $end
$var reg 1 ( rst $end
$var integer 32 ) cycles [31:0] $end
$var integer 32 * i [31:0] $end
$scope module dut $end
$var wire 1 & clk $end
$var wire 1 ( rst $end
$var wire 1 + stall_D $end
$var wire 32 , pc_plus_1_ext [31:0] $end
$var wire 12 - pc_plus_1 [11:0] $end
$var wire 1 . WB_we $end
$var wire 5 / WB_rd [4:0] $end
$var wire 1 0 WB_link_we $end
$var wire 32 1 WB_link_addr [31:0] $end
$var wire 32 2 WB_data_mem [31:0] $end
$var wire 2 3 WB_D_bp [1:0] $end
$var wire 1 4 MEM_we $end
$var wire 1 5 MEM_taken $end
$var wire 1 6 MEM_str $end
$var wire 1 7 MEM_stall $end
$var wire 5 8 MEM_rd [4:0] $end
$var wire 1 9 MEM_mem_valid $end
$var wire 1 : MEM_link_we $end
$var wire 32 ; MEM_link_addr [31:0] $end
$var wire 1 < MEM_ld $end
$var wire 32 = MEM_data_mem [31:0] $end
$var wire 128 > MEM_data_line [127:0] $end
$var wire 1 ? MEM_byt $end
$var wire 32 @ MEM_b2 [31:0] $end
$var wire 32 A MEM_alu_out [31:0] $end
$var wire 32 B MEM_a2 [31:0] $end
$var wire 2 C MEM_D_bp [1:0] $end
$var wire 1 D Ic_mem_req $end
$var wire 10 E Ic_mem_addr [9:0] $end
$var wire 1 F F_stall $end
$var wire 12 G F_pc [11:0] $end
$var wire 1 H F_mem_valid $end
$var wire 128 I F_mem_inst [127:0] $end
$var wire 32 J F_inst [31:0] $end
$var wire 12 K F_BP_target_pc [11:0] $end
$var wire 1 L F_BP_taken $end
$var wire 1 M EX_we $end
$var wire 1 N EX_true_taken $end
$var wire 1 O EX_taken $end
$var wire 1 P EX_str $end
$var wire 5 Q EX_rd [4:0] $end
$var wire 1 R EX_mul $end
$var wire 1 S EX_link_we $end
$var wire 32 T EX_link_addr [31:0] $end
$var wire 1 U EX_ld $end
$var wire 1 V EX_byt $end
$var wire 1 W EX_brn $end
$var wire 32 X EX_b2 [31:0] $end
$var wire 32 Y EX_b [31:0] $end
$var wire 32 Z EX_alu_out [31:0] $end
$var wire 4 [ EX_alu_op [3:0] $end
$var wire 32 \ EX_a2 [31:0] $end
$var wire 32 ] EX_a [31:0] $end
$var wire 2 ^ EX_D_bp [1:0] $end
$var wire 12 _ EX_BP_target_pc [11:0] $end
$var wire 1 ` EX_BP_taken $end
$var wire 128 a Dc_wb_wline [127:0] $end
$var wire 1 b Dc_wb_we $end
$var wire 10 c Dc_wb_addr [9:0] $end
$var wire 1 d Dc_mem_req $end
$var wire 10 e Dc_mem_addr [9:0] $end
$var wire 1 f D_we $end
$var wire 1 g D_str $end
$var wire 5 h D_rd [4:0] $end
$var wire 5 i D_rb [4:0] $end
$var wire 5 j D_ra [4:0] $end
$var wire 12 k D_pc [11:0] $end
$var wire 6 l D_opc [5:0] $end
$var wire 1 m D_mul $end
$var wire 1 n D_link_we $end
$var wire 32 o D_link_addr [31:0] $end
$var wire 1 p D_ld $end
$var wire 1 q D_jmp $end
$var wire 32 r D_inst [31:0] $end
$var wire 11 s D_imd [10:0] $end
$var wire 1 t D_byt $end
$var wire 1 u D_brn $end
$var wire 32 v D_b2 [31:0] $end
$var wire 32 w D_b [31:0] $end
$var wire 4 x D_alu_op [3:0] $end
$var wire 1 y D_addi $end
$var wire 32 z D_a2 [31:0] $end
$var wire 32 { D_a [31:0] $end
$var wire 12 | D_BP_target_pc [11:0] $end
$var wire 1 } D_BP_taken $end
$var parameter 32 ~ ADDR_SIZE $end
$var parameter 32 !" PC_BITS $end
$var parameter 32 "" REG_NUM $end
$var parameter 12 #" RESET_PC $end
$var parameter 32 $" XLEN $end
$scope module u_Hazard_unit $end
$var wire 1 & clk $end
$var wire 1 %" ex_hit_ra $end
$var wire 1 &" ex_hit_rb $end
$var wire 1 '" mem_hit_ra $end
$var wire 1 (" mem_hit_rb $end
$var wire 1 )" mul_start $end
$var wire 1 ( rst $end
$var wire 1 + stall_D $end
$var wire 1 *" wb_hit_ra $end
$var wire 1 +" wb_hit_rb $end
$var wire 1 ," mul_stall $end
$var wire 1 . WB_we $end
$var wire 5 -" WB_rd [4:0] $end
$var wire 2 ." WB_D_bp [1:0] $end
$var wire 1 4 MEM_we $end
$var wire 5 /" MEM_rd [4:0] $end
$var wire 2 0" MEM_D_bp [1:0] $end
$var wire 1 M EX_we $end
$var wire 5 1" EX_rd [4:0] $end
$var wire 1 R EX_mul $end
$var wire 1 U EX_ld $end
$var wire 32 2" EX_alu_out [31:0] $end
$var wire 2 3" EX_D_bp [1:0] $end
$var wire 5 4" D_rd [4:0] $end
$var wire 5 5" D_rb [4:0] $end
$var wire 5 6" D_ra [4:0] $end
$var parameter 32 7" ADDR_SIZE $end
$var parameter 32 8" MUL_STALLS $end
$var parameter 32 9" XLEN $end
$var reg 3 :" mul_cnt [2:0] $end
$upscope $end
$scope module u_alu $end
$var wire 1 W EX_brn $end
$var wire 32 ;" EX_b2 [31:0] $end
$var wire 32 <" EX_b [31:0] $end
$var wire 4 =" EX_alu_op [3:0] $end
$var wire 32 >" EX_a2 [31:0] $end
$var wire 32 ?" EX_a [31:0] $end
$var wire 12 @" EX_BP_target_pc [11:0] $end
$var wire 1 ` EX_BP_taken $end
$var parameter 32 A" PC_BITS $end
$var parameter 32 B" SHW $end
$var parameter 32 C" XLEN $end
$var reg 32 D" EX_alu_out [31:0] $end
$var reg 1 O EX_taken $end
$var reg 1 N EX_true_taken $end
$var reg 32 E" next_pc [31:0] $end
$upscope $end
$scope module u_branch_buffer $end
$var wire 12 F" EX_alu_out [11:0] $end
$var wire 12 G" EX_pc [11:0] $end
$var wire 1 N EX_true_taken $end
$var wire 1 L F_BP_taken $end
$var wire 1 & clk $end
$var wire 1 ( rst $end
$var wire 1 H" taken_on_hit $end
$var wire 1 7 MEM_stall $end
$var wire 1 F F_stall $end
$var wire 12 I" F_pc [11:0] $end
$var wire 12 J" F_BP_target_pc [11:0] $end
$var wire 1 W EX_brn $end
$var parameter 32 K" DEPTH $end
$var parameter 32 L" INDX $end
$var parameter 32 M" PC_BITS $end
$var reg 1 N" ex_hit $end
$var reg 3 O" ex_hit_idx [2:0] $end
$var reg 1 P" f_hit $end
$var reg 3 Q" f_hit_idx [2:0] $end
$var integer 32 R" i [31:0] $end
$scope task fifo_insert_new $end
$upscope $end
$upscope $end
$scope module u_d_to_ex_reg $end
$var wire 1 S" D_link_we $end
$var wire 1 ` EX_BP_taken $end
$var wire 12 T" EX_BP_target_pc [11:0] $end
$var wire 32 U" EX_a2 [31:0] $end
$var wire 4 V" EX_alu_op [3:0] $end
$var wire 32 W" EX_b [31:0] $end
$var wire 32 X" EX_b2 [31:0] $end
$var wire 1 W EX_brn $end
$var wire 1 V EX_byt $end
$var wire 1 Y" EX_jmp $end
$var wire 1 S EX_link_we $end
$var wire 1 P EX_str $end
$var wire 1 O EX_taken $end
$var wire 1 & clk $end
$var wire 1 ( rst $end
$var wire 1 + stall_D $end
$var wire 1 7 MEM_stall $end
$var wire 1 M EX_we $end
$var wire 5 Z" EX_rd [4:0] $end
$var wire 1 R EX_mul $end
$var wire 32 [" EX_link_addr [31:0] $end
$var wire 1 U EX_ld $end
$var wire 32 \" EX_a [31:0] $end
$var wire 1 f D_we $end
$var wire 1 g D_str $end
$var wire 5 ]" D_rd [4:0] $end
$var wire 1 m D_mul $end
$var wire 32 ^" D_link_addr [31:0] $end
$var wire 1 p D_ld $end
$var wire 1 q D_jmp $end
$var wire 1 t D_byt $end
$var wire 1 u D_brn $end
$var wire 32 _" D_b2 [31:0] $end
$var wire 32 `" D_b [31:0] $end
$var wire 4 a" D_alu_op [3:0] $end
$var wire 32 b" D_a2 [31:0] $end
$var wire 32 c" D_a [31:0] $end
$var wire 12 d" D_BP_target_pc [11:0] $end
$var wire 1 } D_BP_taken $end
$var parameter 32 e" PC_BITS $end
$var parameter 32 f" XLEN $end
$var reg 32 g" ex_a2_r [31:0] $end
$var reg 32 h" ex_a_r [31:0] $end
$var reg 4 i" ex_alu_op_r [3:0] $end
$var reg 32 j" ex_b2_r [31:0] $end
$var reg 32 k" ex_b_r [31:0] $end
$var reg 1 l" ex_bp_taken_r $end
$var reg 12 m" ex_bp_target_pc_r [11:0] $end
$var reg 1 n" ex_brn_r $end
$var reg 1 o" ex_byt_r $end
$var reg 1 p" ex_jmp_r $end
$var reg 1 U ex_ld_r $end
$var reg 1 q" ex_link_addr_r $end
$var reg 1 r" ex_link_we_r $end
$var reg 1 R ex_mul_r $end
$var reg 5 s" ex_rd_r [4:0] $end
$var reg 1 t" ex_str_r $end
$var reg 1 M ex_we_r $end
$upscope $end
$scope module u_dcache $end
$var wire 1 & clk $end
$var wire 1 u" op_active $end
$var wire 1 ( rst $end
$var wire 12 v" addr_word [11:0] $end
$var wire 2 w" addr_off [1:0] $end
$var wire 10 x" addr_line [9:0] $end
$var wire 1 6 MEM_str $end
$var wire 1 9 MEM_mem_valid $end
$var wire 1 < MEM_ld $end
$var wire 128 y" MEM_data_line [127:0] $end
$var wire 1 ? MEM_byt $end
$var wire 32 z" MEM_b2 [31:0] $end
$var wire 32 {" MEM_alu_out [31:0] $end
$var parameter 32 |" XLEN $end
$var reg 10 }" Dc_mem_addr [9:0] $end
$var reg 1 d Dc_mem_req $end
$var reg 10 ~" Dc_wb_addr [9:0] $end
$var reg 1 b Dc_wb_we $end
$var reg 128 !# Dc_wb_wline [127:0] $end
$var reg 32 "# MEM_data_mem [31:0] $end
$var reg 1 7 MEM_stall $end
$var reg 2 ## fifo_ptr [1:0] $end
$var reg 1 $# hit $end
$var reg 2 %# hit_idx [1:0] $end
$var reg 10 &# miss_line [9:0] $end
$var integer 32 '# i [31:0] $end
$upscope $end
$scope module u_decode $end
$var wire 1 u D_brn $end
$var wire 1 q D_jmp $end
$var wire 1 n D_link_we $end
$var wire 1 f D_we $end
$var wire 1 & clk $end
$var wire 1 (# is_beq $end
$var wire 1 )# is_bgt $end
$var wire 1 *# is_blt $end
$var wire 1 +# is_jalx $end
$var wire 1 ,# is_jmp $end
$var wire 1 -# is_ctrl $end
$var wire 1 g D_str $end
$var wire 5 .# D_rd [4:0] $end
$var wire 5 /# D_rb [4:0] $end
$var wire 5 0# D_ra [4:0] $end
$var wire 6 1# D_opc [5:0] $end
$var wire 1 m D_mul $end
$var wire 1 p D_ld $end
$var wire 32 2# D_inst [31:0] $end
$var wire 11 3# D_imd [10:0] $end
$var wire 1 t D_byt $end
$var wire 4 4# D_alu_op [3:0] $end
$var wire 1 y D_addi $end
$var parameter 6 5# OPC_ADD $end
$var parameter 6 6# OPC_ADDI $end
$var parameter 6 7# OPC_AND $end
$var parameter 6 8# OPC_CTRL $end
$var parameter 6 9# OPC_GT $end
$var parameter 5 :# OPC_LOAD $end
$var parameter 6 ;# OPC_LT $end
$var parameter 6 <# OPC_MUL $end
$var parameter 6 =# OPC_NOT $end
$var parameter 6 ># OPC_OR $end
$var parameter 6 ?# OPC_SHL $end
$var parameter 6 @# OPC_SHR $end
$var parameter 5 A# OPC_STORE $end
$var parameter 6 B# OPC_SUB $end
$var parameter 6 C# OPC_XOR $end
$var parameter 5 D# RD_BEQ $end
$var parameter 5 E# RD_BGT $end
$var parameter 5 F# RD_BLT $end
$var parameter 5 G# RD_JALX $end
$var parameter 5 H# RD_JMP $end
$var parameter 32 I# XLEN $end
$upscope $end
$scope module u_ex_to_mem_reg $end
$var wire 32 J# EX_a2 [31:0] $end
$var wire 32 K# EX_alu_out [31:0] $end
$var wire 32 L# EX_b2 [31:0] $end
$var wire 1 V EX_byt $end
$var wire 1 U EX_ld $end
$var wire 32 M# EX_link_addr [31:0] $end
$var wire 1 S EX_link_we $end
$var wire 5 N# EX_rd [4:0] $end
$var wire 1 P EX_str $end
$var wire 1 O EX_taken $end
$var wire 1 M EX_we $end
$var wire 32 O# MEM_a2 [31:0] $end
$var wire 32 P# MEM_b2 [31:0] $end
$var wire 1 ? MEM_byt $end
$var wire 32 Q# MEM_link_addr [31:0] $end
$var wire 1 : MEM_link_we $end
$var wire 1 7 MEM_stall $end
$var wire 1 5 MEM_taken $end
$var wire 1 & clk $end
$var wire 1 ( rst $end
$var wire 1 4 MEM_we $end
$var wire 1 6 MEM_str $end
$var wire 5 R# MEM_rd [4:0] $end
$var wire 1 < MEM_ld $end
$var wire 32 S# MEM_alu_out [31:0] $end
$var parameter 32 T# XLEN $end
$var reg 32 U# mem_a2_r [31:0] $end
$var reg 32 V# mem_alu_out_r [31:0] $end
$var reg 32 W# mem_b2_r [31:0] $end
$var reg 1 X# mem_byt_r $end
$var reg 1 < mem_ld_r $end
$var reg 32 Y# mem_link_addr_r [31:0] $end
$var reg 1 Z# mem_link_we_r $end
$var reg 5 [# mem_rd_r [4:0] $end
$var reg 1 6 mem_str_r $end
$var reg 1 \# mem_taken_r $end
$var reg 1 4 mem_we_r $end
$upscope $end
$scope module u_f2d $end
$var wire 1 } D_BP_taken $end
$var wire 12 ]# D_BP_target_pc [11:0] $end
$var wire 32 ^# D_link_addr [31:0] $end
$var wire 1 O EX_taken $end
$var wire 1 L F_BP_taken $end
$var wire 12 _# F_BP_target_pc [11:0] $end
$var wire 32 `# F_link_addr [31:0] $end
$var wire 1 7 MEM_stall $end
$var wire 1 & clk $end
$var wire 1 ( rst $end
$var wire 1 + stall_D $end
$var wire 12 a# F_pc [11:0] $end
$var wire 32 b# F_inst [31:0] $end
$var wire 12 c# D_pc [11:0] $end
$var wire 32 d# D_inst [31:0] $end
$var parameter 32 e# NOP $end
$var parameter 32 f# PC_BITS $end
$var parameter 32 g# XLEN $end
$var reg 1 h# d_bp_taken $end
$var reg 12 i# d_bp_target_pc [11:0] $end
$var reg 32 j# d_inst [31:0] $end
$var reg 32 k# d_link_addr [31:0] $end
$var reg 12 l# d_pc [11:0] $end
$upscope $end
$scope module u_icache $end
$var wire 1 & clk $end
$var wire 1 ( rst $end
$var wire 2 m# pc_word [1:0] $end
$var wire 12 n# pc_line [11:0] $end
$var wire 12 o# F_pc [11:0] $end
$var wire 1 H F_mem_valid $end
$var wire 128 p# F_mem_inst [127:0] $end
$var parameter 32 q# PC_BITS $end
$var reg 32 r# F_inst [31:0] $end
$var reg 1 F F_stall $end
$var reg 10 s# Ic_mem_addr [9:0] $end
$var reg 1 D Ic_mem_req $end
$var reg 2 t# fifo_ptr [1:0] $end
$var reg 1 u# hit $end
$var reg 2 v# hit_idx [1:0] $end
$var reg 10 w# miss_line [9:0] $end
$var integer 32 x# i [31:0] $end
$upscope $end
$scope module u_mem_to_wb_reg $end
$var wire 32 y# MEM_data_mem [31:0] $end
$var wire 32 z# MEM_link_addr [31:0] $end
$var wire 1 n MEM_link_we $end
$var wire 5 {# MEM_rd [4:0] $end
$var wire 1 4 MEM_we $end
$var wire 1 & clk $end
$var wire 1 ( rst $end
$var wire 1 . WB_we $end
$var wire 5 |# WB_rd [4:0] $end
$var wire 1 0 WB_link_we $end
$var wire 32 }# WB_link_addr [31:0] $end
$var wire 32 ~# WB_data_mem [31:0] $end
$var parameter 32 !$ XLEN $end
$var reg 32 "$ wb_data_mem_r [31:0] $end
$var reg 32 #$ wb_link_addr_r [31:0] $end
$var reg 1 0 wb_link_we_r $end
$var reg 5 $$ wb_rd_r [4:0] $end
$var reg 1 . wb_we_r $end
$upscope $end
$scope module u_pc $end
$var wire 12 %$ EX_alt_pc [11:0] $end
$var wire 1 O EX_taken $end
$var wire 12 &$ F_BP_target_pc [11:0] $end
$var wire 1 & clk $end
$var wire 1 ( rst $end
$var wire 1 + stall_D $end
$var parameter 32 '$ PCLEN $end
$var parameter 12 ($ RESET_PC $end
$var reg 12 )$ F_pc [11:0] $end
$upscope $end
$scope module u_regfile $end
$var wire 32 *$ D_a2 [31:0] $end
$var wire 1 y D_addi $end
$var wire 32 +$ D_b2 [31:0] $end
$var wire 1 u D_brn $end
$var wire 11 ,$ D_imd [10:0] $end
$var wire 1 q D_jmp $end
$var wire 1 p D_ld $end
$var wire 1 n D_link_we $end
$var wire 1 m D_mul $end
$var wire 12 -$ D_pc [11:0] $end
$var wire 5 .$ D_ra [4:0] $end
$var wire 5 /$ D_rb [4:0] $end
$var wire 1 g D_str $end
$var wire 2 0$ EX_D_bp [1:0] $end
$var wire 32 1$ EX_alu_out [31:0] $end
$var wire 2 2$ MEM_D_bp [1:0] $end
$var wire 32 3$ MEM_data_mem [31:0] $end
$var wire 2 4$ WB_D_bp [1:0] $end
$var wire 1 5$ WB_RegWrite_Enable $end
$var wire 32 6$ WB_data_mem [31:0] $end
$var wire 32 7$ WB_link_addr [31:0] $end
$var wire 1 0 WB_link_we $end
$var wire 5 8$ WB_rd [4:0] $end
$var wire 1 . WB_we $end
$var wire 1 & clk $end
$var wire 32 9$ ra_raw [31:0] $end
$var wire 32 :$ rb_raw [31:0] $end
$var wire 32 ;$ rb_fwd [31:0] $end
$var wire 32 <$ ra_fwd [31:0] $end
$var wire 32 =$ pc_extended [31:0] $end
$var wire 32 >$ offset [31:0] $end
$var wire 32 ?$ WB_data_memwrite [31:0] $end
$var wire 32 @$ D_b [31:0] $end
$var wire 32 A$ D_a [31:0] $end
$var parameter 32 B$ ADDR_SIZE $end
$var parameter 32 C$ REG_NUM $end
$var parameter 32 D$ XLEN $end
$var integer 32 E$ i [31:0] $end
$upscope $end
$scope module u_unified_mem $end
$var wire 10 F$ Dc_mem_addr [9:0] $end
$var wire 1 d Dc_mem_req $end
$var wire 10 G$ Dc_wb_addr [9:0] $end
$var wire 1 b Dc_wb_we $end
$var wire 128 H$ Dc_wb_wline [127:0] $end
$var wire 10 I$ Ic_mem_addr [9:0] $end
$var wire 1 D Ic_mem_req $end
$var wire 1 & clk $end
$var wire 1 ( rst $end
$var parameter 32 J$ LATENCY $end
$var parameter 32 K$ XLEN $end
$var reg 2 L$ D_counter [1:0] $end
$var reg 10 M$ D_saved_line [9:0] $end
$var reg 128 N$ F_mem_inst [127:0] $end
$var reg 1 H F_mem_valid $end
$var reg 2 O$ I_counter [1:0] $end
$var reg 10 P$ I_saved_line [9:0] $end
$var reg 128 Q$ MEM_data_line [127:0] $end
$var reg 1 9 MEM_mem_valid $end
$var integer 32 R$ i [31:0] $end
$var integer 32 S$ j [31:0] $end
$upscope $end
$upscope $end
$scope begin run_loop $end
$upscope $end
$upscope $end
$enddefinitions $end
$comment Show the parameter values. $end
$dumpall
b100000 K$
b11 J$
b100000 D$
b100000 C$
b101 B$
b0 ($
b1100 '$
b100000 !$
b1100 q#
b100000 g#
b1100 f#
b100000000000000000000000000000 e#
b100000 T#
b100000 I#
b0 H#
b100 G#
b10 F#
b11 E#
b1 D#
b100 C#
b1 B#
b1100 A#
b111 @#
b110 ?#
b11 >#
b101 =#
b1110 <#
b1001 ;#
b1011 :#
b1010 9#
b1101 8#
b10 7#
b1000 6#
b0 5#
b100000 |"
b100000 f"
b1100 e"
b1100 M"
b11 L"
b1000 K"
b100000 C"
b101 B"
b1100 A"
b100000 9"
b100 8"
b101 7"
b100000 $"
b0 #"
b100000 ""
b1100 !"
b101 ~
b100000 %
b100000 $
b1100 #
b10110 "
b101 !
$end
#0
$dumpvars
b100 S$
b10000000000 R$
bx Q$
bx P$
bx O$
bx N$
bx M$
bx L$
b0 I$
bx H$
bx G$
b0xxxxxxxxx F$
b100000 E$
bx A$
bx @$
bx ?$
bx >$
bx =$
bx <$
bx ;$
bx :$
bx 9$
bx 8$
bx 7$
bx 6$
x5$
bx 4$
bx 3$
bx 2$
bx 1$
bx 0$
bx /$
bx .$
bx -$
bx ,$
bx +$
bx *$
b0 )$
b0 &$
bx %$
bx $$
bx #$
bx "$
bx ~#
bx }#
bx |#
bx {#
bx z#
bx y#
bx x#
bx w#
b0 v#
0u#
bx t#
b0 s#
b100000000000000000000000000000 r#
bx p#
b0 o#
b0 n#
b0 m#
bx l#
bx k#
bx j#
bx i#
xh#
bx d#
bx c#
b100000000000000000000000000000 b#
b0 a#
b1 `#
b0 _#
bx ^#
bx ]#
x\#
bx [#
xZ#
bx Y#
xX#
bx W#
bx V#
bx U#
bx S#
bx R#
bx Q#
bx P#
bx O#
bx N#
b0x M#
bx L#
bx K#
bx J#
bx 4#
bx 3#
bx 2#
bx 1#
bx 0#
bx /#
bx .#
x-#
x,#
x+#
x*#
x)#
x(#
bx '#
bx &#
b0 %#
0$#
bx ##
bx "#
bx !#
bx ~"
b0xxxxxxxxx }"
bx {"
bx z"
bx y"
b0xxxxxxxxx x"
bx w"
b0xxxxxxxxxxx v"
xu"
xt"
bx s"
xr"
xq"
xp"
xo"
xn"
bx m"
xl"
bx k"
bx j"
bx i"
bx h"
bx g"
bx d"
bx c"
bx b"
bx a"
bx `"
bx _"
bx ^"
bx ]"
bx \"
b0x ["
bx Z"
xY"
bx X"
bx W"
bx V"
bx U"
bx T"
zS"
b1000 R"
b0 Q"
0P"
bx O"
xN"
b0 J"
b0 I"
0H"
bx G"
bx F"
bx E"
bx D"
bx @"
bx ?"
bx >"
bx ="
bx <"
bx ;"
bx :"
bx 6"
bx 5"
bx 4"
bx 3"
bx 2"
bx 1"
bx 0"
bx /"
bx ."
bx -"
x,"
x+"
x*"
x)"
x("
x'"
x&"
x%"
x}
bx |
bx {
bx z
xy
bx x
bx w
bx v
xu
xt
bx s
bx r
xq
xp
bx o
xn
xm
bx l
bx k
bx j
bx i
bx h
xg
xf
b0xxxxxxxxx e
0d
bx c
xb
bx a
x`
bx _
bx ^
bx ]
bx \
bx [
bx Z
bx Y
bx X
xW
xV
xU
b0x T
xS
xR
bx Q
xP
xO
xN
xM
0L
b0 K
b100000000000000000000000000000 J
bx I
xH
b0 G
1F
b0 E
xD
bx C
bx B
bx A
bx @
x?
bx >
bx =
x<
bx ;
x:
x9
bx 8
07
x6
x5
x4
bx 3
bx 2
bx 1
x0
bx /
x.
b1 -
b1 ,
x+
bx *
bx )
1(
bx '
0&
$end
#5000
b0 w
b0 `"
b0 @$
0)#
0*#
0(#
0n
0+#
0q
0,#
0p
0g
0t
1f
b0 x
b0 a"
b0 4#
b0 {
b0 c"
b0 A$
b0 ^
b0 3"
b0 0$
b0 z
b0 b"
b0 *$
b0 <$
b0 v
b0 _"
b0 +$
b0 ;$
b0 F"
b0 %$
b0 e
b0 }"
b0 F$
b0 x"
b0 w"
b0 >$
b0 s
b0 3#
b0 ,$
b0 h
b0 4"
b0 ]"
b0 .#
b0 :$
b0 i
b0 5"
b0 /#
b0 /$
b0 9$
b0 j
b0 6"
b0 0#
b0 .$
0u
0-#
0m
1y
b1000 l
b1000 1#
b0 =$
0+
0)"
0&"
0%"
b0 G"
b0 E"
0N
0O
b0 Z
b0 2"
b0 D"
b0 K#
b0 1$
b0 O"
1N"
1P"
0u"
0("
b0 C
b0 0"
b0 2$
0'"
b0 v"
1D
1F
b0 =
b0 "#
b0 y#
b0 3$
05$
0+"
b0 3
b0 ."
b0 4$
0*"
b0 ?$
b0 w#
b0 t#
b0 o
b0 ^"
b0 ^#
b0 z#
b0 k#
b0 |
b0 d"
b0 ]#
b0 i#
0}
0h#
b100000000000000000000000000000 r
b100000000000000000000000000000 2#
b100000000000000000000000000000 d#
b100000000000000000000000000000 j#
b0 k
b0 c#
b0 l#
b0 -$
0,"
b0 :"
b0 _
b0 @"
b0 T"
b0 m"
b0 T
b0 ["
b0 M#
0q"
0S
0r"
0Y"
0p"
0R
0M
0V
0o"
0P
0t"
0U
b0 Q
b0 1"
b0 Z"
b0 s"
b0 N#
0`
0l"
0W
0n"
b0 [
b0 ="
b0 V"
b0 i"
b0 X
b0 ;"
b0 X"
b0 L#
b0 j"
b0 Y
b0 <"
b0 W"
b0 k"
b0 \
b0 >"
b0 U"
b0 J#
b0 g"
b0 ]
b0 ?"
b0 \"
b0 h"
0?
0X#
06
0<
04
b0 8
b0 /"
b0 R#
b0 [#
b0 {#
b0 B
b0 O#
b0 U#
b0 @
b0 z"
b0 P#
b0 W#
05
0\#
b0 A
b0 {"
b0 S#
b0 V#
b0 a
b0 !#
b0 H$
b0 c
b0 ~"
b0 G$
0b
b0 &#
b0 ##
b0 O$
0H
b0 L$
09
00
b0 1
b0 }#
b0 #$
b0 7$
0.
b0 /
b0 -"
b0 |#
b0 $$
b0 8$
b0 2
b0 ~#
b0 "$
b0 6$
b100 x#
b1000 R"
b100 '#
1&
#10000
0&
#15000
b100 '#
b1000 R"
b100 x#
1&
#20000
0&
#25000
0(
b100 x#
b1000 R"
b100 '#
b0 )
1&
#30000
0&
#35000
b11 ^
b11 3"
b11 0$
1&"
1%"
b11 O$
b0 P$
0:
0Z#
b0 ;
b0 Q#
b0 Y#
zS
zr"
1M
b1 o
b1 ^"
b1 ^#
b1 z#
b1 k#
b100000000000000000000000000000 '
b1 )
1&
#40000
0&
#45000
1("
b11 C
b11 0"
b11 2$
1'"
b1 T
b1 ["
b1 M#
1q"
z:
zZ#
14
b10 O$
b1 1
b1 }#
b1 #$
b1 7$
b10 )
1&
#50000
0&
#55000
15$
1+"
b11 3
b11 ."
b11 4$
1*"
1.
b1 O$
b1 ;
b1 Q#
b1 Y#
b11 )
1&
#60000
0&
#65000
0D
1F
1H
b110100001000100010000000000111001000000110001100011000000000100010000001000010000100000000001000100000001000010000100000000001 I
b110100001000100010000000000111001000000110001100011000000000100010000001000010000100000000001000100000001000010000100000000001 p#
b110100001000100010000000000111001000000110001100011000000000100010000001000010000100000000001000100000001000010000100000000001 N$
b0 O$
b100 )
1&
#70000
0&
#75000
b1 K
b1 J"
b1 _#
b1 &$
b100000001000010000100000000001 J
b100000001000010000100000000001 b#
b100000001000010000100000000001 r#
1u#
b100 x#
0F
0H
b1 t#
b101 )
1&
#80000
0&
#85000
b0 ^
b0 3"
b0 0$
b1 w
b1 `"
b1 @$
0+"
0("
0&"
b0 3
b0 ."
b0 4$
0*"
b0 C
b0 0"
b0 2$
0'"
0%"
b100 x#
b100000010000100001000000000010 J
b100000010000100001000000000010 b#
b100000010000100001000000000010 r#
1u#
b1 >$
b1 s
b1 3#
b1 ,$
b1 h
b1 4"
b1 ]"
b1 .#
b1 i
b1 5"
b1 /#
b1 /$
b1 j
b1 6"
b1 0#
b1 .$
b1 m#
b10 K
b10 J"
b10 _#
b10 &$
b1000 R"
0P"
b1 |
b1 d"
b1 ]#
b1 i#
b100000001000010000100000000001 r
b100000001000010000100000000001 2#
b100000001000010000100000000001 d#
b100000001000010000100000000001 j#
b10 ,
b10 `#
b10 -
b1 G
b1 I"
b1 a#
b1 o#
b1 )$
b100000001000010000100000000001 '
b110 )
1&
#90000
0&
#95000
b1 F"
b1 %$
b10 w
b10 `"
b10 @$
b100 x#
b100000011000110001100000000010 J
b100000011000110001100000000010 b#
b100000011000110001100000000010 r#
1u#
b1 Z
b1 2"
b1 D"
b1 K#
b1 1$
b10 >$
b10 s
b10 3#
b10 ,$
b10 h
b10 4"
b10 ]"
b10 .#
b10 i
b10 5"
b10 /#
b10 /$
b10 j
b10 6"
b10 0#
b10 .$
b1 =$
b10 m#
b11 K
b11 J"
b11 _#
b11 &$
b1000 R"
b1 _
b1 @"
b1 T"
b1 m"
b1 Q
b1 1"
b1 Z"
b1 s"
b1 N#
b1 Y
b1 <"
b1 W"
b1 k"
b10 o
b10 ^"
b10 ^#
b10 z#
b10 k#
b10 |
b10 d"
b10 ]#
b10 i#
b100000010000100001000000000010 r
b100000010000100001000000000010 2#
b100000010000100001000000000010 d#
b100000010000100001000000000010 j#
b1 k
b1 c#
b1 l#
b1 -$
b11 ,
b11 `#
b11 -
b10 G
b10 I"
b10 a#
b10 o#
b10 )$
b100000010000100001000000000010 '
b111 )
1&
#100000
0&
#105000
b0 {
b0 c"
b0 A$
b0 v
b0 _"
b0 +$
b0 ;$
b0 z
b0 b"
b0 *$
b0 <$
b0 ^
b0 3"
b0 0$
b10 F"
b10 %$
b1 w"
b100 x#
b110100001000100010000000000111 J
b110100001000100010000000000111 b#
b110100001000100010000000000111 r#
1u#
b11 h
b11 4"
b11 ]"
b11 .#
b11 i
b11 5"
b11 /#
b11 /$
b11 j
b11 6"
b11 0#
b11 .$
b10 =$
0&"
0%"
b10 Z
b10 2"
b10 D"
b10 K#
b10 1$
b1 v"
b1 =
b1 "#
b1 y#
b1 3$
b11 m#
b100 K
b100 J"
b100 _#
b100 &$
b1000 R"
b11 o
b11 ^"
b11 ^#
b11 z#
b11 k#
b11 |
b11 d"
b11 ]#
b11 i#
b100000011000110001100000000010 r
b100000011000110001100000000010 2#
b100000011000110001100000000010 d#
b100000011000110001100000000010 j#
b10 k
b10 c#
b10 l#
b10 -$
b10 _
b10 @"
b10 T"
b10 m"
b0 T
b0 ["
b0 M#
0q"
b10 Q
b10 1"
b10 Z"
b10 s"
b10 N#
b10 Y
b10 <"
b10 W"
b10 k"
b1 8
b1 /"
b1 R#
b1 [#
b1 {#
b1 A
b1 {"
b1 S#
b1 V#
b10 1
b10 }#
b10 #$
b10 7$
b100 ,
b100 `#
b100 -
b11 G
b11 I"
b11 a#
b11 o#
b11 )$
b100000011000110001100000000010 '
b1000 )
1&
#110000
0&
