rtl/cpu_run_tb.vcd
$date
	Sat Dec  6 12:33:12 2025
$end
$version
	Icarus Verilog
$end
$timescale
	1ps
$end
$scope module cpu_run_tb $end
$var parameter 32 ! ADDR_SIZE $end
$var parameter 32 " END_PC $end
$var parameter 32 # PC_BITS $end
$var parameter 32 $ REG_NUM $end
$var parameter 32 % XLEN $end
$var reg 1 & clk $end
$var reg 32 ' curr_inst [31:0] $end
$var reg 1 ( rst $end
$var integer 32 ) cycles [31:0] $end
$var integer 32 * i [31:0] $end
$scope module dut $end
$var wire 1 + F_admin $end
$var wire 1 & clk $end
$var wire 1 ( rst $end
$var wire 1 , stall_D $end
$var wire 1 - WB_we $end
$var wire 5 . WB_rd [4:0] $end
$var wire 32 / WB_data_mem [31:0] $end
$var wire 2 0 WB_D_bp [1:0] $end
$var wire 1 1 Ptw_mem_valid $end
$var wire 1 2 Ptw_mem_req $end
$var wire 32 3 Ptw_mem_rdata [31:0] $end
$var wire 20 4 Ptw_mem_addr [19:0] $end
$var wire 1 5 MEM_we $end
$var wire 1 6 MEM_taken $end
$var wire 1 7 MEM_str $end
$var wire 1 8 MEM_stall $end
$var wire 5 9 MEM_rd [4:0] $end
$var wire 1 : MEM_mem_valid $end
$var wire 1 ; MEM_ld $end
$var wire 32 < MEM_data_mem [31:0] $end
$var wire 128 = MEM_data_line [127:0] $end
$var wire 1 > MEM_byt $end
$var wire 32 ? MEM_b2 [31:0] $end
$var wire 32 @ MEM_alu_out [31:0] $end
$var wire 32 A MEM_a2 [31:0] $end
$var wire 2 B MEM_D_bp [1:0] $end
$var wire 20 C Itlb_va [19:0] $end
$var wire 1 D Itlb_stall $end
$var wire 1 E Itlb_pa_request $end
$var wire 1 F Ic_mem_req $end
$var wire 16 G Ic_mem_addr [15:0] $end
$var wire 1 H F_stall $end
$var wire 1 I F_ptw_valid $end
$var wire 8 J F_ptw_pa [7:0] $end
$var wire 32 K F_pc_va [31:0] $end
$var wire 20 L F_pc [19:0] $end
$var wire 1 M F_mem_valid $end
$var wire 128 N F_mem_inst [127:0] $end
$var wire 32 O F_inst [31:0] $end
$var wire 32 P F_BP_target_pc [31:0] $end
$var wire 1 Q F_BP_taken $end
$var wire 1 R EX_we $end
$var wire 1 S EX_true_taken $end
$var wire 1 T EX_taken $end
$var wire 1 U EX_str $end
$var wire 5 V EX_rd [4:0] $end
$var wire 1 W EX_mul $end
$var wire 1 X EX_ld $end
$var wire 1 Y EX_byt $end
$var wire 1 Z EX_brn $end
$var wire 32 [ EX_b2 [31:0] $end
$var wire 32 \ EX_b [31:0] $end
$var wire 32 ] EX_alu_out [31:0] $end
$var wire 4 ^ EX_alu_op [3:0] $end
$var wire 32 _ EX_a2 [31:0] $end
$var wire 32 ` EX_a [31:0] $end
$var wire 2 a EX_D_bp [1:0] $end
$var wire 32 b EX_BP_target_pc [31:0] $end
$var wire 1 c EX_BP_taken $end
$var wire 128 d Dc_wb_wline [127:0] $end
$var wire 1 e Dc_wb_we $end
$var wire 16 f Dc_wb_addr [15:0] $end
$var wire 1 g Dc_mem_req $end
$var wire 16 h Dc_mem_addr [15:0] $end
$var wire 1 i D_we $end
$var wire 1 j D_str $end
$var wire 5 k D_rd [4:0] $end
$var wire 5 l D_rb [4:0] $end
$var wire 5 m D_ra [4:0] $end
$var wire 32 n D_pc [31:0] $end
$var wire 6 o D_opc [5:0] $end
$var wire 1 p D_mul $end
$var wire 1 q D_ld $end
$var wire 32 r D_inst [31:0] $end
$var wire 11 s D_imd [10:0] $end
$var wire 1 t D_byt $end
$var wire 1 u D_brn $end
$var wire 32 v D_b2 [31:0] $end
$var wire 32 w D_b [31:0] $end
$var wire 4 x D_alu_op [3:0] $end
$var wire 1 y D_addi $end
$var wire 32 z D_a2 [31:0] $end
$var wire 32 { D_a [31:0] $end
$var wire 32 | D_BP_target_pc [31:0] $end
$var wire 1 } D_BP_taken $end
$var parameter 32 ~ ADDR_SIZE $end
$var parameter 32 !" PC_BITS $end
$var parameter 32 "" REG_NUM $end
$var parameter 32 #" RESET_PC $end
$var parameter 32 $" VPC_BITS $end
$var parameter 32 %" XLEN $end
$scope module u_Hazard_unit $end
$var wire 1 & clk $end
$var wire 1 &" ex_hit_ra $end
$var wire 1 '" ex_hit_rb $end
$var wire 1 (" mem_hit_ra $end
$var wire 1 )" mem_hit_rb $end
$var wire 1 *" mul_start $end
$var wire 1 ( rst $end
$var wire 1 , stall_D $end
$var wire 1 +" wb_hit_ra $end
$var wire 1 ," wb_hit_rb $end
$var wire 1 -" mul_stall $end
$var wire 1 - WB_we $end
$var wire 5 ." WB_rd [4:0] $end
$var wire 2 /" WB_D_bp [1:0] $end
$var wire 1 5 MEM_we $end
$var wire 5 0" MEM_rd [4:0] $end
$var wire 2 1" MEM_D_bp [1:0] $end
$var wire 1 R EX_we $end
$var wire 5 2" EX_rd [4:0] $end
$var wire 1 W EX_mul $end
$var wire 1 X EX_ld $end
$var wire 32 3" EX_alu_out [31:0] $end
$var wire 2 4" EX_D_bp [1:0] $end
$var wire 5 5" D_rd [4:0] $end
$var wire 5 6" D_rb [4:0] $end
$var wire 5 7" D_ra [4:0] $end
$var parameter 32 8" ADDR_SIZE $end
$var parameter 32 9" MUL_STALLS $end
$var parameter 32 :" XLEN $end
$var reg 3 ;" mul_cnt [2:0] $end
$upscope $end
$scope module u_alu $end
$var wire 1 Z EX_brn $end
$var wire 32 <" EX_b2 [31:0] $end
$var wire 32 =" EX_b [31:0] $end
$var wire 4 >" EX_alu_op [3:0] $end
$var wire 32 ?" EX_a2 [31:0] $end
$var wire 32 @" EX_a [31:0] $end
$var wire 32 A" EX_BP_target_pc [31:0] $end
$var wire 1 c EX_BP_taken $end
$var parameter 32 B" PC_BITS $end
$var parameter 32 C" SHW $end
$var parameter 32 D" VPC_BITS $end
$var parameter 32 E" XLEN $end
$var reg 32 F" EX_alu_out [31:0] $end
$var reg 1 T EX_taken $end
$var reg 1 S EX_true_taken $end
$var reg 32 G" next_pc [31:0] $end
$upscope $end
$scope module u_branch_buffer $end
$var wire 32 H" EX_alu_out [31:0] $end
$var wire 1 S EX_true_taken $end
$var wire 1 Q F_BP_taken $end
$var wire 1 & clk $end
$var wire 1 ( rst $end
$var wire 1 I" taken_on_hit $end
$var wire 32 J" seq_pc [31:0] $end
$var wire 1 8 MEM_stall $end
$var wire 1 D Itlb_stall $end
$var wire 1 H F_stall $end
$var wire 32 K" F_pc_va [31:0] $end
$var wire 32 L" F_BP_target_pc [31:0] $end
$var wire 32 M" EX_pc [31:0] $end
$var wire 1 Z EX_brn $end
$var parameter 32 N" DEPTH $end
$var parameter 32 O" INDX $end
$var parameter 32 P" PC_BITS $end
$var reg 1 Q" ex_hit $end
$var reg 3 R" ex_hit_idx [2:0] $end
$var reg 1 S" f_hit $end
$var reg 3 T" f_hit_idx [2:0] $end
$var integer 32 U" i [31:0] $end
$scope task fifo_insert_new $end
$upscope $end
$upscope $end
$scope module u_d_to_ex_reg $end
$var wire 1 c EX_BP_taken $end
$var wire 32 V" EX_BP_target_pc [31:0] $end
$var wire 32 W" EX_a [31:0] $end
$var wire 32 X" EX_a2 [31:0] $end
$var wire 4 Y" EX_alu_op [3:0] $end
$var wire 32 Z" EX_b [31:0] $end
$var wire 32 [" EX_b2 [31:0] $end
$var wire 1 Z EX_brn $end
$var wire 1 Y EX_byt $end
$var wire 1 U EX_str $end
$var wire 1 T EX_taken $end
$var wire 1 & clk $end
$var wire 1 ( rst $end
$var wire 1 , stall_D $end
$var wire 1 8 MEM_stall $end
$var wire 1 R EX_we $end
$var wire 5 \" EX_rd [4:0] $end
$var wire 1 W EX_mul $end
$var wire 1 X EX_ld $end
$var wire 1 i D_we $end
$var wire 1 j D_str $end
$var wire 5 ]" D_rd [4:0] $end
$var wire 1 p D_mul $end
$var wire 1 q D_ld $end
$var wire 1 t D_byt $end
$var wire 1 u D_brn $end
$var wire 32 ^" D_b2 [31:0] $end
$var wire 32 _" D_b [31:0] $end
$var wire 4 `" D_alu_op [3:0] $end
$var wire 32 a" D_a2 [31:0] $end
$var wire 32 b" D_a [31:0] $end
$var wire 32 c" D_BP_target_pc [31:0] $end
$var wire 1 } D_BP_taken $end
$var parameter 32 d" PC_BITS $end
$var parameter 32 e" VPC_BITS $end
$var parameter 32 f" XLEN $end
$var reg 32 g" ex_a2_r [31:0] $end
$var reg 32 h" ex_a_r [31:0] $end
$var reg 4 i" ex_alu_op_r [3:0] $end
$var reg 32 j" ex_b2_r [31:0] $end
$var reg 32 k" ex_b_r [31:0] $end
$var reg 1 l" ex_bp_taken_r $end
$var reg 32 m" ex_bp_target_pc_r [31:0] $end
$var reg 1 n" ex_brn_r $end
$var reg 1 o" ex_byt_r $end
$var reg 1 X ex_ld_r $end
$var reg 1 W ex_mul_r $end
$var reg 5 p" ex_rd_r [4:0] $end
$var reg 1 q" ex_str_r $end
$var reg 1 R ex_we_r $end
$upscope $end
$scope module u_dcache $end
$var wire 1 r" Dc_busy $end
$var wire 1 & clk $end
$var wire 1 s" op_active $end
$var wire 1 ( rst $end
$var wire 16 t" ptw_line [15:0] $end
$var wire 2 u" addr_word [1:0] $end
$var wire 16 v" addr_line [15:0] $end
$var wire 2 w" addr_byte [1:0] $end
$var wire 1 2 Ptw_req $end
$var wire 20 x" Ptw_addr [19:0] $end
$var wire 1 7 MEM_str $end
$var wire 1 : MEM_mem_valid $end
$var wire 1 ; MEM_ld $end
$var wire 128 y" MEM_data_line [127:0] $end
$var wire 1 > MEM_byt $end
$var wire 32 z" MEM_b2 [31:0] $end
$var wire 32 {" MEM_alu_out [31:0] $end
$var parameter 32 |" LINE_BITS $end
$var parameter 32 }" XLEN $end
$var reg 16 ~" Dc_mem_addr [15:0] $end
$var reg 1 g Dc_mem_req $end
$var reg 16 !# Dc_wb_addr [15:0] $end
$var reg 1 e Dc_wb_we $end
$var reg 128 "# Dc_wb_wline [127:0] $end
$var reg 32 ## MEM_data_mem [31:0] $end
$var reg 1 8 MEM_stall $end
$var reg 32 $# Ptw_rdata [31:0] $end
$var reg 1 1 Ptw_valid $end
$var reg 2 %# fifo_ptr [1:0] $end
$var reg 1 &# hit $end
$var reg 2 '# hit_idx [1:0] $end
$var reg 16 (# miss_line [15:0] $end
$var reg 20 )# ptw_addr_q [19:0] $end
$var reg 1 *# ptw_busy $end
$var reg 32 +# tmp_load_word [31:0] $end
$var reg 32 ,# tmp_store_word [31:0] $end
$var integer 32 -# i [31:0] $end
$upscope $end
$scope module u_decode $end
$var wire 1 u D_brn $end
$var wire 1 i D_we $end
$var wire 1 & clk $end
$var wire 1 .# is_beq $end
$var wire 1 /# is_bgt $end
$var wire 1 0# is_blt $end
$var wire 1 1# is_jmp $end
$var wire 1 2# is_ctrl $end
$var wire 1 j D_str $end
$var wire 5 3# D_rd [4:0] $end
$var wire 5 4# D_rb [4:0] $end
$var wire 5 5# D_ra [4:0] $end
$var wire 6 6# D_opc [5:0] $end
$var wire 1 p D_mul $end
$var wire 1 q D_ld $end
$var wire 32 7# D_inst [31:0] $end
$var wire 11 8# D_imd [10:0] $end
$var wire 1 t D_byt $end
$var wire 4 9# D_alu_op [3:0] $end
$var wire 1 y D_addi $end
$var parameter 6 :# OPC_ADD $end
$var parameter 6 ;# OPC_ADDI $end
$var parameter 6 <# OPC_AND $end
$var parameter 6 =# OPC_CTRL $end
$var parameter 6 ># OPC_GT $end
$var parameter 5 ?# OPC_LOAD $end
$var parameter 6 @# OPC_LT $end
$var parameter 6 A# OPC_MUL $end
$var parameter 6 B# OPC_NOT $end
$var parameter 6 C# OPC_OR $end
$var parameter 6 D# OPC_SHL $end
$var parameter 6 E# OPC_SHR $end
$var parameter 5 F# OPC_STORE $end
$var parameter 6 G# OPC_SUB $end
$var parameter 6 H# OPC_XOR $end
$var parameter 5 I# RD_BEQ $end
$var parameter 5 J# RD_BGT $end
$var parameter 5 K# RD_BLT $end
$var parameter 5 L# RD_JMP $end
$var parameter 32 M# XLEN $end
$upscope $end
$scope module u_ex_to_mem_reg $end
$var wire 32 N# EX_a2 [31:0] $end
$var wire 32 O# EX_alu_out [31:0] $end
$var wire 32 P# EX_b2 [31:0] $end
$var wire 1 Y EX_byt $end
$var wire 1 X EX_ld $end
$var wire 5 Q# EX_rd [4:0] $end
$var wire 1 U EX_str $end
$var wire 1 T EX_taken $end
$var wire 1 R EX_we $end
$var wire 32 R# MEM_a2 [31:0] $end
$var wire 32 S# MEM_b2 [31:0] $end
$var wire 1 > MEM_byt $end
$var wire 1 8 MEM_stall $end
$var wire 1 6 MEM_taken $end
$var wire 1 & clk $end
$var wire 1 ( rst $end
$var wire 1 5 MEM_we $end
$var wire 1 7 MEM_str $end
$var wire 5 T# MEM_rd [4:0] $end
$var wire 1 ; MEM_ld $end
$var wire 32 U# MEM_alu_out [31:0] $end
$var parameter 32 V# XLEN $end
$var reg 32 W# mem_a2_r [31:0] $end
$var reg 32 X# mem_alu_out_r [31:0] $end
$var reg 32 Y# mem_b2_r [31:0] $end
$var reg 1 Z# mem_byt_r $end
$var reg 1 ; mem_ld_r $end
$var reg 5 [# mem_rd_r [4:0] $end
$var reg 1 7 mem_str_r $end
$var reg 1 \# mem_taken_r $end
$var reg 1 5 mem_we_r $end
$upscope $end
$scope module u_f2d $end
$var wire 1 } D_BP_taken $end
$var wire 32 ]# D_BP_target_pc [31:0] $end
$var wire 1 T EX_taken $end
$var wire 1 Q F_BP_taken $end
$var wire 32 ^# F_BP_target_pc [31:0] $end
$var wire 1 8 MEM_stall $end
$var wire 1 & clk $end
$var wire 1 ( rst $end
$var wire 1 , stall_D $end
$var wire 1 D Itlb_stall $end
$var wire 32 _# F_pc [31:0] $end
$var wire 32 `# F_inst [31:0] $end
$var wire 32 a# D_pc [31:0] $end
$var wire 32 b# D_inst [31:0] $end
$var parameter 32 c# NOP $end
$var parameter 32 d# PC_BITS $end
$var parameter 32 e# VPC_BITS $end
$var parameter 32 f# XLEN $end
$var reg 1 g# d_bp_taken $end
$var reg 32 h# d_bp_target_pc [31:0] $end
$var reg 32 i# d_inst [31:0] $end
$var reg 32 j# d_pc [31:0] $end
$upscope $end
$scope module u_icache $end
$var wire 1 & clk $end
$var wire 1 ( rst $end
$var wire 2 k# pc_word [1:0] $end
$var wire 16 l# pc_line [15:0] $end
$var wire 20 m# F_pc [19:0] $end
$var wire 1 M F_mem_valid $end
$var wire 128 n# F_mem_inst [127:0] $end
$var parameter 32 o# LINE_BITS $end
$var parameter 32 p# PC_BITS $end
$var reg 32 q# F_inst [31:0] $end
$var reg 1 H F_stall $end
$var reg 16 r# Ic_mem_addr [15:0] $end
$var reg 1 F Ic_mem_req $end
$var reg 2 s# fifo_ptr [1:0] $end
$var reg 1 t# hit $end
$var reg 2 u# hit_idx [1:0] $end
$var reg 16 v# miss_line [15:0] $end
$var integer 32 w# i [31:0] $end
$upscope $end
$scope module u_itlb $end
$var wire 1 + F_admin $end
$var wire 20 x# F_pc [19:0] $end
$var wire 1 E Itlb_pa_request $end
$var wire 1 D Itlb_stall $end
$var wire 1 & clk $end
$var wire 1 ( rst $end
$var wire 20 y# va_vpn [19:0] $end
$var wire 32 z# va_in [31:0] $end
$var wire 20 {# Itlb_va [19:0] $end
$var wire 1 I F_ptw_valid $end
$var wire 8 |# F_ptw_pa [7:0] $end
$var parameter 32 }# NUM_ENTRIES $end
$var parameter 32 ~# PAGE_OFFSET_WIDTH $end
$var parameter 32 !$ PC_BITS $end
$var parameter 33 "$ PPN_WIDTH $end
$var parameter 32 #$ VA_WIDTH $end
$var parameter 33 $$ VPN_WIDTH $end
$var reg 4 %$ fifo_ptr [3:0] $end
$var reg 1 &$ hit $end
$var reg 8 '$ hit_ppn [7:0] $end
$var reg 20 ($ miss_vpn [19:0] $end
$var reg 16 )$ valid [15:0] $end
$var integer 32 *$ i [31:0] $end
$upscope $end
$scope module u_mem_to_wb_reg $end
$var wire 32 +$ MEM_data_mem [31:0] $end
$var wire 5 ,$ MEM_rd [4:0] $end
$var wire 1 5 MEM_we $end
$var wire 1 & clk $end
$var wire 1 ( rst $end
$var wire 1 - WB_we $end
$var wire 5 -$ WB_rd [4:0] $end
$var wire 32 .$ WB_data_mem [31:0] $end
$var parameter 32 /$ XLEN $end
$var reg 32 0$ wb_data_mem_r [31:0] $end
$var reg 5 1$ wb_rd_r [4:0] $end
$var reg 1 - wb_we_r $end
$upscope $end
$scope module u_pc $end
$var wire 32 2$ EX_alt_pc [31:0] $end
$var wire 1 T EX_taken $end
$var wire 32 3$ F_BP_target_pc [31:0] $end
$var wire 1 & clk $end
$var wire 1 ( rst $end
$var wire 1 , stall_D $end
$var parameter 32 4$ PCLEN $end
$var parameter 32 5$ RESET_PC $end
$var reg 32 6$ F_pc_va [31:0] $end
$upscope $end
$scope module u_ptw $end
$var wire 1 E Itlb_pa_request $end
$var wire 20 7$ Itlb_va [19:0] $end
$var wire 1 8 MEM_stall $end
$var wire 32 8$ Ptw_mem_rdata [31:0] $end
$var wire 1 1 Ptw_mem_valid $end
$var wire 1 & clk $end
$var wire 1 ( rst $end
$var wire 10 9$ vpn1 [9:0] $end
$var wire 10 :$ vpn0 [9:0] $end
$var wire 8 ;$ pte_ppn [7:0] $end
$var parameter 32 <$ PAGE_OFFSET_WIDTH $end
$var parameter 32 =$ PC_BITS $end
$var parameter 33 >$ PPN_WIDTH $end
$var parameter 8 ?$ ROOT_PPN $end
$var parameter 3 @$ S_IDLE $end
$var parameter 3 A$ S_L1_REQ $end
$var parameter 3 B$ S_L1_WAIT $end
$var parameter 3 C$ S_L2_REQ $end
$var parameter 3 D$ S_L2_WAIT $end
$var parameter 3 E$ S_RESP $end
$var parameter 32 F$ VA_WIDTH $end
$var parameter 33 G$ VPN_WIDTH $end
$var reg 8 H$ F_ptw_pa [7:0] $end
$var reg 1 I F_ptw_valid $end
$var reg 20 I$ Ptw_mem_addr [19:0] $end
$var reg 1 2 Ptw_mem_req $end
$var reg 8 J$ l1_ppn_q [7:0] $end
$var reg 8 K$ l2_ppn_q [7:0] $end
$var reg 3 L$ next_state [2:0] $end
$var reg 3 M$ state [2:0] $end
$var reg 20 N$ vpn_q [19:0] $end
$upscope $end
$scope module u_regfile $end
$var wire 32 O$ D_a2 [31:0] $end
$var wire 1 y D_addi $end
$var wire 32 P$ D_b2 [31:0] $end
$var wire 1 u D_brn $end
$var wire 11 Q$ D_imd [10:0] $end
$var wire 1 q D_ld $end
$var wire 32 R$ D_pc [31:0] $end
$var wire 5 S$ D_ra [4:0] $end
$var wire 5 T$ D_rb [4:0] $end
$var wire 1 j D_str $end
$var wire 2 U$ EX_D_bp [1:0] $end
$var wire 32 V$ EX_alu_out [31:0] $end
$var wire 2 W$ MEM_D_bp [1:0] $end
$var wire 32 X$ MEM_data_mem [31:0] $end
$var wire 2 Y$ WB_D_bp [1:0] $end
$var wire 32 Z$ WB_data_mem [31:0] $end
$var wire 5 [$ WB_rd [4:0] $end
$var wire 1 - WB_we $end
$var wire 1 & clk $end
$var wire 32 \$ ra_raw [31:0] $end
$var wire 32 ]$ rb_raw [31:0] $end
$var wire 32 ^$ rb_fwd [31:0] $end
$var wire 32 _$ ra_fwd [31:0] $end
$var wire 32 `$ D_b [31:0] $end
$var wire 32 a$ D_a [31:0] $end
$var parameter 32 b$ ADDR_SIZE $end
$var parameter 32 c$ PC_BITS $end
$var parameter 32 d$ REG_NUM $end
$var parameter 32 e$ VPC_BITS $end
$var parameter 32 f$ XLEN $end
$var integer 32 g$ i [31:0] $end
$upscope $end
$scope module u_unified_mem $end
$var wire 16 h$ Dc_mem_addr [15:0] $end
$var wire 1 g Dc_mem_req $end
$var wire 16 i$ Dc_wb_addr [15:0] $end
$var wire 1 e Dc_wb_we $end
$var wire 128 j$ Dc_wb_wline [127:0] $end
$var wire 16 k$ Ic_mem_addr [15:0] $end
$var wire 1 F Ic_mem_req $end
$var wire 1 & clk $end
$var wire 1 ( rst $end
$var parameter 32 l$ LATENCY $end
$var parameter 32 m$ LINE_BITS $end
$var parameter 48 n$ NUM_LINES $end
$var parameter 32 o$ WORDS_PER_LINE $end
$var parameter 32 p$ XLEN $end
$var reg 2 q$ D_counter [1:0] $end
$var reg 16 r$ D_saved_line [15:0] $end
$var reg 128 s$ F_mem_inst [127:0] $end
$var reg 1 M F_mem_valid $end
$var reg 2 t$ I_counter [1:0] $end
$var reg 16 u$ I_saved_line [15:0] $end
$var reg 128 v$ MEM_data_line [127:0] $end
$var reg 1 : MEM_mem_valid $end
$var integer 32 w$ i [31:0] $end
$var integer 32 x$ j [31:0] $end
$upscope $end
$upscope $end
$scope begin run_loop $end
$upscope $end
$upscope $end
$enddefinitions $end
$comment Show the parameter values. $end
$dumpall
b100000 p$
b100 o$
b10000000000000000 n$
b10000 m$
b11 l$
b100000 f$
b100000 e$
b100000 d$
b10100 c$
b101 b$
b10100 G$
b100000 F$
b101 E$
b100 D$
b11 C$
b10 B$
b1 A$
b0 @$
b1001 ?$
b1000 >$
b10100 =$
b1100 <$
b0 5$
b100000 4$
b100000 /$
b10100 $$
b100000 #$
b1000 "$
b10100 !$
b1100 ~#
b10000 }#
b10100 p#
b10000 o#
b100000 f#
b100000 e#
b10100 d#
b100000000000000000000000000000 c#
b100000 V#
b100000 M#
b0 L#
b10 K#
b11 J#
b1 I#
b100 H#
b1 G#
b1100 F#
b111 E#
b110 D#
b11 C#
b101 B#
b1110 A#
b1001 @#
b1011 ?#
b1010 >#
b1101 =#
b10 <#
b1000 ;#
b0 :#
b100000 }"
b10000 |"
b100000 f"
b100000 e"
b10100 d"
b100000 P"
b11 O"
b1000 N"
b100000 E"
b100000 D"
b101 C"
b10100 B"
b100000 :"
b100 9"
b101 8"
b100000 %"
b100000 $"
b0 #"
b100000 ""
b10100 !"
b101 ~
b100000 %
b100000 $
b10100 #
b10110 "
b101 !
$end
#0
$dumpvars
b100 x$
b10000000000000000 w$
bx v$
bx u$
bx t$
bx s$
bx r$
bx q$
b0 k$
bx j$
bx i$
bx h$
b100000 g$
bx a$
bx `$
bx _$
bx ^$
bx ]$
bx \$
bx [$
bx Z$
bx Y$
bx X$
bx W$
bx V$
bx U$
bx T$
bx S$
bx R$
bx Q$
bx P$
bx O$
bx N$
bx M$
bx L$
bx K$
bx J$
bx I$
bx H$
bx ;$
bx :$
bx 9$
bx 8$
b0 7$
b0 6$
b0 3$
bx 2$
bx 1$
bx 0$
bx .$
bx -$
bx ,$
bx +$
bx *$
bx )$
bx ($
b0 '$
0&$
bx %$
bx |#
b0 {#
b0 z#
b0 y#
b0 x#
bx w#
bx v#
b0 u#
0t#
bx s#
b0 r#
b100000000000000000000000000000 q#
bx n#
b0 m#
b0 l#
b0 k#
bx j#
bx i#
bx h#
xg#
bx b#
bx a#
b100000000000000000000000000000 `#
b0 _#
b0 ^#
bx ]#
x\#
bx [#
xZ#
bx Y#
bx X#
bx W#
bx U#
bx T#
bx S#
bx R#
bx Q#
bx P#
bx O#
bx N#
bx 9#
bx 8#
bx 7#
bx 6#
bx 5#
bx 4#
bx 3#
x2#
x1#
x0#
x/#
x.#
bx -#
bx ,#
bx +#
x*#
bx )#
bx (#
bx '#
x&#
bx %#
bx $#
bx ##
bx "#
bx !#
bx ~"
bx {"
bx z"
bx y"
bx x"
bx w"
bx v"
bx u"
bx t"
xs"
xr"
xq"
bx p"
xo"
xn"
bx m"
xl"
bx k"
bx j"
bx i"
bx h"
bx g"
bx c"
bx b"
bx a"
bx `"
bx _"
bx ^"
bx ]"
bx \"
bx ["
bx Z"
bx Y"
bx X"
bx W"
bx V"
b1000 U"
b0 T"
0S"
bx R"
xQ"
bx M"
b0 L"
b0 K"
b0 J"
0I"
bx H"
bx G"
bx F"
bx A"
bx @"
bx ?"
bx >"
bx ="
bx <"
bx ;"
bx 7"
bx 6"
bx 5"
bx 4"
bx 3"
bx 2"
bx 1"
bx 0"
bx /"
bx ."
x-"
x,"
x+"
x*"
x)"
x("
x'"
x&"
x}
bx |
bx {
bx z
xy
bx x
bx w
bx v
xu
xt
bx s
bx r
xq
xp
bx o
bx n
bx m
bx l
bx k
xj
xi
bx h
xg
bx f
xe
bx d
xc
bx b
bx a
bx `
bx _
bx ^
bx ]
bx \
bx [
xZ
xY
xX
xW
bx V
xU
xT
xS
xR
0Q
b0 P
b100000000000000000000000000000 O
bx N
xM
b0 L
b0 K
bx J
xI
1H
b0 G
xF
xE
1D
b0 C
bx B
bx A
bx @
bx ?
x>
bx =
bx <
x;
x:
bx 9
x8
x7
x6
x5
bx 4
bx 3
x2
x1
bx 0
bx /
bx .
x-
x,
0+
bx *
bx )
1(
bx '
0&
$end
#5000
b0 {
b0 b"
b0 a$
b0 v
b0 ^"
b0 P$
b0 ^$
b0 z
b0 a"
b0 O$
b0 _$
b0 w
b0 _"
b0 `$
0/#
00#
0.#
01#
0q
0j
0t
1i
b0 x
b0 `"
b0 9#
b0 a
b0 4"
b0 U$
b0 h
b0 ~"
b0 h$
1S"
b0 t"
1E
b0 9$
b0 :$
b0 s
b0 8#
b0 Q$
b0 k
b0 5"
b0 ]"
b0 3#
b0 ]$
b0 l
b0 6"
b0 4#
b0 T$
b0 \$
b0 m
b0 7"
b0 5#
b0 S$
0u
02#
0p
1y
b1000 o
b1000 6#
0,
0*"
0'"
0&"
b0 G"
0S
0T
b0 ]
b0 3"
b0 F"
b0 H"
b0 O#
b0 2$
b0 V$
b0 R"
1Q"
0s"
0)"
b0 B
b0 1"
b0 W$
0("
b0 w"
b0 u"
b0 v"
b1 L$
b0 ;$
0r"
1F
1H
0g
b0 <
b0 ##
b0 +$
b0 X$
08
b0 '#
0&#
0,"
b0 0
b0 /"
b0 Y$
0+"
b0 ($
b0 %$
b0 )$
b0 4
b0 x"
b0 I$
02
b0 J
b0 |#
b0 H$
0I
b0 K$
b0 J$
b0 N$
b0 M$
b0 v#
b0 s#
b0 |
b0 c"
b0 ]#
b0 h#
0}
0g#
b100000000000000000000000000000 r
b100000000000000000000000000000 7#
b100000000000000000000000000000 b#
b100000000000000000000000000000 i#
b0 n
b0 a#
b0 j#
b0 R$
0-"
b0 ;"
b0 b
b0 A"
b0 V"
b0 m"
0W
0R
0Y
0o"
0U
0q"
0X
b0 V
b0 2"
b0 \"
b0 p"
b0 Q#
0c
0l"
0Z
0n"
b0 ^
b0 >"
b0 Y"
b0 i"
b0 [
b0 <"
b0 ["
b0 P#
b0 j"
b0 \
b0 ="
b0 Z"
b0 k"
b0 _
b0 ?"
b0 X"
b0 N#
b0 g"
b0 `
b0 @"
b0 M"
b0 W"
b0 h"
0>
0Z#
07
0;
05
b0 9
b0 0"
b0 T#
b0 [#
b0 ,$
b0 A
b0 R#
b0 W#
b0 ?
b0 z"
b0 S#
b0 Y#
06
0\#
b0 @
b0 {"
b0 U#
b0 X#
01
b0 3
b0 $#
b0 8$
b0 )#
0*#
b0 d
b0 "#
b0 j$
b0 f
b0 !#
b0 i$
0e
b0 (#
b0 %#
b0 t$
0M
b0 q$
0:
0-
b0 .
b0 ."
b0 -$
b0 1$
b0 [$
b0 /
b0 .$
b0 0$
b0 Z$
b1000 U"
b10000 *$
b100 w#
b100 -#
1&
#10000
0&
#15000
b100 -#
b100 w#
b10000 *$
b1000 U"
1&
#20000
0&
#25000
0(
b1000 U"
b10000 *$
b100 w#
b100 -#
b0 )
1&
#30000
0&
#35000
b11 a
b11 4"
b11 U$
1'"
1&"
b10 L$
b11 t$
b0 u$
1R
b1 M$
b100000000000000000000000000000 '
b1 )
1&
#40000
0&
#45000
b100100000000 h
b100100000000 ~"
b100100000000 h$
b100100000000 t"
1g
1)"
b11 B
b11 1"
b11 W$
1("
b1001000000000000 4
b1001000000000000 x"
b1001000000000000 I$
12
b10 M$
15
b10 t$
b10 )
1&
#50000
0&
#55000
1,"
b11 0
b11 /"
b11 Y$
1+"
1r"
b0 h
b0 ~"
b0 h$
0g
1-
b11 q$
b100100000000 r$
b1 t$
b1001000000000000 )#
1*#
02
b11 )
1&
#60000
0&
#65000
0F
1H
1M
b100000001000010000100000000001000000000000000000001000000000000010000001000010000100000000000100100000011000110001100000001010 N
b100000001000010000100000000001000000000000000000001000000000000010000001000010000100000000000100100000011000110001100000001010 n#
b100000001000010000100000000001000000000000000000001000000000000010000001000010000100000000000100100000011000110001100000001010 s$
b0 t$
b10 q$
b100 )
1&
#70000
0&
#75000
b100000011000110001100000001010 O
b100000011000110001100000001010 `#
b100000011000110001100000001010 q#
1t#
b100 w#
0H
b1 q$
0M
b1 s#
b101 )
1&
#80000
0&
#85000
1:
b1010000000000001 =
b1010000000000001 y"
b1010000000000001 v$
b0 q$
b100000011000110001100000001010 '
b110 )
1&
#90000
0&
#95000
0r"
b11 L$
b1010 ;$
0:
0*#
11
b1010000000000001 3
b1010000000000001 $#
b1010000000000001 8$
b111 )
1&
#100000
0&
#105000
b100 L$
b1010 J$
b11 M$
01
b1000 )
1&
#110000
0&
#115000
b101000000000 t"
b101000000000 h
b101000000000 ~"
b101000000000 h$
1g
b1010000000000000 4
b1010000000000000 x"
b1010000000000000 I$
12
b100 M$
b1001 )
1&
#120000
0&
#125000
b0 h
b0 ~"
b0 h$
0g
1r"
02
b1010000000000000 )#
1*#
b11 q$
b101000000000 r$
b1010 )
1&
#130000
0&
#135000
b10 q$
b1011 )
1&
#140000
0&
#145000
b1 q$
b1100 )
1&
#150000
0&
#155000
1:
b11000000000001000000000000000000100000000000010000000000000000000100000000000100000000000000000000000000000001 =
b11000000000001000000000000000000100000000000010000000000000000000100000000000100000000000000000000000000000001 y"
b11000000000001000000000000000000100000000000010000000000000000000100000000000100000000000000000000000000000001 v$
b0 q$
b1101 )
1&
#160000
0&
