rtl/cpu_run_tb.vcd
$date
	Thu Oct 30 14:53:30 2025
$end
$version
	Icarus Verilog
$end
$timescale
	1ps
$end
$scope module cpu_run_tb $end
$var parameter 32 ! ADDR_SIZE $end
$var parameter 32 " END_PC $end
$var parameter 32 # PC_BITS $end
$var parameter 32 $ REG_NUM $end
$var parameter 32 % XLEN $end
$var reg 1 & clk $end
$var reg 32 ' curr_inst [31:0] $end
$var reg 1 ( rst $end
$var integer 32 ) cycles [31:0] $end
$var integer 32 * i [31:0] $end
$scope module dut $end
$var wire 32 + D_inst [31:0] $end
$var wire 5 , D_pc [4:0] $end
$var wire 32 - WB_data_mem [31:0] $end
$var wire 5 . WB_rd [4:0] $end
$var wire 1 / WB_we $end
$var wire 1 & clk $end
$var wire 1 ( rst $end
$var wire 5 0 pc_plus_1 [4:0] $end
$var wire 32 1 MEM_data_mem [31:0] $end
$var wire 5 2 F_pc [4:0] $end
$var wire 32 3 F_inst [31:0] $end
$var wire 1 4 EX_taken $end
$var wire 32 5 EX_alu_out [31:0] $end
$var wire 1 6 D_we $end
$var wire 1 7 D_str $end
$var wire 5 8 D_rd [4:0] $end
$var wire 5 9 D_rb [4:0] $end
$var wire 5 : D_ra [4:0] $end
$var wire 6 ; D_opc [5:0] $end
$var wire 1 < D_ld $end
$var wire 11 = D_imd [10:0] $end
$var wire 1 > D_brn $end
$var wire 32 ? D_b2 [31:0] $end
$var wire 32 @ D_b [31:0] $end
$var wire 4 A D_alu_op [3:0] $end
$var wire 1 B D_addi $end
$var wire 32 C D_a2 [31:0] $end
$var wire 32 D D_a [31:0] $end
$var parameter 32 E ADDR_SIZE $end
$var parameter 32 F PC_BITS $end
$var parameter 32 G REG_NUM $end
$var parameter 5 H RESET_PC $end
$var parameter 32 I XLEN $end
$scope module u_alu $end
$var wire 1 > EX_brn $end
$var wire 32 J EX_b2 [31:0] $end
$var wire 32 K EX_b [31:0] $end
$var wire 4 L EX_alu_op [3:0] $end
$var wire 32 M EX_a2 [31:0] $end
$var wire 32 N EX_a [31:0] $end
$var parameter 32 O SHW $end
$var parameter 32 P XLEN $end
$var reg 32 Q EX_alu_out [31:0] $end
$var reg 1 4 EX_taken $end
$upscope $end
$scope module u_decode $end
$var wire 1 > D_brn $end
$var wire 32 R D_inst [31:0] $end
$var wire 1 6 D_we $end
$var wire 1 & clk $end
$var wire 1 S is_beq $end
$var wire 1 T is_bgt $end
$var wire 1 U is_blt $end
$var wire 1 V is_jmp $end
$var wire 1 W is_ctrl $end
$var wire 1 7 D_str $end
$var wire 5 X D_rd [4:0] $end
$var wire 5 Y D_rb [4:0] $end
$var wire 5 Z D_ra [4:0] $end
$var wire 6 [ D_opc [5:0] $end
$var wire 1 < D_ld $end
$var wire 11 \ D_imd [10:0] $end
$var wire 4 ] D_alu_op [3:0] $end
$var wire 1 B D_addi $end
$var parameter 6 ^ OPC_ADD $end
$var parameter 6 _ OPC_ADDI $end
$var parameter 6 ` OPC_AND $end
$var parameter 6 a OPC_CTRL $end
$var parameter 6 b OPC_GT $end
$var parameter 6 c OPC_LOAD $end
$var parameter 6 d OPC_LT $end
$var parameter 6 e OPC_NOT $end
$var parameter 6 f OPC_OR $end
$var parameter 6 g OPC_SHL $end
$var parameter 6 h OPC_SHR $end
$var parameter 6 i OPC_STORE $end
$var parameter 6 j OPC_SUB $end
$var parameter 6 k OPC_XOR $end
$var parameter 5 l RD_BEQ $end
$var parameter 5 m RD_BGT $end
$var parameter 5 n RD_BLT $end
$var parameter 5 o RD_JMP $end
$var parameter 32 p XLEN $end
$upscope $end
$scope module u_instruct_reg $end
$var wire 32 q F_inst [31:0] $end
$var wire 1 & clk $end
$var wire 5 r F_pc [4:0] $end
$var parameter 32 s ADDR_SIZE $end
$var parameter 32 t REG_NUM $end
$var parameter 32 u XLEN $end
$upscope $end
$scope module u_memory $end
$var wire 32 v MEM_alu_out [31:0] $end
$var wire 1 < MEM_ld $end
$var wire 1 7 MEM_str $end
$var wire 1 & clk $end
$var wire 5 w addr [4:0] $end
$var wire 32 x MEM_data_mem [31:0] $end
$var wire 32 y MEM_b2 [31:0] $end
$var parameter 32 z ADDR_SIZE $end
$var parameter 32 { REG_NUM $end
$var parameter 32 | XLEN $end
$var integer 32 } i [31:0] $end
$upscope $end
$scope module u_pc $end
$var wire 5 ~ EX_alt_pc [4:0] $end
$var wire 1 4 EX_taken $end
$var wire 1 & clk $end
$var wire 5 !" pc [4:0] $end
$var wire 1 ( rst $end
$var parameter 5 "" RESET_PC $end
$var parameter 32 #" XLEN $end
$var reg 5 $" F_pc [4:0] $end
$upscope $end
$scope module u_regfile $end
$var wire 32 %" D_a2 [31:0] $end
$var wire 1 B D_addi $end
$var wire 32 &" D_b2 [31:0] $end
$var wire 1 > D_brn $end
$var wire 11 '" D_imd [10:0] $end
$var wire 1 < D_ld $end
$var wire 5 (" D_pc [4:0] $end
$var wire 5 )" D_ra [4:0] $end
$var wire 5 *" D_rb [4:0] $end
$var wire 1 7 D_str $end
$var wire 32 +" WB_data_mem [31:0] $end
$var wire 5 ," WB_rd [4:0] $end
$var wire 1 / WB_we $end
$var wire 1 & clk $end
$var wire 32 -" pc_extended [31:0] $end
$var wire 32 ." offset [31:0] $end
$var wire 32 /" D_b [31:0] $end
$var wire 32 0" D_a [31:0] $end
$var parameter 32 1" ADDR_SIZE $end
$var parameter 32 2" REG_NUM $end
$var parameter 32 3" XLEN $end
$var integer 32 4" i [31:0] $end
$upscope $end
$upscope $end
$scope begin run_loop $end
$upscope $end
$upscope $end
$enddefinitions $end
$comment Show the parameter values. $end
$dumpall
b100000 3"
b100000 2"
b101 1"
b101 #"
b0 ""
b100000 |
b100000 {
b101 z
b100000 u
b100000 t
b101 s
b100000 p
b0 o
b10 n
b11 m
b1 l
b100 k
b1 j
b1100 i
b111 h
b110 g
b11 f
b101 e
b1001 d
b1011 c
b1010 b
b1101 a
b10 `
b1000 _
b0 ^
b100000 P
b101 O
b100000 I
b0 H
b100000 G
b101 F
b101 E
b100000 %
b100000 $
b101 #
b10110 "
b101 !
$end
#0
$dumpvars
b100000 4"
b0 0"
b0 /"
b0 ."
b0 -"
b0 ,"
b0 +"
b0 *"
b0 )"
b0 ("
b0 '"
b0 &"
b0 %"
b0 $"
b1 !"
b0 ~
b100000 }
b0 y
b0 x
b0 w
b0 v
b0 r
b100000000000000000000000000000 q
b0 ]
b0 \
b1000 [
b0 Z
b0 Y
b0 X
0W
0V
0U
0T
0S
b100000000000000000000000000000 R
b0 Q
b0 N
b0 M
b0 L
b0 K
b0 J
b0 D
b0 C
1B
b0 A
b0 @
b0 ?
0>
b0 =
0<
b1000 ;
b0 :
b0 9
b0 8
07
16
b0 5
04
b100000000000000000000000000000 3
b0 2
b0 1
b1 0
1/
b0 .
b0 -
b0 ,
b100000000000000000000000000000 +
bx *
bx )
1(
bx '
0&
$end
#5000
1&
#10000
0&
#15000
1&
#20000
0&
#25000
0(
b0 )
1&
#30000
0&
#35000
b1 w
b1 -
b1 +"
b1 1
b1 x
b1 ~
b1 5
b1 Q
b1 v
b1 @
b1 K
b1 /"
b1 :
b1 Z
b1 )"
b1 9
b1 Y
b1 *"
b1 .
b1 ,"
b1 8
b1 X
b1 ."
b1 =
b1 \
b1 '"
b100000001000010000100000000001 +
b100000001000010000100000000001 R
b100000001000010000100000000001 3
b100000001000010000100000000001 q
b10 0
b10 !"
b1 -"
b1 ,
b1 ("
b1 2
b1 r
b1 $"
b100000000000000000000000000000 '
b1 )
1&
#40000
0&
#45000
b10 w
b10 -
b10 +"
b10 1
b10 x
b10 ~
b10 5
b10 Q
b10 v
b10 @
b10 K
b10 /"
b10 :
b10 Z
b10 )"
b10 9
b10 Y
b10 *"
b10 .
b10 ,"
b10 8
b10 X
b10 ."
b10 =
b10 \
b10 '"
b0 C
b0 M
b0 %"
b0 ?
b0 J
b0 y
b0 &"
b100000010000100001000000000010 +
b100000010000100001000000000010 R
b100000010000100001000000000010 3
b100000010000100001000000000010 q
b11 0
b11 !"
b10 -"
b10 ,
b10 ("
b10 2
b10 r
b10 $"
b100000001000010000100000000001 '
b10 )
1&
#50000
0&
#55000
b11 w
b11 -
b11 +"
b11 1
b11 x
b11 ~
b11 5
b11 Q
b11 v
b11 @
b11 K
b11 /"
b11 :
b11 Z
b11 )"
b11 9
b11 Y
b11 *"
b11 .
b11 ,"
b11 8
b11 X
b11 ."
b11 =
b11 \
b11 '"
b0 C
b0 M
b0 %"
b0 ?
b0 J
b0 y
b0 &"
b100000011000110001100000000011 +
b100000011000110001100000000011 R
b100000011000110001100000000011 3
b100000011000110001100000000011 q
b100 0
b100 !"
b11 -"
b11 ,
b11 ("
b11 2
b11 r
b11 $"
b100000010000100001000000000010 '
b11 )
1&
#60000
0&
#65000
b100 w
b100 -
b100 +"
b100 1
b100 x
b100 ~
b100 5
b100 Q
b100 v
b100 @
b100 K
b100 /"
b100 :
b100 Z
b100 )"
b100 9
b100 Y
b100 *"
b100 .
b100 ,"
b100 8
b100 X
b100 ."
b100 =
b100 \
b100 '"
b0 C
b0 M
b0 %"
b0 ?
b0 J
b0 y
b0 &"
b100000100001000010000000000100 +
b100000100001000010000000000100 R
b100000100001000010000000000100 3
b100000100001000010000000000100 q
b101 0
b101 !"
b100 -"
b100 ,
b100 ("
b100 2
b100 r
b100 $"
b100000011000110001100000000011 '
b100 )
1&
#70000
0&
#75000
b101 w
b101 -
b101 +"
b101 1
b101 x
b101 ~
b101 5
b101 Q
b101 v
b101 @
b101 K
b101 /"
b101 :
b101 Z
b101 )"
b101 9
b101 Y
b101 *"
b101 .
b101 ,"
b101 8
b101 X
b101 ."
b101 =
b101 \
b101 '"
b0 C
b0 M
b0 %"
b0 ?
b0 J
b0 y
b0 &"
b100000101001010010100000000101 +
b100000101001010010100000000101 R
b100000101001010010100000000101 3
b100000101001010010100000000101 q
b110 0
b110 !"
b101 -"
b101 ,
b101 ("
b101 2
b101 r
b101 $"
b100000100001000010000000000100 '
b101 )
1&
#80000
0&
#85000
b110 w
b110 -
b110 +"
b110 1
b110 x
b110 ~
b110 5
b110 Q
b110 v
b110 @
b110 K
b110 /"
b110 :
b110 Z
b110 )"
b110 9
b110 Y
b110 *"
b110 .
b110 ,"
b110 8
b110 X
b110 ."
b110 =
b110 \
b110 '"
b0 C
b0 M
b0 %"
b0 ?
b0 J
b0 y
b0 &"
b100000110001100011000000000110 +
b100000110001100011000000000110 R
b100000110001100011000000000110 3
b100000110001100011000000000110 q
b111 0
b111 !"
b110 -"
b110 ,
b110 ("
b110 2
b110 r
b110 $"
b100000101001010010100000000101 '
b110 )
1&
#90000
0&
#95000
b111 w
b111 -
b111 +"
b111 1
b111 x
b111 ~
b111 5
b111 Q
b111 v
b111 @
b111 K
b111 /"
b111 :
b111 Z
b111 )"
b111 9
b111 Y
b111 *"
b111 .
b111 ,"
b111 8
b111 X
b111 ."
b111 =
b111 \
b111 '"
b0 C
b0 M
b0 %"
b0 ?
b0 J
b0 y
b0 &"
b100000111001110011100000000111 +
b100000111001110011100000000111 R
b100000111001110011100000000111 3
b100000111001110011100000000111 q
b1000 0
b1000 !"
b111 -"
b111 ,
b111 ("
b111 2
b111 r
b111 $"
b100000110001100011000000000110 '
b111 )
1&
#100000
0&
#105000
b1000 w
b1000 -
b1000 +"
b1000 1
b1000 x
b1000 ~
b1000 5
b1000 Q
b1000 v
b1000 @
b1000 K
b1000 /"
b1000 :
b1000 Z
b1000 )"
b1000 9
b1000 Y
b1000 *"
b1000 .
b1000 ,"
b1000 8
b1000 X
b1000 ."
b1000 =
b1000 \
b1000 '"
b0 C
b0 M
b0 %"
b0 ?
b0 J
b0 y
b0 &"
b100001000010000100000000001000 +
b100001000010000100000000001000 R
b100001000010000100000000001000 3
b100001000010000100000000001000 q
b1001 0
b1001 !"
b1000 -"
b1000 ,
b1000 ("
b1000 2
b1000 r
b1000 $"
b100000111001110011100000000111 '
b1000 )
1&
#110000
0&
#115000
b1001 w
b1001 -
b1001 +"
b1001 1
b1001 x
b1001 ~
b1001 5
b1001 Q
b1001 v
b1001 @
b1001 K
b1001 /"
b1001 :
b1001 Z
b1001 )"
b1001 9
b1001 Y
b1001 *"
b1001 .
b1001 ,"
b1001 8
b1001 X
b1001 ."
b1001 =
b1001 \
b1001 '"
b0 C
b0 M
b0 %"
b0 ?
b0 J
b0 y
b0 &"
b100001001010010100100000001001 +
b100001001010010100100000001001 R
b100001001010010100100000001001 3
b100001001010010100100000001001 q
b1010 0
b1010 !"
b1001 -"
b1001 ,
b1001 ("
b1001 2
b1001 r
b1001 $"
b100001000010000100000000001000 '
b1001 )
1&
#120000
0&
#125000
b1010 w
b1010 -
b1010 +"
b1010 1
b1010 x
b1010 ~
b1010 5
b1010 Q
b1010 v
b1010 @
b1010 K
b1010 /"
b1010 :
b1010 Z
b1010 )"
b1010 9
b1010 Y
b1010 *"
b1010 .
b1010 ,"
b1010 8
b1010 X
b1010 ."
b1010 =
b1010 \
b1010 '"
b0 C
b0 M
b0 %"
b0 ?
b0 J
b0 y
b0 &"
b100001010010100101000000001010 +
b100001010010100101000000001010 R
b100001010010100101000000001010 3
b100001010010100101000000001010 q
b1011 0
b1011 !"
b1010 -"
b1010 ,
b1010 ("
b1010 2
b1010 r
b1010 $"
b100001001010010100100000001001 '
b1010 )
1&
#130000
0&
#135000
b1011 w
b1011 -
b1011 +"
b1011 1
b1011 x
b1011 ~
b1011 5
b1011 Q
b1011 v
b1011 @
b1011 K
b1011 /"
b1011 :
b1011 Z
b1011 )"
b1011 9
b1011 Y
b1011 *"
b1011 .
b1011 ,"
b1011 8
b1011 X
b1011 ."
b1011 =
b1011 \
b1011 '"
b0 C
b0 M
b0 %"
b0 ?
b0 J
b0 y
b0 &"
b100001011010110101100000001011 +
b100001011010110101100000001011 R
b100001011010110101100000001011 3
b100001011010110101100000001011 q
b1100 0
b1100 !"
b1011 -"
b1011 ,
b1011 ("
b1011 2
b1011 r
b1011 $"
b100001010010100101000000001010 '
b1011 )
1&
#140000
0&
#145000
b1100 w
b1100 -
b1100 +"
b1100 1
b1100 x
b1100 ~
b1100 5
b1100 Q
b1100 v
b1100 @
b1100 K
b1100 /"
b1100 :
b1100 Z
b1100 )"
b1100 9
b1100 Y
b1100 *"
b1100 .
b1100 ,"
b1100 8
b1100 X
b1100 ."
b1100 =
b1100 \
b1100 '"
b0 C
b0 M
b0 %"
b0 ?
b0 J
b0 y
b0 &"
b100001100011000110000000001100 +
b100001100011000110000000001100 R
b100001100011000110000000001100 3
b100001100011000110000000001100 q
b1101 0
b1101 !"
b1100 -"
b1100 ,
b1100 ("
b1100 2
b1100 r
b1100 $"
b100001011010110101100000001011 '
b1100 )
1&
#150000
0&
#155000
b1101 w
b1101 -
b1101 +"
b1101 1
b1101 x
b1101 ~
b1101 5
b1101 Q
b1101 v
b1101 @
b1101 K
b1101 /"
b1101 :
b1101 Z
b1101 )"
b1101 9
b1101 Y
b1101 *"
b1101 .
b1101 ,"
b1101 8
b1101 X
b1101 ."
b1101 =
b1101 \
b1101 '"
b0 C
b0 M
b0 %"
b0 ?
b0 J
b0 y
b0 &"
b100001101011010110100000001101 +
b100001101011010110100000001101 R
b100001101011010110100000001101 3
b100001101011010110100000001101 q
b1110 0
b1110 !"
b1101 -"
b1101 ,
b1101 ("
b1101 2
b1101 r
b1101 $"
b100001100011000110000000001100 '
b1101 )
1&
#160000
0&
#165000
b1110 w
b1110 -
b1110 +"
b1110 1
b1110 x
b1110 ~
b1110 5
b1110 Q
b1110 v
b1110 @
b1110 K
b1110 /"
b1110 :
b1110 Z
b1110 )"
b1110 9
b1110 Y
b1110 *"
b1110 .
b1110 ,"
b1110 8
b1110 X
b1110 ."
b1110 =
b1110 \
b1110 '"
b0 C
b0 M
b0 %"
b0 ?
b0 J
b0 y
b0 &"
b100001110011100111000000001110 +
b100001110011100111000000001110 R
b100001110011100111000000001110 3
b100001110011100111000000001110 q
b1111 0
b1111 !"
b1110 -"
b1110 ,
b1110 ("
b1110 2
b1110 r
b1110 $"
b100001101011010110100000001101 '
b1110 )
1&
#170000
0&
#175000
b1111 w
b1111 -
b1111 +"
b1111 1
b1111 x
b1111 ~
b1111 5
b1111 Q
b1111 v
b1111 @
b1111 K
b1111 /"
b1111 :
b1111 Z
b1111 )"
b1111 9
b1111 Y
b1111 *"
b1111 .
b1111 ,"
b1111 8
b1111 X
b1111 ."
b1111 =
b1111 \
b1111 '"
b0 C
b0 M
b0 %"
b0 ?
b0 J
b0 y
b0 &"
b100001111011110111100000001111 +
b100001111011110111100000001111 R
b100001111011110111100000001111 3
b100001111011110111100000001111 q
b10000 0
b10000 !"
b1111 -"
b1111 ,
b1111 ("
b1111 2
b1111 r
b1111 $"
b100001110011100111000000001110 '
b1111 )
1&
#180000
0&
#185000
b10 w
b10 -
b10 +"
b10 1
b10 x
b10 ~
b1 @
b1 K
b1 /"
b10 5
b10 Q
b10 v
b1 D
b1 N
b1 0"
0B
b0 ;
b0 [
b1 :
b1 Z
b1 )"
b1 9
b1 Y
b1 *"
b1 .
b1 ,"
b1 8
b1 X
b0 ."
b0 =
b0 \
b0 '"
b1 C
b1 M
b1 %"
b1 ?
b1 J
b1 y
b1 &"
b1000010000100000000000 +
b1000010000100000000000 R
b1000010000100000000000 3
b1000010000100000000000 q
b10001 0
b10001 !"
b10000 -"
b10000 ,
b10000 ("
b10000 2
b10000 r
b10000 $"
b100001111011110111100000001111 '
b10000 )
1&
#190000
0&
#195000
b0 w
b0 -
b0 +"
b0 1
b0 x
b0 ~
b1 A
b1 L
b1 ]
b0 5
b0 Q
b0 v
b10 @
b10 K
b10 /"
b10 D
b10 N
b10 0"
b1 ;
b1 [
b10 :
b10 Z
b10 )"
b10 9
b10 Y
b10 *"
b10 .
b10 ,"
b10 8
b10 X
b10 C
b10 M
b10 %"
b10 ?
b10 J
b10 y
b10 &"
b100010000100001000000000000 +
b100010000100001000000000000 R
b100010000100001000000000000 3
b100010000100001000000000000 q
b10010 0
b10010 !"
b10001 -"
b10001 ,
b10001 ("
b10001 2
b10001 r
b10001 $"
b1000010000100000000000 '
b10001 )
1&
#200000
0&
#205000
b11 w
b11 -
b11 +"
b11 1
b11 x
b11 ~
b11 5
b11 Q
b11 v
b10 A
b10 L
b10 ]
b11 @
b11 K
b11 /"
b11 D
b11 N
b11 0"
b10 ;
b10 [
b11 :
b11 Z
b11 )"
b11 9
b11 Y
b11 *"
b11 .
b11 ,"
b11 8
b11 X
b11 C
b11 M
b11 %"
b11 ?
b11 J
b11 y
b11 &"
b1000011000110001100000000000 +
b1000011000110001100000000000 R
b1000011000110001100000000000 3
b1000011000110001100000000000 q
b10011 0
b10011 !"
b10010 -"
b10010 ,
b10010 ("
b10010 2
b10010 r
b10010 $"
b100010000100001000000000000 '
b10010 )
1&
#210000
0&
#215000
b11 A
b11 L
b11 ]
b101 w
b101 -
b101 +"
b101 1
b101 x
b101 ~
b100 D
b100 N
b100 0"
b101 5
b101 Q
b101 v
b101 @
b101 K
b101 /"
b11 ;
b11 [
b100 C
b100 M
b100 %"
b100 :
b100 Z
b100 )"
b101 ?
b101 J
b101 y
b101 &"
b101 9
b101 Y
b101 *"
b10000 .
b10000 ,"
b10000 8
b10000 X
b1100100001011000000000000000 +
b1100100001011000000000000000 R
b1100100001011000000000000000 3
b1100100001011000000000000000 q
b10100 0
b10100 !"
b10011 -"
b10011 ,
b10011 ("
b10011 2
b10011 r
b10011 $"
b1000011000110001100000000000 '
b10011 )
1&
#220000
0&
#225000
b100 A
b100 L
b100 ]
b11 w
b11 -
b11 +"
b11 1
b11 x
b11 ~
b11 5
b11 Q
b11 v
b110 D
b110 N
b110 0"
b100 ;
b100 [
b110 C
b110 M
b110 %"
b110 :
b110 Z
b110 )"
b10001 .
b10001 ,"
b10001 8
b10001 X
b10000110001011000100000000000 +
b10000110001011000100000000000 R
b10000110001011000100000000000 3
b10000110001011000100000000000 q
b10101 0
b10101 !"
b10100 -"
b10100 ,
b10100 ("
b10100 2
b10100 r
b10100 $"
b1100100001011000000000000000 '
b10100 )
1&
#230000
0&
#235000
b101 A
b101 L
b101 ]
b11001 w
b11111111111111111111111111111001 -
b11111111111111111111111111111001 +"
b11111111111111111111111111111001 1
b11111111111111111111111111111001 x
b11001 ~
b11111111111111111111111111111001 5
b11111111111111111111111111111001 Q
b11111111111111111111111111111001 v
b110 @
b110 K
b110 /"
b101 ;
b101 [
b110 ?
b110 J
b110 y
b110 &"
b110 9
b110 Y
b110 *"
b110 .
b110 ,"
b110 8
b110 X
b10100110001100011000000000000 +
b10100110001100011000000000000 R
b10100110001100011000000000000 3
b10100110001100011000000000000 q
b10110 0
b10110 !"
b10101 -"
b10101 ,
b10101 ("
b10101 2
b10101 r
b10101 $"
b10000110001011000100000000000 '
b10101 )
1&
#240000
0&
#245000
b111 A
b111 L
b111 ]
b11 w
b11 -
b11 +"
b11 1
b11 x
b11 ~
b11 5
b11 Q
b11 v
b10 @
b10 K
b10 /"
b1110 D
b1110 N
b1110 0"
b111 ;
b111 [
b1110 :
b1110 Z
b1110 )"
b1 9
b1 Y
b1 *"
b10011 .
b10011 ,"
b10011 8
b10011 X
b1110 C
b1110 M
b1110 %"
b10 ?
b10 J
b10 y
b10 &"
b11101110000011001100000000000 +
b11101110000011001100000000000 R
b11101110000011001100000000000 3
b11101110000011001100000000000 q
b10111 0
b10111 !"
b10110 -"
b10110 ,
b10110 ("
b10110 2
b10110 r
b10110 $"
b10100110001100011000000000000 '
b10110 )
1&
#250000
0&
#255000
b1001 A
b1001 L
b1001 ]
b1 w
b1 -
b1 +"
b1 1
b1 x
b1 ~
b1010 D
b1010 N
b1010 0"
b1 5
b1 Q
b1 v
b1100 @
b1100 K
b1100 /"
b1001 ;
b1001 [
b1010 C
b1010 M
b1010 %"
b1010 :
b1010 Z
b1010 )"
b1100 ?
b1100 J
b1100 y
b1100 &"
b1100 9
b1100 Y
b1100 *"
b10101 .
b10101 ,"
b10101 8
b10101 X
b100101010011001010100000000000 +
b100101010011001010100000000000 R
b100101010011001010100000000000 3
b100101010011001010100000000000 q
b11000 0
b11000 !"
b10111 -"
b10111 ,
b10111 ("
b10111 2
b10111 r
b10111 $"
b11101110000011001100000000000 '
b10111 )
1&
#260000
0&
#265000
b0 A
b0 L
b0 ]
b1100 w
b1100 -
b1100 +"
b1100 1
b1100 x
b1100 ~
0/
06
b0 D
b0 N
b0 0"
b1100 5
b1100 Q
b1100 v
b1100 @
b1100 K
b1100 /"
17
b1100 ;
b1100 [
b0 C
b0 M
b0 %"
b0 :
b0 Z
b0 )"
b111 ?
b111 J
b111 y
b111 &"
b111 9
b111 Y
b111 *"
b0 .
b0 ,"
b0 8
b0 X
b1100 ."
b1100 =
b1100 \
b1100 '"
b110000000001110000000000001100 +
b110000000001110000000000001100 R
b110000000001110000000000001100 3
b110000000001110000000000001100 q
b11001 0
b11001 !"
b11000 -"
b11000 ,
b11000 ("
b11000 2
b11000 r
b11000 $"
b100101010011001010100000000000 '
b11000 )
1&
#270000
0&
#275000
b0 w
b0 -
b0 +"
b0 1
b0 x
b0 ~
1/
16
b0 5
b0 Q
b0 v
b0 @
b0 K
b0 /"
07
b0 ;
b0 [
b0 ?
b0 J
b0 y
b0 &"
b0 9
b0 Y
b0 *"
b0 ."
b0 =
b0 \
b0 '"
b0 +
b0 R
b0 3
b0 q
b11010 0
b11010 !"
b11001 -"
b11001 ,
b11001 ("
b11001 2
b11001 r
b11001 $"
b110000000001110000000000001100 '
b11001 )
1&
#280000
0&
#285000
b111 -
b111 +"
b111 1
b111 x
b1100 w
b1100 ~
b1100 5
b1100 Q
b1100 v
b1100 @
b1100 K
b1100 /"
1<
b1011 ;
b1011 [
b10100 .
b10100 ,"
b10100 8
b10100 X
b1100 ."
b1100 =
b1100 \
b1100 '"
b101100000000001010000000001100 +
b101100000000001010000000001100 R
b101100000000001010000000001100 3
b101100000000001010000000001100 q
b11011 0
b11011 !"
b11010 -"
b11010 ,
b11010 ("
b11010 2
b11010 r
b11010 $"
b0 '
b11010 )
1&
#290000
0&
#295000
b0 w
b0 ~
b0 5
b0 Q
b0 v
b0 -
b0 +"
b0 1
b0 x
b0 @
b0 K
b0 /"
0<
b0 ;
b0 [
b0 .
b0 ,"
b0 8
b0 X
b0 ."
b0 =
b0 \
b0 '"
b0 +
b0 R
b0 3
b0 q
b11100 0
b11100 !"
b11011 -"
b11011 ,
b11011 ("
b11011 2
b11011 r
b11011 $"
1&
#300000
0&
#305000
b11101 0
b11101 !"
b11100 -"
b11100 ,
b11100 ("
b11100 2
b11100 r
b11100 $"
1&
#310000
0&
#315000
b1001 w
b1001 -
b1001 +"
b1001 1
b1001 x
b1001 ~
b111 D
b111 N
b111 0"
b1001 5
b1001 Q
b1001 v
b10 @
b10 K
b10 /"
b111 C
b111 M
b111 %"
b10100 :
b10100 Z
b10100 )"
b10 ?
b10 J
b10 y
b10 &"
b1 9
b1 Y
b1 *"
b10111 .
b10111 ,"
b10111 8
b10111 X
b10100000011011100000000000 +
b10100000011011100000000000 R
b10100000011011100000000000 3
b10100000011011100000000000 q
b11110 0
b11110 !"
b11101 -"
b11101 ,
b11101 ("
b11101 2
b11101 r
b11101 $"
1&
#320000
0&
#325000
b100 A
b100 L
b100 ]
b0 w
b0 -
b0 +"
b0 1
b0 x
b0 ~
b1010 D
b1010 N
b1010 0"
b0 5
b0 Q
b0 v
b1010 @
b1010 K
b1010 /"
b100 ;
b100 [
b1010 C
b1010 M
b1010 %"
b1010 :
b1010 Z
b1010 )"
b1010 ?
b1010 J
b1010 y
b1010 &"
b1010 9
b1010 Y
b1010 *"
b1011 .
b1011 ,"
b1011 8
b1011 X
b10001010010100101100000000000 +
b10001010010100101100000000000 R
b10001010010100101100000000000 3
b10001010010100101100000000000 q
b11111 0
b11111 !"
b11110 -"
b11110 ,
b11110 ("
b11110 2
b11110 r
b11110 $"
1&
#330000
0&
#335000
b0 w
b0 -
b0 +"
b0 1
b0 x
b0 ~
b0 A
b0 L
b0 ]
b0 D
b0 N
b0 0"
b0 5
b0 Q
b0 v
b0 @
b0 K
b0 /"
b0 ;
b0 [
b0 C
b0 M
b0 %"
b0 :
b0 Z
b0 )"
b0 ?
b0 J
b0 y
b0 &"
b0 9
b0 Y
b0 *"
b0 .
b0 ,"
b0 8
b0 X
b0 +
b0 R
b0 3
b0 q
b0 0
b0 !"
b11111 -"
b11111 ,
b11111 ("
b11111 2
b11111 r
b11111 $"
b100000 *
1&
