rtl/cpu_run_tb.vcd
$date
	Wed Nov 12 17:29:44 2025
$end
$version
	Icarus Verilog
$end
$timescale
	1ps
$end
$scope module cpu_run_tb $end
$var parameter 32 ! ADDR_SIZE $end
$var parameter 32 " END_PC $end
$var parameter 32 # PC_BITS $end
$var parameter 32 $ REG_NUM $end
$var parameter 32 % XLEN $end
$var reg 1 & clk $end
$var reg 32 ' curr_inst [31:0] $end
$var reg 1 ( rst $end
$var integer 32 ) cycles [31:0] $end
$var integer 32 * i [31:0] $end
$scope module dut $end
$var wire 1 & clk $end
$var wire 1 ( rst $end
$var wire 1 + stall_D $end
$var wire 5 , pc_plus_1 [4:0] $end
$var wire 1 - WB_we $end
$var wire 5 . WB_rd [4:0] $end
$var wire 32 / WB_data_mem [31:0] $end
$var wire 2 0 WB_D_bp [1:0] $end
$var wire 1 1 MEM_we $end
$var wire 1 2 MEM_taken $end
$var wire 1 3 MEM_str $end
$var wire 5 4 MEM_rd [4:0] $end
$var wire 1 5 MEM_ld $end
$var wire 32 6 MEM_data_mem [31:0] $end
$var wire 1 7 MEM_byt $end
$var wire 32 8 MEM_b2 [31:0] $end
$var wire 32 9 MEM_alu_out [31:0] $end
$var wire 32 : MEM_a2 [31:0] $end
$var wire 2 ; MEM_D_bp [1:0] $end
$var wire 5 < F_pc [4:0] $end
$var wire 32 = F_inst [31:0] $end
$var wire 5 > F_BP_target_pc [4:0] $end
$var wire 1 ? F_BP_taken $end
$var wire 1 @ EX_we $end
$var wire 1 A EX_true_taken $end
$var wire 1 B EX_taken $end
$var wire 1 C EX_str $end
$var wire 5 D EX_rd [4:0] $end
$var wire 1 E EX_mul $end
$var wire 1 F EX_ld $end
$var wire 1 G EX_byt $end
$var wire 1 H EX_brn $end
$var wire 32 I EX_b2 [31:0] $end
$var wire 32 J EX_b [31:0] $end
$var wire 32 K EX_alu_out [31:0] $end
$var wire 4 L EX_alu_op [3:0] $end
$var wire 32 M EX_a2 [31:0] $end
$var wire 32 N EX_a [31:0] $end
$var wire 2 O EX_D_bp [1:0] $end
$var wire 1 P EX_BP_taken $end
$var wire 1 Q D_we $end
$var wire 1 R D_str $end
$var wire 5 S D_rd [4:0] $end
$var wire 5 T D_rb [4:0] $end
$var wire 5 U D_ra [4:0] $end
$var wire 5 V D_pc [4:0] $end
$var wire 6 W D_opc [5:0] $end
$var wire 1 X D_mul $end
$var wire 1 Y D_ld $end
$var wire 32 Z D_inst [31:0] $end
$var wire 11 [ D_imd [10:0] $end
$var wire 1 \ D_byt $end
$var wire 1 ] D_brn $end
$var wire 32 ^ D_b2 [31:0] $end
$var wire 32 _ D_b [31:0] $end
$var wire 4 ` D_alu_op [3:0] $end
$var wire 1 a D_addi $end
$var wire 32 b D_a2 [31:0] $end
$var wire 32 c D_a [31:0] $end
$var wire 1 d D_BP_taken $end
$var parameter 32 e ADDR_SIZE $end
$var parameter 32 f PC_BITS $end
$var parameter 32 g REG_NUM $end
$var parameter 5 h RESET_PC $end
$var parameter 32 i XLEN $end
$scope module u_Hazard_unit $end
$var wire 1 & clk $end
$var wire 1 j ex_hit_ra $end
$var wire 1 k ex_hit_rb $end
$var wire 1 l mem_hit_ra $end
$var wire 1 m mem_hit_rb $end
$var wire 1 n mul_start $end
$var wire 1 ( rst $end
$var wire 1 + stall_D $end
$var wire 1 o wb_hit_ra $end
$var wire 1 p wb_hit_rb $end
$var wire 1 q mul_stall $end
$var wire 1 - WB_we $end
$var wire 5 r WB_rd [4:0] $end
$var wire 2 s WB_D_bp [1:0] $end
$var wire 1 1 MEM_we $end
$var wire 5 t MEM_rd [4:0] $end
$var wire 2 u MEM_D_bp [1:0] $end
$var wire 1 @ EX_we $end
$var wire 5 v EX_rd [4:0] $end
$var wire 1 E EX_mul $end
$var wire 1 F EX_ld $end
$var wire 32 w EX_alu_out [31:0] $end
$var wire 2 x EX_D_bp [1:0] $end
$var wire 5 y D_rd [4:0] $end
$var wire 5 z D_rb [4:0] $end
$var wire 5 { D_ra [4:0] $end
$var parameter 32 | ADDR_SIZE $end
$var parameter 32 } MUL_STALLS $end
$var parameter 32 ~ XLEN $end
$var reg 3 !" mul_cnt [2:0] $end
$upscope $end
$scope module u_alu $end
$var wire 1 H EX_brn $end
$var wire 32 "" EX_b2 [31:0] $end
$var wire 32 #" EX_b [31:0] $end
$var wire 4 $" EX_alu_op [3:0] $end
$var wire 32 %" EX_a2 [31:0] $end
$var wire 32 &" EX_a [31:0] $end
$var wire 1 P EX_BP_taken $end
$var parameter 32 '" SHW $end
$var parameter 32 (" XLEN $end
$var reg 32 )" EX_alu_out [31:0] $end
$var reg 1 B EX_taken $end
$var reg 1 A EX_true_taken $end
$var reg 32 *" next_pc [31:0] $end
$upscope $end
$scope module u_branch_buffer $end
$var wire 5 +" EX_alu_out [4:0] $end
$var wire 5 ," EX_pc [4:0] $end
$var wire 1 A EX_true_taken $end
$var wire 1 ? F_BP_taken $end
$var wire 1 & clk $end
$var wire 1 ( rst $end
$var wire 1 -" taken_on_hit $end
$var wire 5 ." F_pc [4:0] $end
$var wire 5 /" F_BP_target_pc [4:0] $end
$var wire 1 H EX_brn $end
$var parameter 32 0" DEPTH $end
$var parameter 32 1" INDX $end
$var reg 1 2" ex_hit $end
$var reg 3 3" ex_hit_idx [2:0] $end
$var reg 1 4" f_hit $end
$var reg 3 5" f_hit_idx [2:0] $end
$var integer 32 6" i [31:0] $end
$scope task fifo_insert_new $end
$upscope $end
$upscope $end
$scope module u_d_to_ex_reg $end
$var wire 1 P EX_BP_taken $end
$var wire 32 7" EX_a2 [31:0] $end
$var wire 4 8" EX_alu_op [3:0] $end
$var wire 32 9" EX_b [31:0] $end
$var wire 32 :" EX_b2 [31:0] $end
$var wire 1 H EX_brn $end
$var wire 1 G EX_byt $end
$var wire 1 C EX_str $end
$var wire 1 B EX_taken $end
$var wire 1 & clk $end
$var wire 1 ( rst $end
$var wire 1 + stall_D $end
$var wire 1 @ EX_we $end
$var wire 5 ;" EX_rd [4:0] $end
$var wire 1 E EX_mul $end
$var wire 1 F EX_ld $end
$var wire 32 <" EX_a [31:0] $end
$var wire 1 Q D_we $end
$var wire 1 R D_str $end
$var wire 5 =" D_rd [4:0] $end
$var wire 1 X D_mul $end
$var wire 1 Y D_ld $end
$var wire 1 \ D_byt $end
$var wire 1 ] D_brn $end
$var wire 32 >" D_b2 [31:0] $end
$var wire 32 ?" D_b [31:0] $end
$var wire 4 @" D_alu_op [3:0] $end
$var wire 32 A" D_a2 [31:0] $end
$var wire 32 B" D_a [31:0] $end
$var wire 1 d D_BP_taken $end
$var parameter 32 C" XLEN $end
$var reg 32 D" ex_a2_r [31:0] $end
$var reg 32 E" ex_a_r [31:0] $end
$var reg 4 F" ex_alu_op_r [3:0] $end
$var reg 32 G" ex_b2_r [31:0] $end
$var reg 32 H" ex_b_r [31:0] $end
$var reg 1 I" ex_bp_taken_r $end
$var reg 1 J" ex_brn_r $end
$var reg 1 K" ex_byt_r $end
$var reg 1 F ex_ld_r $end
$var reg 1 E ex_mul_r $end
$var reg 5 L" ex_rd_r [4:0] $end
$var reg 1 M" ex_str_r $end
$var reg 1 @ ex_we_r $end
$upscope $end
$scope module u_decode $end
$var wire 1 ] D_brn $end
$var wire 1 Q D_we $end
$var wire 1 & clk $end
$var wire 1 N" is_beq $end
$var wire 1 O" is_bgt $end
$var wire 1 P" is_blt $end
$var wire 1 Q" is_jmp $end
$var wire 1 R" is_ctrl $end
$var wire 1 R D_str $end
$var wire 5 S" D_rd [4:0] $end
$var wire 5 T" D_rb [4:0] $end
$var wire 5 U" D_ra [4:0] $end
$var wire 6 V" D_opc [5:0] $end
$var wire 1 X D_mul $end
$var wire 1 Y D_ld $end
$var wire 32 W" D_inst [31:0] $end
$var wire 11 X" D_imd [10:0] $end
$var wire 1 \ D_byt $end
$var wire 4 Y" D_alu_op [3:0] $end
$var wire 1 a D_addi $end
$var parameter 6 Z" OPC_ADD $end
$var parameter 6 [" OPC_ADDI $end
$var parameter 6 \" OPC_AND $end
$var parameter 6 ]" OPC_CTRL $end
$var parameter 6 ^" OPC_GT $end
$var parameter 5 _" OPC_LOAD $end
$var parameter 6 `" OPC_LT $end
$var parameter 6 a" OPC_MUL $end
$var parameter 6 b" OPC_NOT $end
$var parameter 6 c" OPC_OR $end
$var parameter 6 d" OPC_SHL $end
$var parameter 6 e" OPC_SHR $end
$var parameter 5 f" OPC_STORE $end
$var parameter 6 g" OPC_SUB $end
$var parameter 6 h" OPC_XOR $end
$var parameter 5 i" RD_BEQ $end
$var parameter 5 j" RD_BGT $end
$var parameter 5 k" RD_BLT $end
$var parameter 5 l" RD_JMP $end
$var parameter 32 m" XLEN $end
$upscope $end
$scope module u_ex_to_mem_reg $end
$var wire 32 n" EX_a2 [31:0] $end
$var wire 32 o" EX_alu_out [31:0] $end
$var wire 32 p" EX_b2 [31:0] $end
$var wire 1 G EX_byt $end
$var wire 1 F EX_ld $end
$var wire 5 q" EX_rd [4:0] $end
$var wire 1 C EX_str $end
$var wire 1 B EX_taken $end
$var wire 1 @ EX_we $end
$var wire 32 r" MEM_a2 [31:0] $end
$var wire 32 s" MEM_b2 [31:0] $end
$var wire 1 3 MEM_str $end
$var wire 1 2 MEM_taken $end
$var wire 1 & clk $end
$var wire 1 ( rst $end
$var wire 1 1 MEM_we $end
$var wire 5 t" MEM_rd [4:0] $end
$var wire 1 5 MEM_ld $end
$var wire 1 7 MEM_byt $end
$var wire 32 u" MEM_alu_out [31:0] $end
$var parameter 32 v" XLEN $end
$var reg 32 w" mem_a2_r [31:0] $end
$var reg 32 x" mem_alu_out_r [31:0] $end
$var reg 32 y" mem_b2_r [31:0] $end
$var reg 1 7 mem_byt_r $end
$var reg 1 5 mem_ld_r $end
$var reg 5 z" mem_rd_r [4:0] $end
$var reg 1 {" mem_str_r $end
$var reg 1 |" mem_taken_r $end
$var reg 1 1 mem_we_r $end
$upscope $end
$scope module u_f2d $end
$var wire 1 d D_BP_taken $end
$var wire 1 B EX_taken $end
$var wire 1 ? F_BP_taken $end
$var wire 1 & clk $end
$var wire 1 ( rst $end
$var wire 1 + stall_D $end
$var wire 5 }" F_pc [4:0] $end
$var wire 32 ~" F_inst [31:0] $end
$var wire 5 !# D_pc [4:0] $end
$var wire 32 "# D_inst [31:0] $end
$var parameter 32 ## NOP $end
$var parameter 32 $# PC_BITS $end
$var parameter 32 %# XLEN $end
$var reg 1 &# d_bp_taken $end
$var reg 32 '# d_inst [31:0] $end
$var reg 5 (# d_pc [4:0] $end
$upscope $end
$scope module u_instruct_reg $end
$var wire 32 )# F_inst [31:0] $end
$var wire 1 & clk $end
$var wire 5 *# F_pc [4:0] $end
$var parameter 32 +# ADDR_SIZE $end
$var parameter 32 ,# REG_NUM $end
$var parameter 32 -# XLEN $end
$upscope $end
$scope module u_mem_to_wb_reg $end
$var wire 5 .# MEM_rd [4:0] $end
$var wire 1 1 MEM_we $end
$var wire 1 & clk $end
$var wire 1 ( rst $end
$var wire 1 - WB_we $end
$var wire 5 /# WB_rd [4:0] $end
$var wire 32 0# WB_data_mem [31:0] $end
$var wire 32 1# MEM_data_mem [31:0] $end
$var parameter 32 2# XLEN $end
$var reg 32 3# wb_data_mem_r [31:0] $end
$var reg 5 4# wb_rd_r [4:0] $end
$var reg 1 - wb_we_r $end
$upscope $end
$scope module u_memory $end
$var wire 32 5# MEM_alu_out [31:0] $end
$var wire 32 6# MEM_b2 [31:0] $end
$var wire 1 7 MEM_byt $end
$var wire 1 5 MEM_ld $end
$var wire 1 3 MEM_str $end
$var wire 1 & clk $end
$var wire 5 7# addr [4:0] $end
$var wire 32 8# MEM_data_mem [31:0] $end
$var parameter 32 9# ADDR_SIZE $end
$var parameter 32 :# REG_NUM $end
$var parameter 32 ;# XLEN $end
$var integer 32 <# i [31:0] $end
$upscope $end
$scope module u_pc $end
$var wire 5 =# EX_alt_pc [4:0] $end
$var wire 1 B EX_taken $end
$var wire 5 ># F_BP_target_pc [4:0] $end
$var wire 1 & clk $end
$var wire 1 ( rst $end
$var wire 1 + stall_D $end
$var parameter 5 ?# RESET_PC $end
$var parameter 32 @# XLEN $end
$var reg 5 A# F_pc [4:0] $end
$upscope $end
$scope module u_regfile $end
$var wire 32 B# D_a2 [31:0] $end
$var wire 1 a D_addi $end
$var wire 32 C# D_b2 [31:0] $end
$var wire 1 ] D_brn $end
$var wire 11 D# D_imd [10:0] $end
$var wire 1 Y D_ld $end
$var wire 5 E# D_pc [4:0] $end
$var wire 5 F# D_ra [4:0] $end
$var wire 5 G# D_rb [4:0] $end
$var wire 1 R D_str $end
$var wire 2 H# EX_D_bp [1:0] $end
$var wire 32 I# EX_alu_out [31:0] $end
$var wire 2 J# MEM_D_bp [1:0] $end
$var wire 32 K# MEM_data_mem [31:0] $end
$var wire 2 L# WB_D_bp [1:0] $end
$var wire 32 M# WB_data_mem [31:0] $end
$var wire 5 N# WB_rd [4:0] $end
$var wire 1 - WB_we $end
$var wire 1 & clk $end
$var wire 32 O# ra_raw [31:0] $end
$var wire 32 P# rb_raw [31:0] $end
$var wire 32 Q# rb_fwd [31:0] $end
$var wire 32 R# ra_fwd [31:0] $end
$var wire 32 S# pc_extended [31:0] $end
$var wire 32 T# offset [31:0] $end
$var wire 32 U# D_b [31:0] $end
$var wire 32 V# D_a [31:0] $end
$var parameter 32 W# ADDR_SIZE $end
$var parameter 32 X# REG_NUM $end
$var parameter 32 Y# XLEN $end
$var integer 32 Z# i [31:0] $end
$upscope $end
$upscope $end
$scope begin run_loop $end
$upscope $end
$upscope $end
$enddefinitions $end
$comment Show the parameter values. $end
$dumpall
b100000 Y#
b100000 X#
b101 W#
b101 @#
b0 ?#
b100000 ;#
b100000 :#
b101 9#
b100000 2#
b100000 -#
b100000 ,#
b101 +#
b100000 %#
b101 $#
b100000000000000000000000000000 ##
b100000 v"
b100000 m"
b0 l"
b10 k"
b11 j"
b1 i"
b100 h"
b1 g"
b1100 f"
b111 e"
b110 d"
b11 c"
b101 b"
b1110 a"
b1001 `"
b1011 _"
b1010 ^"
b1101 ]"
b10 \"
b1000 ["
b0 Z"
b100000 C"
b11 1"
b1000 0"
b100000 ("
b101 '"
b100000 ~
b100 }
b101 |
b100000 i
b0 h
b100000 g
b101 f
b101 e
b100000 %
b100000 $
b101 #
b10110 "
b101 !
$end
#0
$dumpvars
b100000 Z#
bx V#
bx U#
b0xxxxxxxxxxx T#
b0xxxxx S#
bx R#
bx Q#
bx P#
bx O#
bx N#
bx M#
bx L#
bx K#
bx J#
bx I#
bx H#
bx G#
bx F#
bx E#
bx D#
bx C#
bx B#
b0 A#
b1 >#
bx =#
b100000 <#
bx 8#
bx 7#
bx 6#
bx 5#
bx 4#
bx 3#
bx 1#
bx 0#
bx /#
bx .#
b0 *#
b100000010000100001000000000000 )#
bx (#
bx '#
x&#
bx "#
bx !#
b100000010000100001000000000000 ~"
b0 }"
x|"
x{"
bx z"
bx y"
bx x"
bx w"
bx u"
bx t"
bx s"
bx r"
bx q"
bx p"
bx o"
bx n"
bx Y"
bx X"
bx W"
bx V"
bx U"
bx T"
bx S"
xR"
xQ"
xP"
xO"
xN"
xM"
bx L"
xK"
xJ"
xI"
bx H"
bx G"
bx F"
bx E"
bx D"
bx B"
bx A"
bx @"
bx ?"
bx >"
bx ="
bx <"
bx ;"
bx :"
bx 9"
bx 8"
bx 7"
b1000 6"
b0 5"
04"
bx 3"
x2"
b1 /"
b0 ."
0-"
bx ,"
bx +"
bx *"
bx )"
bx &"
bx %"
bx $"
bx #"
bx ""
bx !"
bx {
bx z
bx y
bx x
bx w
bx v
bx u
bx t
bx s
bx r
xq
xp
xo
xn
xm
xl
xk
xj
xd
bx c
bx b
xa
bx `
bx _
bx ^
x]
x\
bx [
bx Z
xY
xX
bx W
bx V
bx U
bx T
bx S
xR
xQ
xP
bx O
bx N
bx M
bx L
bx K
bx J
bx I
xH
xG
xF
xE
bx D
xC
xB
xA
x@
0?
b1 >
b100000010000100001000000000000 =
b0 <
bx ;
bx :
bx 9
bx 8
x7
bx 6
x5
bx 4
x3
x2
x1
bx 0
bx /
bx .
x-
b1 ,
x+
bx *
bx )
1(
bx '
0&
$end
#5000
b0 c
b0 B"
b0 V#
b0 ^
b0 >"
b0 C#
b0 Q#
b0 b
b0 A"
b0 B#
b0 R#
b0 _
b0 ?"
b0 U#
0O"
0P"
0N"
0Q"
0Y
0R
0\
1Q
b0 `
b0 @"
b0 Y"
b0 O
b0 x
b0 H#
b0 +"
b0 =#
b0 T#
b0 [
b0 X"
b0 D#
b0 S
b0 y
b0 ="
b0 S"
b0 P#
b0 T
b0 z
b0 T"
b0 G#
b0 O#
b0 U
b0 {
b0 U"
b0 F#
0]
0R"
0X
1a
b1000 W
b1000 V"
0+
0n
0k
0j
b0 ,"
b0 *"
0A
0B
b0 K
b0 w
b0 )"
b0 o"
b0 I#
b0 3"
12"
14"
0m
b0 ;
b0 u
b0 J#
0l
b0 7#
b0 6
b0 1#
b0 8#
b0 K#
0p
b0 0
b0 s
b0 L#
0o
0d
0&#
b100000000000000000000000000000 Z
b100000000000000000000000000000 W"
b100000000000000000000000000000 "#
b100000000000000000000000000000 '#
b0 S#
b0 V
b0 !#
b0 (#
b0 E#
0q
b0 !"
0E
0@
0G
0K"
0C
0M"
0F
b0 D
b0 v
b0 ;"
b0 L"
b0 q"
0P
0I"
0H
0J"
b0 L
b0 $"
b0 8"
b0 F"
b0 I
b0 ""
b0 :"
b0 p"
b0 G"
b0 J
b0 #"
b0 9"
b0 H"
b0 M
b0 %"
b0 7"
b0 n"
b0 D"
b0 N
b0 &"
b0 <"
b0 E"
07
03
0{"
05
01
b0 4
b0 t
b0 t"
b0 z"
b0 .#
b0 :
b0 r"
b0 w"
b0 8
b0 s"
b0 6#
b0 y"
02
0|"
b0 9
b0 u"
b0 x"
b0 5#
0-
b0 .
b0 r
b0 /#
b0 4#
b0 N#
b0 /
b0 0#
b0 3#
b0 M#
b1000 6"
1&
#10000
0&
#15000
b1000 6"
1&
#20000
0&
#25000
0(
b1000 6"
b0 )
1&
#30000
0&
#35000
b10 S
b10 y
b10 ="
b10 S"
b10 T
b10 z
b10 T"
b10 G#
b10 U
b10 {
b10 U"
b10 F#
b10 >
b10 /"
b10 >#
b1000 6"
04"
1@
b100000010000100001000000000000 Z
b100000010000100001000000000000 W"
b100000010000100001000000000000 "#
b100000010000100001000000000000 '#
b100000011000110001100000011110 =
b100000011000110001100000011110 ~"
b100000011000110001100000011110 )#
b10 ,
b1 <
b1 ."
b1 }"
b1 *#
b1 A#
b100000010000100001000000000000 '
b1 )
1&
#40000
0&
#45000
b11110 _
b11110 ?"
b11110 U#
b0 O
b0 x
b0 H#
b11110 T#
b11110 [
b11110 X"
b11110 D#
b11 S
b11 y
b11 ="
b11 S"
b11 T
b11 z
b11 T"
b11 G#
b11 U
b11 {
b11 U"
b11 F#
0k
0j
b11 >
b11 /"
b11 >#
b1000 6"
b100000011000110001100000011110 Z
b100000011000110001100000011110 W"
b100000011000110001100000011110 "#
b100000011000110001100000011110 '#
b1 S#
b1 V
b1 !#
b1 (#
b1 E#
b10 D
b10 v
b10 ;"
b10 L"
b10 q"
11
b100000010000100001000000000001 =
b100000010000100001000000000001 ~"
b100000010000100001000000000001 )#
b11 ,
b10 <
b10 ."
b10 }"
b10 *#
b10 A#
b100000011000110001100000011110 '
b10 )
1&
#50000
0&
#55000
b11110 +"
b11110 =#
b1 _
b1 ?"
b1 U#
1m
b11 ;
b11 u
b11 J#
1l
b11110 K
b11110 w
b11110 )"
b11110 o"
b11110 I#
b1 T#
b1 [
b1 X"
b1 D#
b10 S
b10 y
b10 ="
b10 S"
b10 T
b10 z
b10 T"
b10 G#
b10 U
b10 {
b10 U"
b10 F#
b100 >
b100 /"
b100 >#
b1000 6"
1-
b10 4
b10 t
b10 t"
b10 z"
b10 .#
b11 D
b11 v
b11 ;"
b11 L"
b11 q"
b11110 J
b11110 #"
b11110 9"
b11110 H"
b100000010000100001000000000001 Z
b100000010000100001000000000001 W"
b100000010000100001000000000001 "#
b100000010000100001000000000001 '#
b10 S#
b10 V
b10 !#
b10 (#
b10 E#
b110100010000110000100000011100 =
b110100010000110000100000011100 ~"
b110100010000110000100000011100 )#
b100 ,
b11 <
b11 ."
b11 }"
b11 *#
b11 A#
b100000010000100001000000000001 '
b11 )
1&
#60000
0&
#65000
b1000 `
b1000 @"
b1000 Y"
0Q
b1 b
b1 A"
b1 B#
b1 R#
b11110 ^
b11110 >"
b11110 C#
b11110 Q#
b11100 _
b11100 ?"
b11100 U#
b11 c
b11 B"
b11 V#
1N"
b10 O
b10 x
b10 H#
b1 +"
b1 =#
b11100 T#
b11100 [
b11100 X"
b11100 D#
b1 S
b1 y
b1 ="
b1 S"
b11 T
b11 z
b11 T"
b11 G#
1]
1R"
0a
b1101 W
b1101 V"
0k
1j
b1 K
b1 w
b1 )"
b1 o"
b1 I#
1m
b1 ;
b1 u
b1 J#
0l
b11110 7#
b11110 6
b11110 1#
b11110 8#
b11110 K#
0p
b10 0
b10 s
b10 L#
1o
b101 >
b101 /"
b101 >#
b1000 6"
b110100010000110000100000011100 Z
b110100010000110000100000011100 W"
b110100010000110000100000011100 "#
b110100010000110000100000011100 '#
b11 S#
b11 V
b11 !#
b11 (#
b11 E#
b10 D
b10 v
b10 ;"
b10 L"
b10 q"
b1 J
b1 #"
b1 9"
b1 H"
b11 4
b11 t
b11 t"
b11 z"
b11 .#
b11110 9
b11110 u"
b11110 x"
b11110 5#
b10 .
b10 r
b10 /#
b10 4#
b10 N#
b110100000000000000100000011110 =
b110100000000000000100000011110 ~"
b110100000000000000100000011110 )#
b101 ,
b100 <
b100 ."
b100 }"
b100 *#
b100 A#
b110100010000110000100000011100 '
b100 )
1&
#70000
0&
#75000
b0 ^
b0 >"
b0 C#
b0 Q#
b0 O
b0 x
b0 H#
02"
b0 b
b0 A"
b0 B#
b0 R#
b100 +"
b100 =#
b11110 _
b11110 ?"
b11110 U#
b0 0
b0 s
b0 L#
0o
b0 ;
b0 u
b0 J#
0m
b1 7#
b1 6
b1 1#
b1 8#
b1 K#
0j
b11 ,"
b100 *"
b100 K
b100 w
b100 )"
b100 o"
b100 I#
b11110 T#
b11110 [
b11110 X"
b11110 D#
b0 T
b0 z
b0 T"
b0 G#
b0 U
b0 {
b0 U"
b0 F#
b100 c
b100 B"
b100 V#
b110 >
b110 /"
b110 >#
b1000 6"
b11 .
b11 r
b11 /#
b11 4#
b11 N#
b11110 /
b11110 0#
b11110 3#
b11110 M#
b10 4
b10 t
b10 t"
b10 z"
b10 .#
b1 9
b1 u"
b1 x"
b1 5#
0@
b1 D
b1 v
b1 ;"
b1 L"
b1 q"
1H
1J"
b1000 L
b1000 $"
b1000 8"
b1000 F"
b11110 I
b11110 ""
b11110 :"
b11110 p"
b11110 G"
b11100 J
b11100 #"
b11100 9"
b11100 H"
b1 M
b1 %"
b1 7"
b1 n"
b1 D"
b11 N
b11 &"
b11 <"
b11 E"
b110100000000000000100000011110 Z
b110100000000000000100000011110 W"
b110100000000000000100000011110 "#
b110100000000000000100000011110 '#
b100 S#
b100 V
b100 !#
b100 (#
b100 E#
b100000000000000000000000000000 =
b100000000000000000000000000000 ~"
b100000000000000000000000000000 )#
b110 ,
b101 <
b101 ."
b101 }"
b101 *#
b101 A#
b110100000000000000100000011110 '
b101 )
1&
#80000
0&
#85000
b0 `
b0 @"
b0 Y"
1Q
b0 _
b0 ?"
b0 U#
0N"
b10 +"
b10 =#
b0 T#
b0 [
b0 X"
b0 D#
b0 S
b0 y
b0 ="
b0 S"
0]
0R"
1a
b1000 W
b1000 V"
b0 c
b0 B"
b0 V#
b100 ,"
1B
1A
b100010 *"
b100010 K
b100010 w
b100010 )"
b100010 o"
b100010 I#
b100 7#
b100 6
b100 1#
b100 8#
b100 K#
b111 >
b111 /"
b111 >#
b1000 6"
b100000000000000000000000000000 Z
b100000000000000000000000000000 W"
b100000000000000000000000000000 "#
b100000000000000000000000000000 '#
b101 S#
b101 V
b101 !#
b101 (#
b101 E#
b0 I
b0 ""
b0 :"
b0 p"
b0 G"
b11110 J
b11110 #"
b11110 9"
b11110 H"
b0 M
b0 %"
b0 7"
b0 n"
b0 D"
b100 N
b100 &"
b100 <"
b100 E"
01
b1 4
b1 t
b1 t"
b1 z"
b1 .#
b1 :
b1 r"
b1 w"
b11110 8
b11110 s"
b11110 6#
b11110 y"
b100 9
b100 u"
b100 x"
b100 5#
b10 .
b10 r
b10 /#
b10 4#
b10 N#
b1 /
b1 0#
b1 3#
b1 M#
b111 ,
b110 <
b110 ."
b110 }"
b110 *#
b110 A#
b100000000000000000000000000000 '
b110 )
1&
#90000
0&
#95000
b0 +"
b0 =#
b10 3"
12"
b10 7#
b100010 6
b100010 1#
b100010 8#
b100010 K#
b0 ,"
b0 *"
0A
0B
b0 K
b0 w
b0 )"
b0 o"
b0 I#
b11 >
b11 /"
b11 >#
b1000 6"
0-
b1 .
b1 r
b1 /#
b1 4#
b1 N#
b100 /
b100 0#
b100 3#
b100 M#
b0 :
b0 r"
b0 w"
b0 8
b0 s"
b0 6#
b0 y"
12
1|"
b100010 9
b100010 u"
b100010 x"
b100010 5#
b0 D
b0 v
b0 ;"
b0 L"
b0 q"
0H
0J"
b0 L
b0 $"
b0 8"
b0 F"
b0 J
b0 #"
b0 9"
b0 H"
b0 N
b0 &"
b0 <"
b0 E"
b0 S#
b0 V
b0 !#
b0 (#
b0 E#
b100000010000100001000000000001 =
b100000010000100001000000000001 ~"
b100000010000100001000000000001 )#
b11 ,
b10 <
b10 ."
b10 }"
b10 *#
b10 A#
b111 )
1&
#100000
0&
#105000
b1 c
b1 B"
b1 V#
b1 ^
b1 >"
b1 C#
b1 Q#
b1 b
b1 A"
b1 B#
b1 R#
b1 _
b1 ?"
b1 U#
b0 O
b0 x
b0 H#
b1 T#
b1 [
b1 X"
b1 D#
b10 S
b10 y
b10 ="
b10 S"
b1 P#
b10 T
b10 z
b10 T"
b10 G#
b1 O#
b10 U
b10 {
b10 U"
b10 F#
0k
0j
b0 7#
b0 6
b0 1#
b0 8#
b0 K#
b100 >
b100 /"
b100 >#
b1 5"
14"
b1000 6"
b100000010000100001000000000001 Z
b100000010000100001000000000001 W"
b100000010000100001000000000001 "#
b100000010000100001000000000001 '#
b10 S#
b10 V
b10 !#
b10 (#
b10 E#
1@
b0 4
b0 t
b0 t"
b0 z"
b0 .#
02
0|"
b0 9
b0 u"
b0 x"
b0 5#
b100010 /
b100010 0#
b100010 3#
b100010 M#
b110100010000110000100000011100 =
b110100010000110000100000011100 ~"
b110100010000110000100000011100 )#
b100 ,
b11 <
b11 ."
b11 }"
b11 *#
b11 A#
b100000010000100001000000000001 '
b1000 )
1&
#110000
0&
#115000
b1000 `
b1000 @"
b1000 Y"
b10 b
b10 A"
b10 B#
b10 R#
b11110 ^
b11110 >"
b11110 C#
b11110 Q#
0Q
b10 O
b10 x
b10 H#
b0 3"
02"
b10 +"
b10 =#
b11100 _
b11100 ?"
b11100 U#
b11 c
b11 B"
b11 V#
1N"
1?
1-"
1j
b1 ,"
b10 K
b10 w
b10 )"
b10 o"
b10 I#
b11100 T#
b11100 [
b11100 X"
b11100 D#
b1 S
b1 y
b1 ="
b1 S"
b11110 P#
b11 T
b11 z
b11 T"
b11 G#
1]
1R"
0a
b1101 W
b1101 V"
b10 >
b10 /"
b10 >#
b1000 6"
b0 5"
14"
b0 .
b0 r
b0 /#
b0 4#
b0 N#
b0 /
b0 0#
b0 3#
b0 M#
11
b10 D
b10 v
b10 ;"
b10 L"
b10 q"
b1 I
b1 ""
b1 :"
b1 p"
b1 G"
b1 J
b1 #"
b1 9"
b1 H"
b1 M
b1 %"
b1 7"
b1 n"
b1 D"
b1 N
b1 &"
b1 <"
b1 E"
b110100010000110000100000011100 Z
b110100010000110000100000011100 W"
b110100010000110000100000011100 "#
b110100010000110000100000011100 '#
b11 S#
b11 V
b11 !#
b11 (#
b11 E#
b110100000000000000100000011110 =
b110100000000000000100000011110 ~"
b110100000000000000100000011110 )#
b101 ,
b100 <
b100 ."
b100 }"
b100 *#
b100 A#
b110100010000110000100000011100 '
b1001 )
1&
#120000
0&
