rtl/cpu_run_tb.vcd
$date
	Sun Nov 16 16:57:18 2025
$end
$version
	Icarus Verilog
$end
$timescale
	1ps
$end
$scope module cpu_run_tb $end
$var parameter 32 ! ADDR_SIZE $end
$var parameter 32 " END_PC $end
$var parameter 32 # PC_BITS $end
$var parameter 32 $ REG_NUM $end
$var parameter 32 % XLEN $end
$var reg 1 & clk $end
$var reg 32 ' curr_inst [31:0] $end
$var reg 1 ( rst $end
$var integer 32 ) cycles [31:0] $end
$var integer 32 * i [31:0] $end
$scope module dut $end
$var wire 1 & clk $end
$var wire 1 ( rst $end
$var wire 1 + stall_D $end
$var wire 5 , pc_plus_1 [4:0] $end
$var wire 1 - WB_we $end
$var wire 5 . WB_rd [4:0] $end
$var wire 32 / WB_data_mem [31:0] $end
$var wire 2 0 WB_D_bp [1:0] $end
$var wire 1 1 MEM_we $end
$var wire 1 2 MEM_taken $end
$var wire 1 3 MEM_str $end
$var wire 1 4 MEM_stall $end
$var wire 5 5 MEM_rd [4:0] $end
$var wire 1 6 MEM_ld $end
$var wire 32 7 MEM_data_mem [31:0] $end
$var wire 1 8 MEM_byt $end
$var wire 32 9 MEM_b2 [31:0] $end
$var wire 32 : MEM_alu_out [31:0] $end
$var wire 32 ; MEM_a2 [31:0] $end
$var wire 2 < MEM_D_bp [1:0] $end
$var wire 1 = F_stall $end
$var wire 5 > F_pc [4:0] $end
$var wire 1 ? F_mem_valid $end
$var wire 1 @ F_mem_req $end
$var wire 128 A F_mem_inst [127:0] $end
$var wire 3 B F_mem_addr [2:0] $end
$var wire 32 C F_inst [31:0] $end
$var wire 5 D F_BP_target_pc [4:0] $end
$var wire 1 E F_BP_taken $end
$var wire 1 F EX_we $end
$var wire 1 G EX_true_taken $end
$var wire 1 H EX_taken $end
$var wire 1 I EX_str $end
$var wire 5 J EX_rd [4:0] $end
$var wire 1 K EX_mul $end
$var wire 1 L EX_ld $end
$var wire 1 M EX_byt $end
$var wire 1 N EX_brn $end
$var wire 32 O EX_b2 [31:0] $end
$var wire 32 P EX_b [31:0] $end
$var wire 32 Q EX_alu_out [31:0] $end
$var wire 4 R EX_alu_op [3:0] $end
$var wire 32 S EX_a2 [31:0] $end
$var wire 32 T EX_a [31:0] $end
$var wire 2 U EX_D_bp [1:0] $end
$var wire 1 V EX_BP_taken $end
$var wire 128 W Dc_wb_wline [127:0] $end
$var wire 1 X Dc_wb_we $end
$var wire 4 Y Dc_wb_addr [3:0] $end
$var wire 128 Z Dc_rline [127:0] $end
$var wire 1 [ Dc_rd_valid $end
$var wire 1 \ Dc_rd_req $end
$var wire 4 ] Dc_rd_addr [3:0] $end
$var wire 1 ^ D_we $end
$var wire 1 _ D_str $end
$var wire 5 ` D_rd [4:0] $end
$var wire 5 a D_rb [4:0] $end
$var wire 5 b D_ra [4:0] $end
$var wire 5 c D_pc [4:0] $end
$var wire 6 d D_opc [5:0] $end
$var wire 1 e D_mul $end
$var wire 1 f D_ld $end
$var wire 32 g D_inst [31:0] $end
$var wire 11 h D_imd [10:0] $end
$var wire 1 i D_byt $end
$var wire 1 j D_brn $end
$var wire 32 k D_b2 [31:0] $end
$var wire 32 l D_b [31:0] $end
$var wire 4 m D_alu_op [3:0] $end
$var wire 1 n D_addi $end
$var wire 32 o D_a2 [31:0] $end
$var wire 32 p D_a [31:0] $end
$var wire 1 q D_BP_taken $end
$var parameter 32 r ADDR_SIZE $end
$var parameter 32 s PC_BITS $end
$var parameter 32 t REG_NUM $end
$var parameter 5 u RESET_PC $end
$var parameter 32 v XLEN $end
$scope module u_Hazard_unit $end
$var wire 1 & clk $end
$var wire 1 w ex_hit_ra $end
$var wire 1 x ex_hit_rb $end
$var wire 1 y mem_hit_ra $end
$var wire 1 z mem_hit_rb $end
$var wire 1 { mul_start $end
$var wire 1 ( rst $end
$var wire 1 + stall_D $end
$var wire 1 | wb_hit_ra $end
$var wire 1 } wb_hit_rb $end
$var wire 1 ~ mul_stall $end
$var wire 1 - WB_we $end
$var wire 5 !" WB_rd [4:0] $end
$var wire 2 "" WB_D_bp [1:0] $end
$var wire 1 1 MEM_we $end
$var wire 5 #" MEM_rd [4:0] $end
$var wire 2 $" MEM_D_bp [1:0] $end
$var wire 1 F EX_we $end
$var wire 5 %" EX_rd [4:0] $end
$var wire 1 K EX_mul $end
$var wire 1 L EX_ld $end
$var wire 32 &" EX_alu_out [31:0] $end
$var wire 2 '" EX_D_bp [1:0] $end
$var wire 5 (" D_rd [4:0] $end
$var wire 5 )" D_rb [4:0] $end
$var wire 5 *" D_ra [4:0] $end
$var parameter 32 +" ADDR_SIZE $end
$var parameter 32 ," MUL_STALLS $end
$var parameter 32 -" XLEN $end
$var reg 3 ." mul_cnt [2:0] $end
$upscope $end
$scope module u_alu $end
$var wire 1 N EX_brn $end
$var wire 32 /" EX_b2 [31:0] $end
$var wire 32 0" EX_b [31:0] $end
$var wire 4 1" EX_alu_op [3:0] $end
$var wire 32 2" EX_a2 [31:0] $end
$var wire 32 3" EX_a [31:0] $end
$var wire 1 V EX_BP_taken $end
$var parameter 32 4" SHW $end
$var parameter 32 5" XLEN $end
$var reg 32 6" EX_alu_out [31:0] $end
$var reg 1 H EX_taken $end
$var reg 1 G EX_true_taken $end
$var reg 32 7" next_pc [31:0] $end
$upscope $end
$scope module u_branch_buffer $end
$var wire 5 8" EX_alu_out [4:0] $end
$var wire 5 9" EX_pc [4:0] $end
$var wire 1 G EX_true_taken $end
$var wire 1 E F_BP_taken $end
$var wire 1 & clk $end
$var wire 1 ( rst $end
$var wire 1 :" taken_on_hit $end
$var wire 1 4 MEM_stall $end
$var wire 1 = F_stall $end
$var wire 5 ;" F_pc [4:0] $end
$var wire 5 <" F_BP_target_pc [4:0] $end
$var wire 1 N EX_brn $end
$var parameter 32 =" DEPTH $end
$var parameter 32 >" INDX $end
$var reg 1 ?" ex_hit $end
$var reg 3 @" ex_hit_idx [2:0] $end
$var reg 1 A" f_hit $end
$var reg 3 B" f_hit_idx [2:0] $end
$var integer 32 C" i [31:0] $end
$scope task fifo_insert_new $end
$upscope $end
$upscope $end
$scope module u_d_to_ex_reg $end
$var wire 1 V EX_BP_taken $end
$var wire 32 D" EX_a2 [31:0] $end
$var wire 4 E" EX_alu_op [3:0] $end
$var wire 32 F" EX_b [31:0] $end
$var wire 32 G" EX_b2 [31:0] $end
$var wire 1 N EX_brn $end
$var wire 1 M EX_byt $end
$var wire 1 I EX_str $end
$var wire 1 H EX_taken $end
$var wire 1 & clk $end
$var wire 1 ( rst $end
$var wire 1 + stall_D $end
$var wire 1 4 MEM_stall $end
$var wire 1 F EX_we $end
$var wire 5 H" EX_rd [4:0] $end
$var wire 1 K EX_mul $end
$var wire 1 L EX_ld $end
$var wire 32 I" EX_a [31:0] $end
$var wire 1 ^ D_we $end
$var wire 1 _ D_str $end
$var wire 5 J" D_rd [4:0] $end
$var wire 1 e D_mul $end
$var wire 1 f D_ld $end
$var wire 1 i D_byt $end
$var wire 1 j D_brn $end
$var wire 32 K" D_b2 [31:0] $end
$var wire 32 L" D_b [31:0] $end
$var wire 4 M" D_alu_op [3:0] $end
$var wire 32 N" D_a2 [31:0] $end
$var wire 32 O" D_a [31:0] $end
$var wire 1 q D_BP_taken $end
$var parameter 32 P" XLEN $end
$var reg 32 Q" ex_a2_r [31:0] $end
$var reg 32 R" ex_a_r [31:0] $end
$var reg 4 S" ex_alu_op_r [3:0] $end
$var reg 32 T" ex_b2_r [31:0] $end
$var reg 32 U" ex_b_r [31:0] $end
$var reg 1 V" ex_bp_taken_r $end
$var reg 1 W" ex_brn_r $end
$var reg 1 X" ex_byt_r $end
$var reg 1 L ex_ld_r $end
$var reg 1 K ex_mul_r $end
$var reg 5 Y" ex_rd_r [4:0] $end
$var reg 1 Z" ex_str_r $end
$var reg 1 F ex_we_r $end
$upscope $end
$scope module u_data_mem $end
$var wire 1 & clk $end
$var wire 1 ( rst $end
$var wire 128 [" Dc_wb_wline [127:0] $end
$var wire 1 X Dc_wb_we $end
$var wire 4 \" Dc_wb_addr [3:0] $end
$var wire 1 \ Dc_rd_req $end
$var wire 4 ]" Dc_rd_addr [3:0] $end
$var parameter 32 ^" LATENCY $end
$var parameter 32 _" XLEN $end
$var reg 1 [ Dc_rd_valid $end
$var reg 128 `" Dc_rline [127:0] $end
$var reg 2 a" counter [1:0] $end
$var reg 4 b" saved_line [3:0] $end
$var integer 32 c" i [31:0] $end
$var integer 32 d" j [31:0] $end
$upscope $end
$scope module u_dcache $end
$var wire 1 [ Dc_rd_valid $end
$var wire 128 e" Dc_rline [127:0] $end
$var wire 1 & clk $end
$var wire 1 f" op_active $end
$var wire 1 ( rst $end
$var wire 6 g" addr_word [5:0] $end
$var wire 2 h" addr_off [1:0] $end
$var wire 4 i" addr_line [3:0] $end
$var wire 1 3 MEM_str $end
$var wire 1 6 MEM_ld $end
$var wire 1 8 MEM_byt $end
$var wire 32 j" MEM_b2 [31:0] $end
$var wire 32 k" MEM_alu_out [31:0] $end
$var parameter 32 l" XLEN $end
$var reg 4 m" Dc_rd_addr [3:0] $end
$var reg 1 \ Dc_rd_req $end
$var reg 4 n" Dc_wb_addr [3:0] $end
$var reg 1 X Dc_wb_we $end
$var reg 128 o" Dc_wb_wline [127:0] $end
$var reg 32 p" MEM_data_mem [31:0] $end
$var reg 1 4 MEM_stall $end
$var reg 2 q" fifo_ptr [1:0] $end
$var reg 1 r" hit $end
$var reg 2 s" hit_idx [1:0] $end
$var reg 4 t" miss_line [3:0] $end
$var integer 32 u" i [31:0] $end
$upscope $end
$scope module u_decode $end
$var wire 1 j D_brn $end
$var wire 1 ^ D_we $end
$var wire 1 & clk $end
$var wire 1 v" is_beq $end
$var wire 1 w" is_bgt $end
$var wire 1 x" is_blt $end
$var wire 1 y" is_jmp $end
$var wire 1 z" is_ctrl $end
$var wire 1 _ D_str $end
$var wire 5 {" D_rd [4:0] $end
$var wire 5 |" D_rb [4:0] $end
$var wire 5 }" D_ra [4:0] $end
$var wire 6 ~" D_opc [5:0] $end
$var wire 1 e D_mul $end
$var wire 1 f D_ld $end
$var wire 32 !# D_inst [31:0] $end
$var wire 11 "# D_imd [10:0] $end
$var wire 1 i D_byt $end
$var wire 4 ## D_alu_op [3:0] $end
$var wire 1 n D_addi $end
$var parameter 6 $# OPC_ADD $end
$var parameter 6 %# OPC_ADDI $end
$var parameter 6 &# OPC_AND $end
$var parameter 6 '# OPC_CTRL $end
$var parameter 6 (# OPC_GT $end
$var parameter 5 )# OPC_LOAD $end
$var parameter 6 *# OPC_LT $end
$var parameter 6 +# OPC_MUL $end
$var parameter 6 ,# OPC_NOT $end
$var parameter 6 -# OPC_OR $end
$var parameter 6 .# OPC_SHL $end
$var parameter 6 /# OPC_SHR $end
$var parameter 5 0# OPC_STORE $end
$var parameter 6 1# OPC_SUB $end
$var parameter 6 2# OPC_XOR $end
$var parameter 5 3# RD_BEQ $end
$var parameter 5 4# RD_BGT $end
$var parameter 5 5# RD_BLT $end
$var parameter 5 6# RD_JMP $end
$var parameter 32 7# XLEN $end
$upscope $end
$scope module u_ex_to_mem_reg $end
$var wire 32 8# EX_a2 [31:0] $end
$var wire 32 9# EX_alu_out [31:0] $end
$var wire 32 :# EX_b2 [31:0] $end
$var wire 1 M EX_byt $end
$var wire 1 L EX_ld $end
$var wire 5 ;# EX_rd [4:0] $end
$var wire 1 I EX_str $end
$var wire 1 H EX_taken $end
$var wire 1 F EX_we $end
$var wire 32 <# MEM_a2 [31:0] $end
$var wire 32 =# MEM_b2 [31:0] $end
$var wire 1 8 MEM_byt $end
$var wire 1 4 MEM_stall $end
$var wire 1 2 MEM_taken $end
$var wire 1 & clk $end
$var wire 1 ( rst $end
$var wire 1 1 MEM_we $end
$var wire 1 3 MEM_str $end
$var wire 5 ># MEM_rd [4:0] $end
$var wire 1 6 MEM_ld $end
$var wire 32 ?# MEM_alu_out [31:0] $end
$var parameter 32 @# XLEN $end
$var reg 32 A# mem_a2_r [31:0] $end
$var reg 32 B# mem_alu_out_r [31:0] $end
$var reg 32 C# mem_b2_r [31:0] $end
$var reg 1 D# mem_byt_r $end
$var reg 1 6 mem_ld_r $end
$var reg 5 E# mem_rd_r [4:0] $end
$var reg 1 3 mem_str_r $end
$var reg 1 F# mem_taken_r $end
$var reg 1 1 mem_we_r $end
$upscope $end
$scope module u_f2d $end
$var wire 1 q D_BP_taken $end
$var wire 1 H EX_taken $end
$var wire 1 E F_BP_taken $end
$var wire 1 4 MEM_stall $end
$var wire 1 & clk $end
$var wire 1 ( rst $end
$var wire 1 + stall_D $end
$var wire 5 G# F_pc [4:0] $end
$var wire 32 H# F_inst [31:0] $end
$var wire 5 I# D_pc [4:0] $end
$var wire 32 J# D_inst [31:0] $end
$var parameter 32 K# NOP $end
$var parameter 32 L# PC_BITS $end
$var parameter 32 M# XLEN $end
$var reg 1 N# d_bp_taken $end
$var reg 32 O# d_inst [31:0] $end
$var reg 5 P# d_pc [4:0] $end
$upscope $end
$scope module u_icache $end
$var wire 1 & clk $end
$var wire 1 ( rst $end
$var wire 2 Q# pc_word [1:0] $end
$var wire 3 R# pc_line [2:0] $end
$var wire 5 S# F_pc [4:0] $end
$var wire 1 ? F_mem_valid $end
$var wire 128 T# F_mem_inst [127:0] $end
$var reg 32 U# F_inst [31:0] $end
$var reg 3 V# F_mem_addr [2:0] $end
$var reg 1 @ F_mem_req $end
$var reg 1 = F_stall $end
$var reg 2 W# fifo_ptr [1:0] $end
$var reg 1 X# hit $end
$var reg 2 Y# hit_idx [1:0] $end
$var reg 3 Z# miss_line [2:0] $end
$var integer 32 [# i [31:0] $end
$upscope $end
$scope module u_instruct_mem $end
$var wire 3 \# F_mem_addr [2:0] $end
$var wire 1 @ F_mem_req $end
$var wire 1 & clk $end
$var wire 1 ( rst $end
$var parameter 32 ]# LATENCY $end
$var parameter 32 ^# XLEN $end
$var reg 128 _# F_mem_inst [127:0] $end
$var reg 1 ? F_mem_valid $end
$var reg 2 `# counter [1:0] $end
$var reg 3 a# saved_line [2:0] $end
$upscope $end
$scope module u_mem_to_wb_reg $end
$var wire 32 b# MEM_data_mem [31:0] $end
$var wire 5 c# MEM_rd [4:0] $end
$var wire 1 1 MEM_we $end
$var wire 1 & clk $end
$var wire 1 ( rst $end
$var wire 1 - WB_we $end
$var wire 5 d# WB_rd [4:0] $end
$var wire 32 e# WB_data_mem [31:0] $end
$var parameter 32 f# XLEN $end
$var reg 32 g# wb_data_mem_r [31:0] $end
$var reg 5 h# wb_rd_r [4:0] $end
$var reg 1 - wb_we_r $end
$upscope $end
$scope module u_pc $end
$var wire 5 i# EX_alt_pc [4:0] $end
$var wire 1 H EX_taken $end
$var wire 5 j# F_BP_target_pc [4:0] $end
$var wire 1 & clk $end
$var wire 1 ( rst $end
$var wire 1 + stall_D $end
$var parameter 5 k# RESET_PC $end
$var parameter 32 l# XLEN $end
$var reg 5 m# F_pc [4:0] $end
$upscope $end
$scope module u_regfile $end
$var wire 32 n# D_a2 [31:0] $end
$var wire 1 n D_addi $end
$var wire 32 o# D_b2 [31:0] $end
$var wire 1 j D_brn $end
$var wire 11 p# D_imd [10:0] $end
$var wire 1 f D_ld $end
$var wire 5 q# D_pc [4:0] $end
$var wire 5 r# D_ra [4:0] $end
$var wire 5 s# D_rb [4:0] $end
$var wire 1 _ D_str $end
$var wire 2 t# EX_D_bp [1:0] $end
$var wire 32 u# EX_alu_out [31:0] $end
$var wire 2 v# MEM_D_bp [1:0] $end
$var wire 32 w# MEM_data_mem [31:0] $end
$var wire 2 x# WB_D_bp [1:0] $end
$var wire 32 y# WB_data_mem [31:0] $end
$var wire 5 z# WB_rd [4:0] $end
$var wire 1 - WB_we $end
$var wire 1 & clk $end
$var wire 32 {# ra_raw [31:0] $end
$var wire 32 |# rb_raw [31:0] $end
$var wire 32 }# rb_fwd [31:0] $end
$var wire 32 ~# ra_fwd [31:0] $end
$var wire 32 !$ pc_extended [31:0] $end
$var wire 32 "$ offset [31:0] $end
$var wire 32 #$ D_b [31:0] $end
$var wire 32 $$ D_a [31:0] $end
$var parameter 32 %$ ADDR_SIZE $end
$var parameter 32 &$ REG_NUM $end
$var parameter 32 '$ XLEN $end
$var integer 32 ($ i [31:0] $end
$upscope $end
$upscope $end
$scope begin run_loop $end
$upscope $end
$upscope $end
$enddefinitions $end
$comment Show the parameter values. $end
$dumpall
b100000 '$
b100000 &$
b101 %$
b101 l#
b0 k#
b100000 f#
b100000 ^#
b10 ]#
b100000 M#
b101 L#
b100000000000000000000000000000 K#
b100000 @#
b100000 7#
b0 6#
b10 5#
b11 4#
b1 3#
b100 2#
b1 1#
b1100 0#
b111 /#
b110 .#
b11 -#
b101 ,#
b1110 +#
b1001 *#
b1011 )#
b1010 (#
b1101 '#
b10 &#
b1000 %#
b0 $#
b100000 l"
b100000 _"
b11 ^"
b100000 P"
b11 >"
b1000 ="
b100000 5"
b101 4"
b100000 -"
b100 ,"
b101 +"
b100000 v
b0 u
b100000 t
b101 s
b101 r
b100000 %
b100000 $
b101 #
b10110 "
b101 !
$end
#0
$dumpvars
b100000 ($
bx $$
bx #$
b0xxxxxxxxxxx "$
b0xxxxx !$
bx ~#
bx }#
bx |#
bx {#
bx z#
bx y#
bx x#
bx w#
bx v#
bx u#
bx t#
bx s#
bx r#
bx q#
bx p#
bx o#
bx n#
b0 m#
b0 j#
bx i#
bx h#
bx g#
bx e#
bx d#
bx c#
bx b#
bx a#
bx `#
bx _#
b0 \#
bx [#
bx Z#
b0 Y#
0X#
bx W#
b0 V#
b100000000000000000000000000000 U#
bx T#
b0 S#
b0 R#
b0 Q#
bx P#
bx O#
xN#
bx J#
bx I#
b100000000000000000000000000000 H#
b0 G#
xF#
bx E#
xD#
bx C#
bx B#
bx A#
bx ?#
bx >#
bx =#
bx <#
bx ;#
bx :#
bx 9#
bx 8#
bx ##
bx "#
bx !#
bx ~"
bx }"
bx |"
bx {"
xz"
xy"
xx"
xw"
xv"
bx u"
bx t"
bx s"
xr"
bx q"
bx p"
bx o"
bx n"
bx m"
bx k"
bx j"
bx i"
bx h"
bx g"
xf"
bx e"
b100 d"
b10000 c"
bx b"
bx a"
bx `"
bx ]"
bx \"
bx ["
xZ"
bx Y"
xX"
xW"
xV"
bx U"
bx T"
bx S"
bx R"
bx Q"
bx O"
bx N"
bx M"
bx L"
bx K"
bx J"
bx I"
bx H"
bx G"
bx F"
bx E"
bx D"
b1000 C"
b0 B"
0A"
bx @"
x?"
b0 <"
b0 ;"
0:"
bx 9"
bx 8"
bx 7"
bx 6"
bx 3"
bx 2"
bx 1"
bx 0"
bx /"
bx ."
bx *"
bx )"
bx ("
bx '"
bx &"
bx %"
bx $"
bx #"
bx ""
bx !"
x~
x}
x|
x{
xz
xy
xx
xw
xq
bx p
bx o
xn
bx m
bx l
bx k
xj
xi
bx h
bx g
xf
xe
bx d
bx c
bx b
bx a
bx `
x_
x^
bx ]
x\
x[
bx Z
bx Y
xX
bx W
xV
bx U
bx T
bx S
bx R
bx Q
bx P
bx O
xN
xM
xL
xK
bx J
xI
xH
xG
xF
0E
b0 D
b100000000000000000000000000000 C
b0 B
bx A
x@
x?
b0 >
1=
bx <
bx ;
bx :
bx 9
x8
bx 7
x6
bx 5
x4
x3
x2
x1
bx 0
bx /
bx .
x-
b1 ,
x+
bx *
bx )
1(
bx '
0&
$end
#5000
b0 p
b0 O"
b0 $$
b0 k
b0 K"
b0 o#
b0 }#
b0 o
b0 N"
b0 n#
b0 ~#
b0 l
b0 L"
b0 #$
0w"
0x"
0v"
0y"
0f
0_
0i
1^
b0 m
b0 M"
b0 ##
b0 U
b0 '"
b0 t#
b0 8"
b0 i#
b0 ]
b0 ]"
b0 m"
b0 i"
b0 h"
1@
1=
b0 "$
b0 h
b0 "#
b0 p#
b0 `
b0 ("
b0 J"
b0 {"
b0 |#
b0 a
b0 )"
b0 |"
b0 s#
b0 {#
b0 b
b0 *"
b0 }"
b0 r#
0j
0z"
0e
1n
b1000 d
b1000 ~"
0+
0{
0x
0w
b0 9"
b0 7"
0G
0H
b0 Q
b0 &"
b0 6"
b0 9#
b0 u#
b0 @"
1?"
1A"
0f"
0z
b0 <
b0 $"
b0 v#
0y
b0 g"
0\
b0 7
b0 p"
b0 b#
b0 w#
04
b0 s"
0r"
0}
b0 0
b0 ""
b0 x#
0|
b0 Z#
b0 W#
b0 `#
0?
0q
0N#
b100000000000000000000000000000 g
b100000000000000000000000000000 !#
b100000000000000000000000000000 J#
b100000000000000000000000000000 O#
b0 !$
b0 c
b0 I#
b0 P#
b0 q#
0~
b0 ."
0K
0F
0M
0X"
0I
0Z"
0L
b0 J
b0 %"
b0 H"
b0 Y"
b0 ;#
0V
0V"
0N
0W"
b0 R
b0 1"
b0 E"
b0 S"
b0 O
b0 /"
b0 G"
b0 :#
b0 T"
b0 P
b0 0"
b0 F"
b0 U"
b0 S
b0 2"
b0 D"
b0 8#
b0 Q"
b0 T
b0 3"
b0 I"
b0 R"
08
0D#
03
06
01
b0 5
b0 #"
b0 >#
b0 E#
b0 c#
b0 ;
b0 <#
b0 A#
b0 9
b0 j"
b0 =#
b0 C#
02
0F#
b0 :
b0 k"
b0 ?#
b0 B#
b0 W
b0 ["
b0 o"
b0 Y
b0 \"
b0 n"
0X
b0 t"
b0 q"
b0 a"
0[
0-
b0 .
b0 !"
b0 d#
b0 h#
b0 z#
b0 /
b0 e#
b0 g#
b0 y#
b100 [#
b1000 C"
b100 u"
1&
#10000
0&
#15000
b100 u"
b1000 C"
b100 [#
1&
#20000
0&
#25000
0(
b100 [#
b1000 C"
b100 u"
b0 )
1&
#30000
0&
#35000
b11 U
b11 '"
b11 t#
1x
1w
1F
b10 `#
b0 a#
b100000000000000000000000000000 '
b1 )
1&
#40000
0&
#45000
1z
b11 <
b11 $"
b11 v#
1y
b1 `#
11
b10 )
1&
#50000
0&
#55000
1}
b11 0
b11 ""
b11 x#
1|
0@
1=
1-
1?
b100000010000100001000001111011000100000100001000010000000000000010000000100001000010000000010000010000001000010000100000000000 A
b100000010000100001000001111011000100000100001000010000000000000010000000100001000010000000010000010000001000010000100000000000 T#
b100000010000100001000001111011000100000100001000010000000000000010000000100001000010000000010000010000001000010000100000000000 _#
b0 `#
b11 )
1&
#60000
0&
#65000
b1 D
b1 <"
b1 j#
b10000001000010000100000000000 C
b10000001000010000100000000000 H#
b10000001000010000100000000000 U#
1X#
b100 [#
0=
b1 W#
0?
b100 )
1&
#70000
0&
#75000
b100 m
b100 M"
b100 ##
b0 U
b0 '"
b0 t#
0}
0z
0x
b0 0
b0 ""
b0 x#
0|
b0 <
b0 $"
b0 v#
0y
0w
b100 [#
b100000001000010000100000000100 C
b100000001000010000100000000100 H#
b100000001000010000100000000100 U#
1X#
b1 `
b1 ("
b1 J"
b1 {"
b1 a
b1 )"
b1 |"
b1 s#
b1 b
b1 *"
b1 }"
b1 r#
0n
b100 d
b100 ~"
b1 Q#
b10 D
b10 <"
b10 j#
b1000 C"
0A"
b10000001000010000100000000000 g
b10000001000010000100000000000 !#
b10000001000010000100000000000 J#
b10000001000010000100000000000 O#
b10 ,
b1 >
b1 ;"
b1 G#
b1 S#
b1 m#
b10000001000010000100000000000 '
b101 )
1&
#80000
0&
#85000
b0 m
b0 M"
b0 ##
b100 l
b100 L"
b100 #$
b11 U
b11 '"
b11 t#
b100 [#
b10000010000100001000000000000 C
b10000010000100001000000000000 H#
b10000010000100001000000000000 U#
1X#
b100 "$
b100 h
b100 "#
b100 p#
1n
b1000 d
b1000 ~"
1x
1w
b10 Q#
b11 D
b11 <"
b11 j#
b1000 C"
b100000001000010000100000000100 g
b100000001000010000100000000100 !#
b100000001000010000100000000100 J#
b100000001000010000100000000100 O#
b1 !$
b1 c
b1 I#
b1 P#
b1 q#
b1 J
b1 %"
b1 H"
b1 Y"
b1 ;#
b100 R
b100 1"
b100 E"
b100 S"
b11 ,
b10 >
b10 ;"
b10 G#
b10 S#
b10 m#
b100000001000010000100000000100 '
b110 )
1&
#90000
0&
#95000
b100 m
b100 M"
b100 ##
b0 p
b0 O"
b0 $$
b0 U
b0 '"
b0 t#
b0 o
b0 N"
b0 n#
b0 ~#
b0 k
b0 K"
b0 o#
b0 }#
b100 8"
b100 i#
b0 l
b0 L"
b0 #$
0x
0w
b100 [#
b100000010000100001000001111011 C
b100000010000100001000001111011 H#
b100000010000100001000001111011 U#
1X#
b100 Q
b100 &"
b100 6"
b100 9#
b100 u#
b0 "$
b0 h
b0 "#
b0 p#
b10 `
b10 ("
b10 J"
b10 {"
b10 a
b10 )"
b10 |"
b10 s#
b10 b
b10 *"
b10 }"
b10 r#
0n
b100 d
b100 ~"
b11 Q#
b100 D
b100 <"
b100 j#
b1000 C"
b1 5
b1 #"
b1 >#
b1 E#
b1 c#
b0 R
b0 1"
b0 E"
b0 S"
b100 P
b100 0"
b100 F"
b100 U"
b10000010000100001000000000000 g
b10000010000100001000000000000 !#
b10000010000100001000000000000 J#
b10000010000100001000000000000 O#
b10 !$
b10 c
b10 I#
b10 P#
b10 q#
b100 ,
b11 >
b11 ;"
b11 G#
b11 S#
b11 m#
b10000010000100001000000000000 '
b111 )
1&
#100000
0&
#105000
b0 m
b0 M"
b0 ##
b1111011 l
b1111011 L"
b1111011 #$
b1 ]
b1 ]"
b1 m"
b11 U
b11 '"
b11 t#
b0 8"
b0 i#
b1 i"
1@
1=
b100 [#
b1 B
b1 V#
b1 \#
b100000000000000000000000000000 C
b100000000000000000000000000000 H#
b100000000000000000000000000000 U#
0X#
b1111011 "$
b1111011 h
b1111011 "#
b1111011 p#
1n
b1000 d
b1000 ~"
1x
1w
b0 Q
b0 &"
b0 6"
b0 9#
b0 u#
b100 g"
b100 7
b100 p"
b100 b#
b100 w#
b0 Q#
b1 R#
b100 D
b100 <"
b100 j#
b1000 C"
b100000010000100001000001111011 g
b100000010000100001000001111011 !#
b100000010000100001000001111011 J#
b100000010000100001000001111011 O#
b11 !$
b11 c
b11 I#
b11 P#
b11 q#
b10 J
b10 %"
b10 H"
b10 Y"
b10 ;#
b100 R
b100 1"
b100 E"
b100 S"
b0 P
b0 0"
b0 F"
b0 U"
b100 :
b100 k"
b100 ?#
b100 B#
b1 .
b1 !"
b1 d#
b1 h#
b1 z#
b101 ,
b100 >
b100 ;"
b100 G#
b100 S#
b100 m#
b100000010000100001000001111011 '
b1000 )
1&
#110000
0&
#115000
b0 ]
b0 ]"
b0 m"
b0 p
b0 O"
b0 $$
b0 U
b0 '"
b0 t#
b0 i"
b0 o
b0 N"
b0 n#
b0 ~#
b0 k
b0 K"
b0 o#
b0 }#
b11011 8"
b11011 i#
b0 l
b0 L"
b0 #$
0x
0w
b0 g"
b0 7
b0 p"
b0 b#
b0 w#
b1111011 Q
b1111011 &"
b1111011 6"
b1111011 9#
b1111011 u#
b0 "$
b0 h
b0 "#
b0 p#
b0 `
b0 ("
b0 J"
b0 {"
b0 a
b0 )"
b0 |"
b0 s#
b0 b
b0 *"
b0 }"
b0 r#
b100 /
b100 e#
b100 g#
b100 y#
b10 5
b10 #"
b10 >#
b10 E#
b10 c#
b0 :
b0 k"
b0 ?#
b0 B#
b0 R
b0 1"
b0 E"
b0 S"
b1111011 P
b1111011 0"
b1111011 F"
b1111011 U"
b100000000000000000000000000000 g
b100000000000000000000000000000 !#
b100000000000000000000000000000 J#
b100000000000000000000000000000 O#
b100 !$
b100 c
b100 I#
b100 P#
b100 q#
b10 `#
b1 a#
b1 Z#
b100000000000000000000000000000 '
b1001 )
1&
#120000
0&
#125000
b1110 ]
b1110 ]"
b1110 m"
b11 U
b11 '"
b11 t#
b0 8"
b0 i#
b1110 i"
b11 h"
1x
1w
b0 Q
b0 &"
b0 6"
b0 9#
b0 u#
b111011 g"
b1111011 7
b1111011 p"
b1111011 b#
b1111011 w#
b1 `#
b0 J
b0 %"
b0 H"
b0 Y"
b0 ;#
b0 P
b0 0"
b0 F"
b0 U"
b1111011 :
b1111011 k"
b1111011 ?#
b1111011 B#
b10 .
b10 !"
b10 d#
b10 h#
b10 z#
b0 /
b0 e#
b0 g#
b0 y#
b1010 )
1&
#130000
0&
#135000
b0 ]
b0 ]"
b0 m"
b0 i"
b0 h"
1z
b11 <
b11 $"
b11 v#
1y
b0 g"
b0 7
b0 p"
b0 b#
b0 w#
0@
1=
b1111011 /
b1111011 e#
b1111011 g#
b1111011 y#
b0 5
b0 #"
b0 >#
b0 E#
b0 c#
b0 :
b0 k"
b0 ?#
b0 B#
1?
b101100000000000110000000000100001011000000000001011000000001000010110000000000010100000000010000110000000000100000000000000100 A
b101100000000000110000000000100001011000000000001011000000001000010110000000000010100000000010000110000000000100000000000000100 T#
b101100000000000110000000000100001011000000000001011000000001000010110000000000010100000000010000110000000000100000000000000100 _#
b0 `#
b1011 )
1&
#140000
0&
#145000
b101 D
b101 <"
b101 j#
b110000000000100000000000000100 C
b110000000000100000000000000100 H#
b110000000000100000000000000100 U#
b1 Y#
1X#
b100 [#
0=
1}
b11 0
b11 ""
b11 x#
1|
b10 W#
0?
b0 .
b0 !"
b0 d#
b0 h#
b0 z#
b0 /
b0 e#
b0 g#
b0 y#
b1100 )
1&
#150000
0&
