rtl/cpu_run_tb.vcd
$date
	Tue Nov  4 15:09:36 2025
$end
$version
	Icarus Verilog
$end
$timescale
	1ps
$end
$scope module cpu_run_tb $end
$var parameter 32 ! ADDR_SIZE $end
$var parameter 32 " END_PC $end
$var parameter 32 # PC_BITS $end
$var parameter 32 $ REG_NUM $end
$var parameter 32 % XLEN $end
$var reg 1 & clk $end
$var reg 32 ' curr_inst [31:0] $end
$var reg 1 ( rst $end
$var integer 32 ) cycles [31:0] $end
$var integer 32 * i [31:0] $end
$scope module dut $end
$var wire 1 & clk $end
$var wire 1 ( rst $end
$var wire 1 + stall_D $end
$var wire 5 , pc_plus_1 [4:0] $end
$var wire 1 - WB_we $end
$var wire 5 . WB_rd [4:0] $end
$var wire 32 / WB_data_mem [31:0] $end
$var wire 2 0 WB_D_bp [1:0] $end
$var wire 1 1 MEM_we $end
$var wire 1 2 MEM_taken $end
$var wire 1 3 MEM_str $end
$var wire 5 4 MEM_rd [4:0] $end
$var wire 1 5 MEM_ld $end
$var wire 32 6 MEM_data_mem [31:0] $end
$var wire 32 7 MEM_b2 [31:0] $end
$var wire 32 8 MEM_alu_out [31:0] $end
$var wire 32 9 MEM_a2 [31:0] $end
$var wire 2 : MEM_D_bp [1:0] $end
$var wire 5 ; F_pc [4:0] $end
$var wire 32 < F_inst [31:0] $end
$var wire 1 = EX_we $end
$var wire 1 > EX_taken $end
$var wire 1 ? EX_str $end
$var wire 5 @ EX_rd [4:0] $end
$var wire 1 A EX_ld $end
$var wire 1 B EX_brn $end
$var wire 32 C EX_b2 [31:0] $end
$var wire 32 D EX_b [31:0] $end
$var wire 32 E EX_alu_out [31:0] $end
$var wire 4 F EX_alu_op [3:0] $end
$var wire 32 G EX_a2 [31:0] $end
$var wire 32 H EX_a [31:0] $end
$var wire 2 I EX_D_bp [1:0] $end
$var wire 1 J D_we $end
$var wire 1 K D_str $end
$var wire 5 L D_rd [4:0] $end
$var wire 5 M D_rb [4:0] $end
$var wire 5 N D_ra [4:0] $end
$var wire 5 O D_pc [4:0] $end
$var wire 6 P D_opc [5:0] $end
$var wire 1 Q D_ld $end
$var wire 32 R D_inst [31:0] $end
$var wire 11 S D_imd [10:0] $end
$var wire 1 T D_brn $end
$var wire 32 U D_b2 [31:0] $end
$var wire 32 V D_b [31:0] $end
$var wire 4 W D_alu_op [3:0] $end
$var wire 1 X D_addi $end
$var wire 32 Y D_a2 [31:0] $end
$var wire 32 Z D_a [31:0] $end
$var parameter 32 [ ADDR_SIZE $end
$var parameter 32 \ PC_BITS $end
$var parameter 32 ] REG_NUM $end
$var parameter 5 ^ RESET_PC $end
$var parameter 32 _ XLEN $end
$scope module u_Hazard_unit $end
$var wire 1 ` ex_hit_ra $end
$var wire 1 a ex_hit_rb $end
$var wire 1 b mem_hit_ra $end
$var wire 1 c mem_hit_rb $end
$var wire 1 + stall_D $end
$var wire 1 d wb_hit_ra $end
$var wire 1 e wb_hit_rb $end
$var wire 1 - WB_we $end
$var wire 5 f WB_rd [4:0] $end
$var wire 2 g WB_D_bp [1:0] $end
$var wire 1 1 MEM_we $end
$var wire 5 h MEM_rd [4:0] $end
$var wire 2 i MEM_D_bp [1:0] $end
$var wire 1 = EX_we $end
$var wire 5 j EX_rd [4:0] $end
$var wire 1 A EX_ld $end
$var wire 32 k EX_alu_out [31:0] $end
$var wire 2 l EX_D_bp [1:0] $end
$var wire 5 m D_rd [4:0] $end
$var wire 5 n D_rb [4:0] $end
$var wire 5 o D_ra [4:0] $end
$var parameter 32 p ADDR_SIZE $end
$var parameter 32 q XLEN $end
$upscope $end
$scope module u_alu $end
$var wire 1 B EX_brn $end
$var wire 32 r EX_b2 [31:0] $end
$var wire 32 s EX_b [31:0] $end
$var wire 4 t EX_alu_op [3:0] $end
$var wire 32 u EX_a2 [31:0] $end
$var wire 32 v EX_a [31:0] $end
$var parameter 32 w SHW $end
$var parameter 32 x XLEN $end
$var reg 32 y EX_alu_out [31:0] $end
$var reg 1 > EX_taken $end
$upscope $end
$scope module u_d_to_ex_reg $end
$var wire 32 z EX_a [31:0] $end
$var wire 32 { EX_a2 [31:0] $end
$var wire 4 | EX_alu_op [3:0] $end
$var wire 32 } EX_b [31:0] $end
$var wire 32 ~ EX_b2 [31:0] $end
$var wire 1 B EX_brn $end
$var wire 1 ? EX_str $end
$var wire 1 > EX_taken $end
$var wire 1 & clk $end
$var wire 1 ( rst $end
$var wire 1 + stall_D $end
$var wire 1 = EX_we $end
$var wire 5 !" EX_rd [4:0] $end
$var wire 1 A EX_ld $end
$var wire 1 J D_we $end
$var wire 1 K D_str $end
$var wire 5 "" D_rd [4:0] $end
$var wire 1 Q D_ld $end
$var wire 1 T D_brn $end
$var wire 32 #" D_b2 [31:0] $end
$var wire 32 $" D_b [31:0] $end
$var wire 4 %" D_alu_op [3:0] $end
$var wire 32 &" D_a2 [31:0] $end
$var wire 32 '" D_a [31:0] $end
$var parameter 32 (" XLEN $end
$var reg 32 )" ex_a2_r [31:0] $end
$var reg 32 *" ex_a_r [31:0] $end
$var reg 4 +" ex_alu_op_r [3:0] $end
$var reg 32 ," ex_b2_r [31:0] $end
$var reg 32 -" ex_b_r [31:0] $end
$var reg 1 ." ex_brn_r $end
$var reg 1 A ex_ld_r $end
$var reg 5 /" ex_rd_r [4:0] $end
$var reg 1 0" ex_str_r $end
$var reg 1 = ex_we_r $end
$upscope $end
$scope module u_decode $end
$var wire 1 T D_brn $end
$var wire 1 J D_we $end
$var wire 1 & clk $end
$var wire 1 1" is_beq $end
$var wire 1 2" is_bgt $end
$var wire 1 3" is_blt $end
$var wire 1 4" is_jmp $end
$var wire 1 5" is_ctrl $end
$var wire 1 K D_str $end
$var wire 5 6" D_rd [4:0] $end
$var wire 5 7" D_rb [4:0] $end
$var wire 5 8" D_ra [4:0] $end
$var wire 6 9" D_opc [5:0] $end
$var wire 1 Q D_ld $end
$var wire 32 :" D_inst [31:0] $end
$var wire 11 ;" D_imd [10:0] $end
$var wire 4 <" D_alu_op [3:0] $end
$var wire 1 X D_addi $end
$var parameter 6 =" OPC_ADD $end
$var parameter 6 >" OPC_ADDI $end
$var parameter 6 ?" OPC_AND $end
$var parameter 6 @" OPC_CTRL $end
$var parameter 6 A" OPC_GT $end
$var parameter 6 B" OPC_LOAD $end
$var parameter 6 C" OPC_LT $end
$var parameter 6 D" OPC_NOT $end
$var parameter 6 E" OPC_OR $end
$var parameter 6 F" OPC_SHL $end
$var parameter 6 G" OPC_SHR $end
$var parameter 6 H" OPC_STORE $end
$var parameter 6 I" OPC_SUB $end
$var parameter 6 J" OPC_XOR $end
$var parameter 5 K" RD_BEQ $end
$var parameter 5 L" RD_BGT $end
$var parameter 5 M" RD_BLT $end
$var parameter 5 N" RD_JMP $end
$var parameter 32 O" XLEN $end
$upscope $end
$scope module u_ex_to_mem_reg $end
$var wire 32 P" EX_a2 [31:0] $end
$var wire 32 Q" EX_alu_out [31:0] $end
$var wire 32 R" EX_b2 [31:0] $end
$var wire 1 A EX_ld $end
$var wire 5 S" EX_rd [4:0] $end
$var wire 1 ? EX_str $end
$var wire 1 > EX_taken $end
$var wire 1 = EX_we $end
$var wire 32 T" MEM_a2 [31:0] $end
$var wire 32 U" MEM_b2 [31:0] $end
$var wire 1 3 MEM_str $end
$var wire 1 2 MEM_taken $end
$var wire 1 & clk $end
$var wire 1 ( rst $end
$var wire 1 1 MEM_we $end
$var wire 5 V" MEM_rd [4:0] $end
$var wire 1 5 MEM_ld $end
$var wire 32 W" MEM_alu_out [31:0] $end
$var parameter 32 X" XLEN $end
$var reg 32 Y" mem_a2_r [31:0] $end
$var reg 32 Z" mem_alu_out_r [31:0] $end
$var reg 32 [" mem_b2_r [31:0] $end
$var reg 1 5 mem_ld_r $end
$var reg 5 \" mem_rd_r [4:0] $end
$var reg 1 ]" mem_str_r $end
$var reg 1 ^" mem_taken_r $end
$var reg 1 1 mem_we_r $end
$upscope $end
$scope module u_f2d $end
$var wire 1 > EX_taken $end
$var wire 1 & clk $end
$var wire 1 ( rst $end
$var wire 1 + stall_D $end
$var wire 5 _" F_pc [4:0] $end
$var wire 32 `" F_inst [31:0] $end
$var wire 5 a" D_pc [4:0] $end
$var wire 32 b" D_inst [31:0] $end
$var parameter 32 c" NOP $end
$var parameter 32 d" PC_BITS $end
$var parameter 32 e" XLEN $end
$var reg 32 f" d_inst [31:0] $end
$var reg 5 g" d_pc [4:0] $end
$upscope $end
$scope module u_instruct_reg $end
$var wire 32 h" F_inst [31:0] $end
$var wire 1 & clk $end
$var wire 5 i" F_pc [4:0] $end
$var parameter 32 j" ADDR_SIZE $end
$var parameter 32 k" REG_NUM $end
$var parameter 32 l" XLEN $end
$upscope $end
$scope module u_mem_to_wb_reg $end
$var wire 5 m" MEM_rd [4:0] $end
$var wire 1 1 MEM_we $end
$var wire 1 & clk $end
$var wire 1 ( rst $end
$var wire 1 - WB_we $end
$var wire 5 n" WB_rd [4:0] $end
$var wire 32 o" WB_data_mem [31:0] $end
$var wire 32 p" MEM_data_mem [31:0] $end
$var parameter 32 q" XLEN $end
$var reg 32 r" wb_data_mem_r [31:0] $end
$var reg 5 s" wb_rd_r [4:0] $end
$var reg 1 - wb_we_r $end
$upscope $end
$scope module u_memory $end
$var wire 32 t" MEM_alu_out [31:0] $end
$var wire 32 u" MEM_b2 [31:0] $end
$var wire 1 5 MEM_ld $end
$var wire 1 3 MEM_str $end
$var wire 1 & clk $end
$var wire 5 v" addr [4:0] $end
$var wire 32 w" MEM_data_mem [31:0] $end
$var parameter 32 x" ADDR_SIZE $end
$var parameter 32 y" REG_NUM $end
$var parameter 32 z" XLEN $end
$var integer 32 {" i [31:0] $end
$upscope $end
$scope module u_pc $end
$var wire 5 |" EX_alt_pc [4:0] $end
$var wire 1 > EX_taken $end
$var wire 1 & clk $end
$var wire 5 }" pc [4:0] $end
$var wire 1 ( rst $end
$var wire 1 + stall_D $end
$var parameter 5 ~" RESET_PC $end
$var parameter 32 !# XLEN $end
$var reg 5 "# F_pc [4:0] $end
$upscope $end
$scope module u_regfile $end
$var wire 32 ## D_a2 [31:0] $end
$var wire 1 X D_addi $end
$var wire 32 $# D_b2 [31:0] $end
$var wire 1 T D_brn $end
$var wire 11 %# D_imd [10:0] $end
$var wire 1 Q D_ld $end
$var wire 5 &# D_pc [4:0] $end
$var wire 5 '# D_ra [4:0] $end
$var wire 5 (# D_rb [4:0] $end
$var wire 1 K D_str $end
$var wire 2 )# EX_D_bp [1:0] $end
$var wire 32 *# EX_alu_out [31:0] $end
$var wire 2 +# MEM_D_bp [1:0] $end
$var wire 32 ,# MEM_data_mem [31:0] $end
$var wire 2 -# WB_D_bp [1:0] $end
$var wire 32 .# WB_data_mem [31:0] $end
$var wire 5 /# WB_rd [4:0] $end
$var wire 1 - WB_we $end
$var wire 1 & clk $end
$var wire 32 0# ra_raw [31:0] $end
$var wire 32 1# rb_raw [31:0] $end
$var wire 32 2# rb_fwd [31:0] $end
$var wire 32 3# ra_fwd [31:0] $end
$var wire 32 4# pc_extended [31:0] $end
$var wire 32 5# offset [31:0] $end
$var wire 32 6# D_b [31:0] $end
$var wire 32 7# D_a [31:0] $end
$var parameter 32 8# ADDR_SIZE $end
$var parameter 32 9# REG_NUM $end
$var parameter 32 :# XLEN $end
$var integer 32 ;# i [31:0] $end
$upscope $end
$upscope $end
$scope begin run_loop $end
$upscope $end
$upscope $end
$enddefinitions $end
$comment Show the parameter values. $end
$dumpall
b100000 :#
b100000 9#
b101 8#
b101 !#
b0 ~"
b100000 z"
b100000 y"
b101 x"
b100000 q"
b100000 l"
b100000 k"
b101 j"
b100000 e"
b101 d"
b100000000000000000000000000000 c"
b100000 X"
b100000 O"
b0 N"
b10 M"
b11 L"
b1 K"
b100 J"
b1 I"
b1100 H"
b111 G"
b110 F"
b11 E"
b101 D"
b1001 C"
b1011 B"
b1010 A"
b1101 @"
b10 ?"
b1000 >"
b0 ="
b100000 ("
b100000 x
b101 w
b100000 q
b101 p
b100000 _
b0 ^
b100000 ]
b101 \
b101 [
b100000 %
b100000 $
b101 #
b10110 "
b101 !
$end
#0
$dumpvars
b100000 ;#
bx 7#
bx 6#
b0xxxxxxxxxxx 5#
b0xxxxx 4#
bx 3#
bx 2#
bx 1#
bx 0#
bx /#
bx .#
bx -#
bx ,#
bx +#
bx *#
bx )#
bx (#
bx '#
bx &#
bx %#
bx $#
bx ##
b0 "#
b1 }"
bx |"
b100000 {"
bx w"
bx v"
bx u"
bx t"
bx s"
bx r"
bx p"
bx o"
bx n"
bx m"
b0 i"
b100000001000010000100000000001 h"
bx g"
bx f"
bx b"
bx a"
b100000001000010000100000000001 `"
b0 _"
x^"
x]"
bx \"
bx ["
bx Z"
bx Y"
bx W"
bx V"
bx U"
bx T"
bx S"
bx R"
bx Q"
bx P"
bx <"
bx ;"
bx :"
bx 9"
bx 8"
bx 7"
bx 6"
x5"
x4"
x3"
x2"
x1"
x0"
bx /"
x."
bx -"
bx ,"
bx +"
bx *"
bx )"
bx '"
bx &"
bx %"
bx $"
bx #"
bx ""
bx !"
bx ~
bx }
bx |
bx {
bx z
bx y
bx v
bx u
bx t
bx s
bx r
bx o
bx n
bx m
bx l
bx k
bx j
bx i
bx h
bx g
bx f
xe
xd
xc
xb
xa
x`
bx Z
bx Y
xX
bx W
bx V
bx U
xT
bx S
bx R
xQ
bx P
bx O
bx N
bx M
bx L
xK
xJ
bx I
bx H
bx G
bx F
bx E
bx D
bx C
xB
xA
bx @
x?
x>
x=
b100000001000010000100000000001 <
b0 ;
bx :
bx 9
bx 8
bx 7
bx 6
x5
bx 4
x3
x2
x1
bx 0
bx /
bx .
x-
b1 ,
x+
bx *
bx )
1(
bx '
0&
$end
#5000
b0 Z
b0 '"
b0 7#
b0 U
b0 #"
b0 $#
b0 2#
b0 Y
b0 &"
b0 ##
b0 3#
b0 V
b0 $"
b0 6#
02"
03"
01"
04"
1J
b0 W
b0 %"
b0 <"
b0 I
b0 l
b0 )#
b0 |"
b0 5#
b0 S
b0 ;"
b0 %#
b0 L
b0 m
b0 ""
b0 6"
b0 1#
b0 M
b0 n
b0 7"
b0 (#
b0 0#
b0 N
b0 o
b0 8"
b0 '#
0T
05"
0Q
0K
1X
b1000 P
b1000 9"
0a
0`
0+
b0 E
b0 k
b0 y
b0 Q"
b0 *#
0>
0c
b0 :
b0 i
b0 +#
0b
b0 v"
b0 6
b0 p"
b0 w"
b0 ,#
0e
b0 0
b0 g
b0 -#
0d
b100000000000000000000000000000 R
b100000000000000000000000000000 :"
b100000000000000000000000000000 b"
b100000000000000000000000000000 f"
b0 4#
b0 O
b0 a"
b0 g"
b0 &#
0=
0?
00"
0A
b0 @
b0 j
b0 !"
b0 /"
b0 S"
0B
0."
b0 F
b0 t
b0 |
b0 +"
b0 C
b0 r
b0 ~
b0 R"
b0 ,"
b0 D
b0 s
b0 }
b0 -"
b0 G
b0 u
b0 {
b0 P"
b0 )"
b0 H
b0 v
b0 z
b0 *"
03
0]"
05
01
b0 4
b0 h
b0 V"
b0 \"
b0 m"
b0 9
b0 T"
b0 Y"
b0 7
b0 U"
b0 u"
b0 ["
02
0^"
b0 8
b0 W"
b0 Z"
b0 t"
0-
b0 .
b0 f
b0 n"
b0 s"
b0 /#
b0 /
b0 o"
b0 r"
b0 .#
1&
#10000
0&
#15000
1&
#20000
0&
#25000
0(
b0 )
1&
#30000
0&
#35000
b1 V
b1 $"
b1 6#
b1 5#
b1 S
b1 ;"
b1 %#
b1 L
b1 m
b1 ""
b1 6"
b1 M
b1 n
b1 7"
b1 (#
b1 N
b1 o
b1 8"
b1 '#
1=
b100000001000010000100000000001 R
b100000001000010000100000000001 :"
b100000001000010000100000000001 b"
b100000001000010000100000000001 f"
b100000010000100001000000000010 <
b100000010000100001000000000010 `"
b100000010000100001000000000010 h"
b10 ,
b10 }"
b1 ;
b1 _"
b1 i"
b1 "#
b100000001000010000100000000001 '
b1 )
1&
#40000
0&
#45000
b0 Z
b0 '"
b0 7#
b0 U
b0 #"
b0 $#
b0 2#
b0 Y
b0 &"
b0 ##
b0 3#
b10 V
b10 $"
b10 6#
b0 I
b0 l
b0 )#
b1 |"
b10 5#
b10 S
b10 ;"
b10 %#
b10 L
b10 m
b10 ""
b10 6"
b10 M
b10 n
b10 7"
b10 (#
b10 N
b10 o
b10 8"
b10 '#
0a
0`
b1 E
b1 k
b1 y
b1 Q"
b1 *#
b100000010000100001000000000010 R
b100000010000100001000000000010 :"
b100000010000100001000000000010 b"
b100000010000100001000000000010 f"
b1 4#
b1 O
b1 a"
b1 g"
b1 &#
b1 @
b1 j
b1 !"
b1 /"
b1 S"
b1 D
b1 s
b1 }
b1 -"
11
b100000011000110001100000000011 <
b100000011000110001100000000011 `"
b100000011000110001100000000011 h"
b11 ,
b11 }"
b10 ;
b10 _"
b10 i"
b10 "#
b100000010000100001000000000010 '
b10 )
1&
#50000
0&
#55000
b10 |"
b11 V
b11 $"
b11 6#
b1 v"
b1 6
b1 p"
b1 w"
b1 ,#
b10 E
b10 k
b10 y
b10 Q"
b10 *#
b11 5#
b11 S
b11 ;"
b11 %#
b11 L
b11 m
b11 ""
b11 6"
b11 M
b11 n
b11 7"
b11 (#
b11 N
b11 o
b11 8"
b11 '#
1-
b1 4
b1 h
b1 V"
b1 \"
b1 m"
b1 8
b1 W"
b1 Z"
b1 t"
b10 @
b10 j
b10 !"
b10 /"
b10 S"
b10 D
b10 s
b10 }
b10 -"
b100000011000110001100000000011 R
b100000011000110001100000000011 :"
b100000011000110001100000000011 b"
b100000011000110001100000000011 f"
b10 4#
b10 O
b10 a"
b10 g"
b10 &#
b100000000000000000000000000000 <
b100000000000000000000000000000 `"
b100000000000000000000000000000 h"
b100 ,
b100 }"
b11 ;
b11 _"
b11 i"
b11 "#
b100000011000110001100000000011 '
b11 )
1&
#60000
0&
#65000
b0 Z
b0 '"
b0 7#
b0 U
b0 #"
b0 $#
b0 2#
b0 Y
b0 &"
b0 ##
b0 3#
b0 V
b0 $"
b0 6#
b0 I
b0 l
b0 )#
b11 |"
b0 5#
b0 S
b0 ;"
b0 %#
b0 L
b0 m
b0 ""
b0 6"
b0 M
b0 n
b0 7"
b0 (#
b0 N
b0 o
b0 8"
b0 '#
0a
0`
b11 E
b11 k
b11 y
b11 Q"
b11 *#
b10 v"
b10 6
b10 p"
b10 w"
b10 ,#
b100000000000000000000000000000 R
b100000000000000000000000000000 :"
b100000000000000000000000000000 b"
b100000000000000000000000000000 f"
b11 4#
b11 O
b11 a"
b11 g"
b11 &#
b11 @
b11 j
b11 !"
b11 /"
b11 S"
b11 D
b11 s
b11 }
b11 -"
b10 4
b10 h
b10 V"
b10 \"
b10 m"
b10 8
b10 W"
b10 Z"
b10 t"
b1 .
b1 f
b1 n"
b1 s"
b1 /#
b1 /
b1 o"
b1 r"
b1 .#
b110100001000010000100000000100 <
b110100001000010000100000000100 `"
b110100001000010000100000000100 h"
b101 ,
b101 }"
b100 ;
b100 _"
b100 i"
b100 "#
b100000000000000000000000000000 '
b100 )
1&
#70000
0&
#75000
b1 U
b1 #"
b1 $#
b1 2#
b1 Y
b1 &"
b1 ##
b1 3#
b0 |"
b100 V
b100 $"
b100 6#
b100 Z
b100 '"
b100 7#
11"
0J
b11 v"
b11 6
b11 p"
b11 w"
b11 ,#
b0 E
b0 k
b0 y
b0 Q"
b0 *#
b100 5#
b100 S
b100 ;"
b100 %#
b1 L
b1 m
b1 ""
b1 6"
b1 1#
b1 M
b1 n
b1 7"
b1 (#
b1 0#
b1 N
b1 o
b1 8"
b1 '#
1T
15"
0X
b1101 P
b1101 9"
b10 .
b10 f
b10 n"
b10 s"
b10 /#
b10 /
b10 o"
b10 r"
b10 .#
b11 4
b11 h
b11 V"
b11 \"
b11 m"
b11 8
b11 W"
b11 Z"
b11 t"
b0 @
b0 j
b0 !"
b0 /"
b0 S"
b0 D
b0 s
b0 }
b0 -"
b110100001000010000100000000100 R
b110100001000010000100000000100 :"
b110100001000010000100000000100 b"
b110100001000010000100000000100 f"
b100 4#
b100 O
b100 a"
b100 g"
b100 &#
b100001010010100101000001100011 <
b100001010010100101000001100011 `"
b100001010010100101000001100011 h"
b110 ,
b110 }"
b101 ;
b101 _"
b101 i"
b101 "#
b110100001000010000100000000100 '
b101 )
1&
#80000
0&
#85000
b0 U
b0 #"
b0 $#
b0 2#
b0 Y
b0 &"
b0 ##
b0 3#
b1100011 V
b1100011 $"
b1100011 6#
01"
1J
b1000 |"
b1100011 5#
b1100011 S
b1100011 ;"
b1100011 %#
b1010 L
b1010 m
b1010 ""
b1010 6"
b0 1#
b1010 M
b1010 n
b1010 7"
b1010 (#
b0 0#
b1010 N
b1010 o
b1010 8"
b1010 '#
0T
05"
1X
b1000 P
b1000 9"
b0 Z
b0 '"
b0 7#
1>
b1000 E
b1000 k
b1000 y
b1000 Q"
b1000 *#
b0 v"
b0 6
b0 p"
b0 w"
b0 ,#
b100001010010100101000001100011 R
b100001010010100101000001100011 :"
b100001010010100101000001100011 b"
b100001010010100101000001100011 f"
b101 4#
b101 O
b101 a"
b101 g"
b101 &#
0=
b1 @
b1 j
b1 !"
b1 /"
b1 S"
1B
1."
b1 C
b1 r
b1 ~
b1 R"
b1 ,"
b100 D
b100 s
b100 }
b100 -"
b1 G
b1 u
b1 {
b1 P"
b1 )"
b100 H
b100 v
b100 z
b100 *"
b0 4
b0 h
b0 V"
b0 \"
b0 m"
b0 8
b0 W"
b0 Z"
b0 t"
b11 .
b11 f
b11 n"
b11 s"
b11 /#
b11 /
b11 o"
b11 r"
b11 .#
b100000000000000000000000000000 <
b100000000000000000000000000000 `"
b100000000000000000000000000000 h"
b111 ,
b111 }"
b110 ;
b110 _"
b110 i"
b110 "#
b100001010010100101000001100011 '
b110 )
1&
#90000
0&
#95000
b0 |"
b0 V
b0 $"
b0 6#
1e
b11 0
b11 g
b11 -#
1d
b1000 v"
b1000 6
b1000 p"
b1000 w"
b1000 ,#
b0 E
b0 k
b0 y
b0 Q"
b0 *#
0>
b0 5#
b0 S
b0 ;"
b0 %#
b0 L
b0 m
b0 ""
b0 6"
b0 M
b0 n
b0 7"
b0 (#
b0 N
b0 o
b0 8"
b0 '#
b0 .
b0 f
b0 n"
b0 s"
b0 /#
b0 /
b0 o"
b0 r"
b0 .#
01
b1 4
b1 h
b1 V"
b1 \"
b1 m"
b1 9
b1 T"
b1 Y"
b1 7
b1 U"
b1 u"
b1 ["
12
1^"
b1000 8
b1000 W"
b1000 Z"
b1000 t"
b0 @
b0 j
b0 !"
b0 /"
b0 S"
0B
0."
b0 C
b0 r
b0 ~
b0 R"
b0 ,"
b0 D
b0 s
b0 }
b0 -"
b0 G
b0 u
b0 {
b0 P"
b0 )"
b0 H
b0 v
b0 z
b0 *"
b100000000000000000000000000000 R
b100000000000000000000000000000 :"
b100000000000000000000000000000 b"
b100000000000000000000000000000 f"
b0 4#
b0 O
b0 a"
b0 g"
b0 &#
b100001011010110101100001001101 <
b100001011010110101100001001101 `"
b100001011010110101100001001101 h"
b1001 ,
b1001 }"
b1000 ;
b1000 _"
b1000 i"
b1000 "#
b100000000000000000000000000000 '
b111 )
1&
#100000
0&
#105000
b0 Z
b0 '"
b0 7#
b0 Y
b0 &"
b0 ##
b0 3#
b0 U
b0 #"
b0 $#
b0 2#
b1001101 V
b1001101 $"
b1001101 6#
b0 I
b0 l
b0 )#
b1001101 5#
b1001101 S
b1001101 ;"
b1001101 %#
b1011 L
b1011 m
b1011 ""
b1011 6"
b1011 M
b1011 n
b1011 7"
b1011 (#
b1011 N
b1011 o
b1011 8"
b1011 '#
0a
0`
b0 v"
b0 6
b0 p"
b0 w"
b0 ,#
0e
b0 0
b0 g
b0 -#
0d
b100001011010110101100001001101 R
b100001011010110101100001001101 :"
b100001011010110101100001001101 b"
b100001011010110101100001001101 f"
b1000 4#
b1000 O
b1000 a"
b1000 g"
b1000 &#
1=
b0 4
b0 h
b0 V"
b0 \"
b0 m"
b0 9
b0 T"
b0 Y"
b0 7
b0 U"
b0 u"
b0 ["
02
0^"
b0 8
b0 W"
b0 Z"
b0 t"
0-
b1 .
b1 f
b1 n"
b1 s"
b1 /#
b1000 /
b1000 o"
b1000 r"
b1000 .#
b100000000000000000000000000000 <
b100000000000000000000000000000 `"
b100000000000000000000000000000 h"
b1010 ,
b1010 }"
b1001 ;
b1001 _"
b1001 i"
b1001 "#
b100001011010110101100001001101 '
b1000 )
1&
#110000
0&
#115000
b1101 |"
b0 V
b0 $"
b0 6#
1c
b11 :
b11 i
b11 +#
1b
b1001101 E
b1001101 k
b1001101 y
b1001101 Q"
b1001101 *#
b0 5#
b0 S
b0 ;"
b0 %#
b0 L
b0 m
b0 ""
b0 6"
b0 M
b0 n
b0 7"
b0 (#
b0 N
b0 o
b0 8"
b0 '#
b0 .
b0 f
b0 n"
b0 s"
b0 /#
b0 /
b0 o"
b0 r"
b0 .#
11
b1011 @
b1011 j
b1011 !"
b1011 /"
b1011 S"
b1001101 D
b1001101 s
b1001101 }
b1001101 -"
b100000000000000000000000000000 R
b100000000000000000000000000000 :"
b100000000000000000000000000000 b"
b100000000000000000000000000000 f"
b1001 4#
b1001 O
b1001 a"
b1001 g"
b1001 &#
b110100001000100001000000000010 <
b110100001000100001000000000010 `"
b110100001000100001000000000010 h"
b1011 ,
b1011 }"
b1010 ;
b1010 _"
b1010 i"
b1010 "#
b100000000000000000000000000000 '
b1001 )
1&
#120000
0&
#125000
b1001 W
b1001 %"
b1001 <"
b1 Y
b1 &"
b1 ##
b1 3#
b10 U
b10 #"
b10 $#
b10 2#
b10 V
b10 $"
b10 6#
b1010 Z
b1010 '"
b1010 7#
13"
0J
b0 I
b0 l
b0 )#
b0 |"
b10 5#
b10 S
b10 ;"
b10 %#
b10 L
b10 m
b10 ""
b10 6"
b10 1#
b10 M
b10 n
b10 7"
b10 (#
b1 0#
b1 N
b1 o
b1 8"
b1 '#
1T
15"
0X
b1101 P
b1101 9"
0a
0`
b0 E
b0 k
b0 y
b0 Q"
b0 *#
0c
b0 :
b0 i
b0 +#
0b
b1101 v"
b1001101 6
b1001101 p"
b1001101 w"
b1001101 ,#
0e
b0 0
b0 g
b0 -#
0d
b110100001000100001000000000010 R
b110100001000100001000000000010 :"
b110100001000100001000000000010 b"
b110100001000100001000000000010 f"
b1010 4#
b1010 O
b1010 a"
b1010 g"
b1010 &#
b0 @
b0 j
b0 !"
b0 /"
b0 S"
b0 D
b0 s
b0 }
b0 -"
b1011 4
b1011 h
b1011 V"
b1011 \"
b1011 m"
b1001101 8
b1001101 W"
b1001101 Z"
b1001101 t"
1-
b100001100011000110000000110111 <
b100001100011000110000000110111 `"
b100001100011000110000000110111 h"
b1100 ,
b1100 }"
b1011 ;
b1011 _"
b1011 i"
b1011 "#
b110100001000100001000000000010 '
b1010 )
1&
#130000
0&
#135000
b0 W
b0 %"
b0 <"
b0 U
b0 #"
b0 $#
b0 2#
b0 Y
b0 &"
b0 ##
b0 3#
b1100 |"
b110111 V
b110111 $"
b110111 6#
03"
1J
b0 v"
b0 6
b0 p"
b0 w"
b0 ,#
1>
b1100 E
b1100 k
b1100 y
b1100 Q"
b1100 *#
b110111 5#
b110111 S
b110111 ;"
b110111 %#
b1100 L
b1100 m
b1100 ""
b1100 6"
b0 1#
b1100 M
b1100 n
b1100 7"
b1100 (#
b0 0#
b1100 N
b1100 o
b1100 8"
b1100 '#
0T
05"
1X
b1000 P
b1000 9"
b0 Z
b0 '"
b0 7#
b1011 .
b1011 f
b1011 n"
b1011 s"
b1011 /#
b1001101 /
b1001101 o"
b1001101 r"
b1001101 .#
b0 4
b0 h
b0 V"
b0 \"
b0 m"
b0 8
b0 W"
b0 Z"
b0 t"
0=
b10 @
b10 j
b10 !"
b10 /"
b10 S"
1B
1."
b1001 F
b1001 t
b1001 |
b1001 +"
b10 C
b10 r
b10 ~
b10 R"
b10 ,"
b10 D
b10 s
b10 }
b10 -"
b1 G
b1 u
b1 {
b1 P"
b1 )"
b1010 H
b1010 v
b1010 z
b1010 *"
b100001100011000110000000110111 R
b100001100011000110000000110111 :"
b100001100011000110000000110111 b"
b100001100011000110000000110111 f"
b1011 4#
b1011 O
b1011 a"
b1011 g"
b1011 &#
b100000000000000000000000000000 <
b100000000000000000000000000000 `"
b100000000000000000000000000000 h"
b1101 ,
b1101 }"
b1100 ;
b1100 _"
b1100 i"
b1100 "#
b100001100011000110000000110111 '
b1011 )
1&
#140000
0&
#145000
b0 V
b0 $"
b0 6#
1e
b11 0
b11 g
b11 -#
1d
b0 |"
b0 5#
b0 S
b0 ;"
b0 %#
b0 L
b0 m
b0 ""
b0 6"
b0 M
b0 n
b0 7"
b0 (#
b0 N
b0 o
b0 8"
b0 '#
b0 E
b0 k
b0 y
b0 Q"
b0 *#
0>
b1100 v"
b1100 6
b1100 p"
b1100 w"
b1100 ,#
b100000000000000000000000000000 R
b100000000000000000000000000000 :"
b100000000000000000000000000000 b"
b100000000000000000000000000000 f"
b0 4#
b0 O
b0 a"
b0 g"
b0 &#
b0 @
b0 j
b0 !"
b0 /"
b0 S"
0B
0."
b0 F
b0 t
b0 |
b0 +"
b0 C
b0 r
b0 ~
b0 R"
b0 ,"
b0 D
b0 s
b0 }
b0 -"
b0 G
b0 u
b0 {
b0 P"
b0 )"
b0 H
b0 v
b0 z
b0 *"
01
b10 4
b10 h
b10 V"
b10 \"
b10 m"
b1 9
b1 T"
b1 Y"
b10 7
b10 U"
b10 u"
b10 ["
12
1^"
b1100 8
b1100 W"
b1100 Z"
b1100 t"
b0 .
b0 f
b0 n"
b0 s"
b0 /#
b0 /
b0 o"
b0 r"
b0 .#
b100000000000000000000000000000 '
b1100 )
1&
#150000
0&
