rtl/cpu_run_tb.vcd
$date
	Mon Nov 17 15:52:58 2025
$end
$version
	Icarus Verilog
$end
$timescale
	1ps
$end
$scope module cpu_run_tb $end
$var parameter 32 ! ADDR_SIZE $end
$var parameter 32 " END_PC $end
$var parameter 32 # PC_BITS $end
$var parameter 32 $ REG_NUM $end
$var parameter 32 % XLEN $end
$var reg 1 & clk $end
$var reg 32 ' curr_inst [31:0] $end
$var reg 1 ( rst $end
$var integer 32 ) cycles [31:0] $end
$var integer 32 * i [31:0] $end
$scope module dut $end
$var wire 1 & clk $end
$var wire 1 ( rst $end
$var wire 1 + stall_D $end
$var wire 12 , pc_plus_1 [11:0] $end
$var wire 1 - WB_we $end
$var wire 5 . WB_rd [4:0] $end
$var wire 32 / WB_data_mem [31:0] $end
$var wire 2 0 WB_D_bp [1:0] $end
$var wire 1 1 MEM_we $end
$var wire 1 2 MEM_taken $end
$var wire 1 3 MEM_str $end
$var wire 1 4 MEM_stall $end
$var wire 5 5 MEM_rd [4:0] $end
$var wire 1 6 MEM_mem_valid $end
$var wire 1 7 MEM_ld $end
$var wire 32 8 MEM_data_mem [31:0] $end
$var wire 128 9 MEM_data_line [127:0] $end
$var wire 1 : MEM_byt $end
$var wire 32 ; MEM_b2 [31:0] $end
$var wire 32 < MEM_alu_out [31:0] $end
$var wire 32 = MEM_a2 [31:0] $end
$var wire 2 > MEM_D_bp [1:0] $end
$var wire 1 ? Ic_mem_req $end
$var wire 10 @ Ic_mem_addr [9:0] $end
$var wire 1 A F_stall $end
$var wire 12 B F_pc [11:0] $end
$var wire 1 C F_mem_valid $end
$var wire 128 D F_mem_inst [127:0] $end
$var wire 32 E F_inst [31:0] $end
$var wire 12 F F_BP_target_pc [11:0] $end
$var wire 1 G F_BP_taken $end
$var wire 1 H EX_we $end
$var wire 1 I EX_true_taken $end
$var wire 1 J EX_taken $end
$var wire 1 K EX_str $end
$var wire 5 L EX_rd [4:0] $end
$var wire 1 M EX_mul $end
$var wire 1 N EX_ld $end
$var wire 1 O EX_byt $end
$var wire 1 P EX_brn $end
$var wire 32 Q EX_b2 [31:0] $end
$var wire 32 R EX_b [31:0] $end
$var wire 32 S EX_alu_out [31:0] $end
$var wire 4 T EX_alu_op [3:0] $end
$var wire 32 U EX_a2 [31:0] $end
$var wire 32 V EX_a [31:0] $end
$var wire 2 W EX_D_bp [1:0] $end
$var wire 1 X EX_BP_taken $end
$var wire 128 Y Dc_wb_wline [127:0] $end
$var wire 1 Z Dc_wb_we $end
$var wire 10 [ Dc_wb_addr [9:0] $end
$var wire 1 \ Dc_mem_req $end
$var wire 10 ] Dc_mem_addr [9:0] $end
$var wire 1 ^ D_we $end
$var wire 1 _ D_str $end
$var wire 5 ` D_rd [4:0] $end
$var wire 5 a D_rb [4:0] $end
$var wire 5 b D_ra [4:0] $end
$var wire 12 c D_pc [11:0] $end
$var wire 6 d D_opc [5:0] $end
$var wire 1 e D_mul $end
$var wire 1 f D_ld $end
$var wire 32 g D_inst [31:0] $end
$var wire 11 h D_imd [10:0] $end
$var wire 1 i D_byt $end
$var wire 1 j D_brn $end
$var wire 32 k D_b2 [31:0] $end
$var wire 32 l D_b [31:0] $end
$var wire 4 m D_alu_op [3:0] $end
$var wire 1 n D_addi $end
$var wire 32 o D_a2 [31:0] $end
$var wire 32 p D_a [31:0] $end
$var wire 1 q D_BP_taken $end
$var parameter 32 r ADDR_SIZE $end
$var parameter 32 s PC_BITS $end
$var parameter 32 t REG_NUM $end
$var parameter 12 u RESET_PC $end
$var parameter 32 v XLEN $end
$scope module u_Hazard_unit $end
$var wire 1 & clk $end
$var wire 1 w ex_hit_ra $end
$var wire 1 x ex_hit_rb $end
$var wire 1 y mem_hit_ra $end
$var wire 1 z mem_hit_rb $end
$var wire 1 { mul_start $end
$var wire 1 ( rst $end
$var wire 1 + stall_D $end
$var wire 1 | wb_hit_ra $end
$var wire 1 } wb_hit_rb $end
$var wire 1 ~ mul_stall $end
$var wire 1 - WB_we $end
$var wire 5 !" WB_rd [4:0] $end
$var wire 2 "" WB_D_bp [1:0] $end
$var wire 1 1 MEM_we $end
$var wire 5 #" MEM_rd [4:0] $end
$var wire 2 $" MEM_D_bp [1:0] $end
$var wire 1 H EX_we $end
$var wire 5 %" EX_rd [4:0] $end
$var wire 1 M EX_mul $end
$var wire 1 N EX_ld $end
$var wire 32 &" EX_alu_out [31:0] $end
$var wire 2 '" EX_D_bp [1:0] $end
$var wire 5 (" D_rd [4:0] $end
$var wire 5 )" D_rb [4:0] $end
$var wire 5 *" D_ra [4:0] $end
$var parameter 32 +" ADDR_SIZE $end
$var parameter 32 ," MUL_STALLS $end
$var parameter 32 -" XLEN $end
$var reg 3 ." mul_cnt [2:0] $end
$upscope $end
$scope module u_alu $end
$var wire 1 P EX_brn $end
$var wire 32 /" EX_b2 [31:0] $end
$var wire 32 0" EX_b [31:0] $end
$var wire 4 1" EX_alu_op [3:0] $end
$var wire 32 2" EX_a2 [31:0] $end
$var wire 32 3" EX_a [31:0] $end
$var wire 1 X EX_BP_taken $end
$var parameter 32 4" SHW $end
$var parameter 32 5" XLEN $end
$var reg 32 6" EX_alu_out [31:0] $end
$var reg 1 J EX_taken $end
$var reg 1 I EX_true_taken $end
$var reg 32 7" next_pc [31:0] $end
$upscope $end
$scope module u_branch_buffer $end
$var wire 12 8" EX_alu_out [11:0] $end
$var wire 12 9" EX_pc [11:0] $end
$var wire 1 I EX_true_taken $end
$var wire 1 G F_BP_taken $end
$var wire 1 & clk $end
$var wire 1 ( rst $end
$var wire 1 :" taken_on_hit $end
$var wire 1 4 MEM_stall $end
$var wire 1 A F_stall $end
$var wire 12 ;" F_pc [11:0] $end
$var wire 12 <" F_BP_target_pc [11:0] $end
$var wire 1 P EX_brn $end
$var parameter 32 =" DEPTH $end
$var parameter 32 >" INDX $end
$var parameter 32 ?" PC_BITS $end
$var reg 1 @" ex_hit $end
$var reg 3 A" ex_hit_idx [2:0] $end
$var reg 1 B" f_hit $end
$var reg 3 C" f_hit_idx [2:0] $end
$var integer 32 D" i [31:0] $end
$scope task fifo_insert_new $end
$upscope $end
$upscope $end
$scope module u_d_to_ex_reg $end
$var wire 1 X EX_BP_taken $end
$var wire 32 E" EX_a2 [31:0] $end
$var wire 4 F" EX_alu_op [3:0] $end
$var wire 32 G" EX_b [31:0] $end
$var wire 32 H" EX_b2 [31:0] $end
$var wire 1 P EX_brn $end
$var wire 1 O EX_byt $end
$var wire 1 K EX_str $end
$var wire 1 J EX_taken $end
$var wire 1 & clk $end
$var wire 1 ( rst $end
$var wire 1 + stall_D $end
$var wire 1 4 MEM_stall $end
$var wire 1 H EX_we $end
$var wire 5 I" EX_rd [4:0] $end
$var wire 1 M EX_mul $end
$var wire 1 N EX_ld $end
$var wire 32 J" EX_a [31:0] $end
$var wire 1 ^ D_we $end
$var wire 1 _ D_str $end
$var wire 5 K" D_rd [4:0] $end
$var wire 1 e D_mul $end
$var wire 1 f D_ld $end
$var wire 1 i D_byt $end
$var wire 1 j D_brn $end
$var wire 32 L" D_b2 [31:0] $end
$var wire 32 M" D_b [31:0] $end
$var wire 4 N" D_alu_op [3:0] $end
$var wire 32 O" D_a2 [31:0] $end
$var wire 32 P" D_a [31:0] $end
$var wire 1 q D_BP_taken $end
$var parameter 32 Q" XLEN $end
$var reg 32 R" ex_a2_r [31:0] $end
$var reg 32 S" ex_a_r [31:0] $end
$var reg 4 T" ex_alu_op_r [3:0] $end
$var reg 32 U" ex_b2_r [31:0] $end
$var reg 32 V" ex_b_r [31:0] $end
$var reg 1 W" ex_bp_taken_r $end
$var reg 1 X" ex_brn_r $end
$var reg 1 Y" ex_byt_r $end
$var reg 1 N ex_ld_r $end
$var reg 1 M ex_mul_r $end
$var reg 5 Z" ex_rd_r [4:0] $end
$var reg 1 [" ex_str_r $end
$var reg 1 H ex_we_r $end
$upscope $end
$scope module u_data_mem $end
$var wire 1 & clk $end
$var wire 1 ( rst $end
$var wire 128 \" Dc_wb_wline [127:0] $end
$var wire 1 Z Dc_wb_we $end
$var wire 10 ]" Dc_wb_addr [9:0] $end
$var wire 1 \ Dc_mem_req $end
$var wire 10 ^" Dc_mem_addr [9:0] $end
$var parameter 32 _" LATENCY $end
$var parameter 32 `" XLEN $end
$var reg 128 a" MEM_data_line [127:0] $end
$var reg 1 6 MEM_mem_valid $end
$var reg 2 b" counter [1:0] $end
$var reg 10 c" saved_line [9:0] $end
$var integer 32 d" i [31:0] $end
$var integer 32 e" j [31:0] $end
$upscope $end
$scope module u_dcache $end
$var wire 128 f" MEM_data_line [127:0] $end
$var wire 1 6 MEM_mem_valid $end
$var wire 1 & clk $end
$var wire 1 g" op_active $end
$var wire 1 ( rst $end
$var wire 12 h" addr_word [11:0] $end
$var wire 2 i" addr_off [1:0] $end
$var wire 10 j" addr_line [9:0] $end
$var wire 1 3 MEM_str $end
$var wire 1 7 MEM_ld $end
$var wire 1 : MEM_byt $end
$var wire 32 k" MEM_b2 [31:0] $end
$var wire 32 l" MEM_alu_out [31:0] $end
$var parameter 32 m" XLEN $end
$var reg 10 n" Dc_mem_addr [9:0] $end
$var reg 1 \ Dc_mem_req $end
$var reg 10 o" Dc_wb_addr [9:0] $end
$var reg 1 Z Dc_wb_we $end
$var reg 128 p" Dc_wb_wline [127:0] $end
$var reg 32 q" MEM_data_mem [31:0] $end
$var reg 1 4 MEM_stall $end
$var reg 2 r" fifo_ptr [1:0] $end
$var reg 1 s" hit $end
$var reg 2 t" hit_idx [1:0] $end
$var reg 10 u" miss_line [9:0] $end
$var integer 32 v" i [31:0] $end
$upscope $end
$scope module u_decode $end
$var wire 1 j D_brn $end
$var wire 1 ^ D_we $end
$var wire 1 & clk $end
$var wire 1 w" is_beq $end
$var wire 1 x" is_bgt $end
$var wire 1 y" is_blt $end
$var wire 1 z" is_jmp $end
$var wire 1 {" is_ctrl $end
$var wire 1 _ D_str $end
$var wire 5 |" D_rd [4:0] $end
$var wire 5 }" D_rb [4:0] $end
$var wire 5 ~" D_ra [4:0] $end
$var wire 6 !# D_opc [5:0] $end
$var wire 1 e D_mul $end
$var wire 1 f D_ld $end
$var wire 32 "# D_inst [31:0] $end
$var wire 11 ## D_imd [10:0] $end
$var wire 1 i D_byt $end
$var wire 4 $# D_alu_op [3:0] $end
$var wire 1 n D_addi $end
$var parameter 6 %# OPC_ADD $end
$var parameter 6 &# OPC_ADDI $end
$var parameter 6 '# OPC_AND $end
$var parameter 6 (# OPC_CTRL $end
$var parameter 6 )# OPC_GT $end
$var parameter 5 *# OPC_LOAD $end
$var parameter 6 +# OPC_LT $end
$var parameter 6 ,# OPC_MUL $end
$var parameter 6 -# OPC_NOT $end
$var parameter 6 .# OPC_OR $end
$var parameter 6 /# OPC_SHL $end
$var parameter 6 0# OPC_SHR $end
$var parameter 5 1# OPC_STORE $end
$var parameter 6 2# OPC_SUB $end
$var parameter 6 3# OPC_XOR $end
$var parameter 5 4# RD_BEQ $end
$var parameter 5 5# RD_BGT $end
$var parameter 5 6# RD_BLT $end
$var parameter 5 7# RD_JMP $end
$var parameter 32 8# XLEN $end
$upscope $end
$scope module u_ex_to_mem_reg $end
$var wire 32 9# EX_a2 [31:0] $end
$var wire 32 :# EX_alu_out [31:0] $end
$var wire 32 ;# EX_b2 [31:0] $end
$var wire 1 O EX_byt $end
$var wire 1 N EX_ld $end
$var wire 5 <# EX_rd [4:0] $end
$var wire 1 K EX_str $end
$var wire 1 J EX_taken $end
$var wire 1 H EX_we $end
$var wire 32 =# MEM_a2 [31:0] $end
$var wire 32 ># MEM_b2 [31:0] $end
$var wire 1 : MEM_byt $end
$var wire 1 4 MEM_stall $end
$var wire 1 2 MEM_taken $end
$var wire 1 & clk $end
$var wire 1 ( rst $end
$var wire 1 1 MEM_we $end
$var wire 1 3 MEM_str $end
$var wire 5 ?# MEM_rd [4:0] $end
$var wire 1 7 MEM_ld $end
$var wire 32 @# MEM_alu_out [31:0] $end
$var parameter 32 A# XLEN $end
$var reg 32 B# mem_a2_r [31:0] $end
$var reg 32 C# mem_alu_out_r [31:0] $end
$var reg 32 D# mem_b2_r [31:0] $end
$var reg 1 E# mem_byt_r $end
$var reg 1 7 mem_ld_r $end
$var reg 5 F# mem_rd_r [4:0] $end
$var reg 1 3 mem_str_r $end
$var reg 1 G# mem_taken_r $end
$var reg 1 1 mem_we_r $end
$upscope $end
$scope module u_f2d $end
$var wire 1 q D_BP_taken $end
$var wire 1 J EX_taken $end
$var wire 1 G F_BP_taken $end
$var wire 1 4 MEM_stall $end
$var wire 1 & clk $end
$var wire 1 ( rst $end
$var wire 1 + stall_D $end
$var wire 12 H# F_pc [11:0] $end
$var wire 32 I# F_inst [31:0] $end
$var wire 12 J# D_pc [11:0] $end
$var wire 32 K# D_inst [31:0] $end
$var parameter 32 L# NOP $end
$var parameter 32 M# PC_BITS $end
$var parameter 32 N# XLEN $end
$var reg 1 O# d_bp_taken $end
$var reg 32 P# d_inst [31:0] $end
$var reg 12 Q# d_pc [11:0] $end
$upscope $end
$scope module u_icache $end
$var wire 1 & clk $end
$var wire 1 ( rst $end
$var wire 2 R# pc_word [1:0] $end
$var wire 12 S# pc_line [11:0] $end
$var wire 12 T# F_pc [11:0] $end
$var wire 1 C F_mem_valid $end
$var wire 128 U# F_mem_inst [127:0] $end
$var parameter 32 V# PC_BITS $end
$var reg 32 W# F_inst [31:0] $end
$var reg 1 A F_stall $end
$var reg 10 X# Ic_mem_addr [9:0] $end
$var reg 1 ? Ic_mem_req $end
$var reg 2 Y# fifo_ptr [1:0] $end
$var reg 1 Z# hit $end
$var reg 2 [# hit_idx [1:0] $end
$var reg 10 \# miss_line [9:0] $end
$var integer 32 ]# i [31:0] $end
$upscope $end
$scope module u_instruct_mem $end
$var wire 10 ^# Ic_mem_addr [9:0] $end
$var wire 1 ? Ic_mem_req $end
$var wire 1 & clk $end
$var wire 1 ( rst $end
$var parameter 32 _# LATENCY $end
$var parameter 32 `# XLEN $end
$var reg 128 a# F_mem_inst [127:0] $end
$var reg 1 C F_mem_valid $end
$var reg 2 b# counter [1:0] $end
$var reg 10 c# saved_line [9:0] $end
$var integer 32 d# i [31:0] $end
$var integer 32 e# j [31:0] $end
$upscope $end
$scope module u_mem_to_wb_reg $end
$var wire 32 f# MEM_data_mem [31:0] $end
$var wire 5 g# MEM_rd [4:0] $end
$var wire 1 1 MEM_we $end
$var wire 1 & clk $end
$var wire 1 ( rst $end
$var wire 1 - WB_we $end
$var wire 5 h# WB_rd [4:0] $end
$var wire 32 i# WB_data_mem [31:0] $end
$var parameter 32 j# XLEN $end
$var reg 32 k# wb_data_mem_r [31:0] $end
$var reg 5 l# wb_rd_r [4:0] $end
$var reg 1 - wb_we_r $end
$upscope $end
$scope module u_pc $end
$var wire 12 m# EX_alt_pc [11:0] $end
$var wire 1 J EX_taken $end
$var wire 12 n# F_BP_target_pc [11:0] $end
$var wire 1 & clk $end
$var wire 1 ( rst $end
$var wire 1 + stall_D $end
$var parameter 32 o# PCLEN $end
$var parameter 12 p# RESET_PC $end
$var reg 12 q# F_pc [11:0] $end
$upscope $end
$scope module u_regfile $end
$var wire 32 r# D_a2 [31:0] $end
$var wire 1 n D_addi $end
$var wire 32 s# D_b2 [31:0] $end
$var wire 1 j D_brn $end
$var wire 11 t# D_imd [10:0] $end
$var wire 1 f D_ld $end
$var wire 12 u# D_pc [11:0] $end
$var wire 5 v# D_ra [4:0] $end
$var wire 5 w# D_rb [4:0] $end
$var wire 1 _ D_str $end
$var wire 2 x# EX_D_bp [1:0] $end
$var wire 32 y# EX_alu_out [31:0] $end
$var wire 2 z# MEM_D_bp [1:0] $end
$var wire 32 {# MEM_data_mem [31:0] $end
$var wire 2 |# WB_D_bp [1:0] $end
$var wire 32 }# WB_data_mem [31:0] $end
$var wire 5 ~# WB_rd [4:0] $end
$var wire 1 - WB_we $end
$var wire 1 & clk $end
$var wire 32 !$ ra_raw [31:0] $end
$var wire 32 "$ rb_raw [31:0] $end
$var wire 32 #$ rb_fwd [31:0] $end
$var wire 32 $$ ra_fwd [31:0] $end
$var wire 32 %$ pc_extended [31:0] $end
$var wire 32 &$ offset [31:0] $end
$var wire 32 '$ D_b [31:0] $end
$var wire 32 ($ D_a [31:0] $end
$var parameter 32 )$ ADDR_SIZE $end
$var parameter 32 *$ REG_NUM $end
$var parameter 32 +$ XLEN $end
$var integer 32 ,$ i [31:0] $end
$upscope $end
$upscope $end
$scope begin run_loop $end
$upscope $end
$upscope $end
$enddefinitions $end
$comment Show the parameter values. $end
$dumpall
b100000 +$
b100000 *$
b101 )$
b0 p#
b1100 o#
b100000 j#
b100000 `#
b10 _#
b1100 V#
b100000 N#
b1100 M#
b100000000000000000000000000000 L#
b100000 A#
b100000 8#
b0 7#
b10 6#
b11 5#
b1 4#
b100 3#
b1 2#
b1100 1#
b111 0#
b110 /#
b11 .#
b101 -#
b1110 ,#
b1001 +#
b1011 *#
b1010 )#
b1101 (#
b10 '#
b1000 &#
b0 %#
b100000 m"
b100000 `"
b11 _"
b100000 Q"
b1100 ?"
b11 >"
b1000 ="
b100000 5"
b101 4"
b100000 -"
b100 ,"
b101 +"
b100000 v
b0 u
b100000 t
b1100 s
b101 r
b100000 %
b100000 $
b1100 #
b10110 "
b101 !
$end
#0
$dumpvars
b100000 ,$
bx ($
bx '$
bx &$
bx %$
bx $$
bx #$
bx "$
bx !$
bx ~#
bx }#
bx |#
bx {#
bx z#
bx y#
bx x#
bx w#
bx v#
bx u#
bx t#
bx s#
bx r#
b0 q#
b0 n#
bx m#
bx l#
bx k#
bx i#
bx h#
bx g#
bx f#
b100 e#
b10000000001 d#
bx c#
bx b#
bx a#
b0 ^#
bx ]#
bx \#
b0 [#
0Z#
bx Y#
b0 X#
b100000000000000000000000000000 W#
bx U#
b0 T#
b0 S#
b0 R#
bx Q#
bx P#
xO#
bx K#
bx J#
b100000000000000000000000000000 I#
b0 H#
xG#
bx F#
xE#
bx D#
bx C#
bx B#
bx @#
bx ?#
bx >#
bx =#
bx <#
bx ;#
bx :#
bx 9#
bx $#
bx ##
bx "#
bx !#
bx ~"
bx }"
bx |"
x{"
xz"
xy"
xx"
xw"
bx v"
bx u"
b0 t"
0s"
bx r"
bx q"
bx p"
bx o"
b0xxxxxxxxx n"
bx l"
bx k"
b0xxxxxxxxx j"
bx i"
b0xxxxxxxxxxx h"
xg"
bx f"
b100 e"
b10000000000 d"
bx c"
bx b"
bx a"
b0xxxxxxxxx ^"
bx ]"
bx \"
x["
bx Z"
xY"
xX"
xW"
bx V"
bx U"
bx T"
bx S"
bx R"
bx P"
bx O"
bx N"
bx M"
bx L"
bx K"
bx J"
bx I"
bx H"
bx G"
bx F"
bx E"
b1000 D"
b0 C"
0B"
bx A"
x@"
b0 <"
b0 ;"
0:"
bx 9"
bx 8"
bx 7"
bx 6"
bx 3"
bx 2"
bx 1"
bx 0"
bx /"
bx ."
bx *"
bx )"
bx ("
bx '"
bx &"
bx %"
bx $"
bx #"
bx ""
bx !"
x~
x}
x|
x{
xz
xy
xx
xw
xq
bx p
bx o
xn
bx m
bx l
bx k
xj
xi
bx h
bx g
xf
xe
bx d
bx c
bx b
bx a
bx `
x_
x^
b0xxxxxxxxx ]
0\
bx [
xZ
bx Y
xX
bx W
bx V
bx U
bx T
bx S
bx R
bx Q
xP
xO
xN
xM
bx L
xK
xJ
xI
xH
0G
b0 F
b100000000000000000000000000000 E
bx D
xC
b0 B
1A
b0 @
x?
bx >
bx =
bx <
bx ;
x:
bx 9
bx 8
x7
x6
bx 5
04
x3
x2
x1
bx 0
bx /
bx .
x-
b1 ,
x+
bx *
bx )
1(
bx '
0&
$end
#5000
b0 p
b0 P"
b0 ($
b0 k
b0 L"
b0 s#
b0 #$
b0 o
b0 O"
b0 r#
b0 $$
b0 l
b0 M"
b0 '$
0x"
0y"
0w"
0z"
0f
0_
0i
1^
b0 m
b0 N"
b0 $#
b0 W
b0 '"
b0 x#
b0 8"
b0 m#
b0 ]
b0 ^"
b0 n"
b0 j"
b0 i"
1?
1A
b0 &$
b0 h
b0 ##
b0 t#
b0 `
b0 ("
b0 K"
b0 |"
b0 "$
b0 a
b0 )"
b0 }"
b0 w#
b0 !$
b0 b
b0 *"
b0 ~"
b0 v#
0j
0{"
0e
1n
b1000 d
b1000 !#
b0 %$
0+
0{
0x
0w
b0 9"
b0 7"
0I
0J
b0 S
b0 &"
b0 6"
b0 :#
b0 y#
b0 A"
1@"
1B"
0g"
0z
b0 >
b0 $"
b0 z#
0y
b0 h"
b0 8
b0 q"
b0 f#
b0 {#
0}
b0 0
b0 ""
b0 |#
0|
b0 \#
b0 Y#
b0 b#
0C
0q
0O#
b100000000000000000000000000000 g
b100000000000000000000000000000 "#
b100000000000000000000000000000 K#
b100000000000000000000000000000 P#
b0 c
b0 J#
b0 Q#
b0 u#
0~
b0 ."
0M
0H
0O
0Y"
0K
0["
0N
b0 L
b0 %"
b0 I"
b0 Z"
b0 <#
0X
0W"
0P
0X"
b0 T
b0 1"
b0 F"
b0 T"
b0 Q
b0 /"
b0 H"
b0 ;#
b0 U"
b0 R
b0 0"
b0 G"
b0 V"
b0 U
b0 2"
b0 E"
b0 9#
b0 R"
b0 V
b0 3"
b0 J"
b0 S"
0:
0E#
03
07
01
b0 5
b0 #"
b0 ?#
b0 F#
b0 g#
b0 =
b0 =#
b0 B#
b0 ;
b0 k"
b0 >#
b0 D#
02
0G#
b0 <
b0 l"
b0 @#
b0 C#
b0 Y
b0 \"
b0 p"
b0 [
b0 ]"
b0 o"
0Z
b0 u"
b0 r"
b0 b"
06
0-
b0 .
b0 !"
b0 h#
b0 l#
b0 ~#
b0 /
b0 i#
b0 k#
b0 }#
b100 ]#
b1000 D"
b100 v"
1&
#10000
0&
#15000
b100 v"
b1000 D"
b100 ]#
1&
#20000
0&
#25000
0(
b100 ]#
b1000 D"
b100 v"
b0 )
1&
#30000
0&
#35000
b11 W
b11 '"
b11 x#
1x
1w
1H
b10 b#
b0 c#
b100000000000000000000000000000 '
b1 )
1&
#40000
0&
#45000
1z
b11 >
b11 $"
b11 z#
1y
b1 b#
11
b10 )
1&
#50000
0&
#55000
1}
b11 0
b11 ""
b11 |#
1|
0?
1A
1-
1C
b100000010000100001000001111011000100000100001000010000000000000010000000100001000010000000010000010000001000010000100000000000 D
b100000010000100001000001111011000100000100001000010000000000000010000000100001000010000000010000010000001000010000100000000000 U#
b100000010000100001000001111011000100000100001000010000000000000010000000100001000010000000010000010000001000010000100000000000 a#
b0 b#
b11 )
1&
#60000
0&
#65000
b1 F
b1 <"
b1 n#
b10000001000010000100000000000 E
b10000001000010000100000000000 I#
b10000001000010000100000000000 W#
1Z#
b100 ]#
0A
b1 Y#
0C
b100 )
1&
#70000
0&
#75000
b100 m
b100 N"
b100 $#
b0 W
b0 '"
b0 x#
0}
0z
0x
b0 0
b0 ""
b0 |#
0|
b0 >
b0 $"
b0 z#
0y
0w
b100 ]#
b100000001000010000100000000100 E
b100000001000010000100000000100 I#
b100000001000010000100000000100 W#
1Z#
b1 `
b1 ("
b1 K"
b1 |"
b1 a
b1 )"
b1 }"
b1 w#
b1 b
b1 *"
b1 ~"
b1 v#
0n
b100 d
b100 !#
b1 R#
b10 F
b10 <"
b10 n#
b1000 D"
0B"
b10000001000010000100000000000 g
b10000001000010000100000000000 "#
b10000001000010000100000000000 K#
b10000001000010000100000000000 P#
b10 ,
b1 B
b1 ;"
b1 H#
b1 T#
b1 q#
b10000001000010000100000000000 '
b101 )
1&
#80000
0&
#85000
b0 m
b0 N"
b0 $#
b100 l
b100 M"
b100 '$
b11 W
b11 '"
b11 x#
b100 ]#
b10000010000100001000000000000 E
b10000010000100001000000000000 I#
b10000010000100001000000000000 W#
1Z#
b100 &$
b100 h
b100 ##
b100 t#
1n
b1000 d
b1000 !#
b1 %$
1x
1w
b10 R#
b11 F
b11 <"
b11 n#
b1000 D"
b100000001000010000100000000100 g
b100000001000010000100000000100 "#
b100000001000010000100000000100 K#
b100000001000010000100000000100 P#
b1 c
b1 J#
b1 Q#
b1 u#
b1 L
b1 %"
b1 I"
b1 Z"
b1 <#
b100 T
b100 1"
b100 F"
b100 T"
b11 ,
b10 B
b10 ;"
b10 H#
b10 T#
b10 q#
b100000001000010000100000000100 '
b110 )
1&
#90000
0&
#95000
b100 m
b100 N"
b100 $#
b0 p
b0 P"
b0 ($
b0 W
b0 '"
b0 x#
b0 o
b0 O"
b0 r#
b0 $$
b0 k
b0 L"
b0 s#
b0 #$
b100 8"
b100 m#
b0 l
b0 M"
b0 '$
0x
0w
b100 ]#
b100000010000100001000001111011 E
b100000010000100001000001111011 I#
b100000010000100001000001111011 W#
1Z#
b100 S
b100 &"
b100 6"
b100 :#
b100 y#
b0 &$
b0 h
b0 ##
b0 t#
b10 `
b10 ("
b10 K"
b10 |"
b10 a
b10 )"
b10 }"
b10 w#
b10 b
b10 *"
b10 ~"
b10 v#
0n
b100 d
b100 !#
b10 %$
b11 R#
b100 F
b100 <"
b100 n#
b1000 D"
b1 5
b1 #"
b1 ?#
b1 F#
b1 g#
b0 T
b0 1"
b0 F"
b0 T"
b100 R
b100 0"
b100 G"
b100 V"
b10000010000100001000000000000 g
b10000010000100001000000000000 "#
b10000010000100001000000000000 K#
b10000010000100001000000000000 P#
b10 c
b10 J#
b10 Q#
b10 u#
b100 ,
b11 B
b11 ;"
b11 H#
b11 T#
b11 q#
b10000010000100001000000000000 '
b111 )
1&
#100000
0&
#105000
b0 m
b0 N"
b0 $#
b1111011 l
b1111011 M"
b1111011 '$
b1 ]
b1 ^"
b1 n"
b11 W
b11 '"
b11 x#
b0 8"
b0 m#
b1 j"
1?
1A
b100 ]#
b1 @
b1 X#
b1 ^#
b100000000000000000000000000000 E
b100000000000000000000000000000 I#
b100000000000000000000000000000 W#
0Z#
b1111011 &$
b1111011 h
b1111011 ##
b1111011 t#
1n
b1000 d
b1000 !#
b11 %$
1x
1w
b0 S
b0 &"
b0 6"
b0 :#
b0 y#
b100 h"
b100 8
b100 q"
b100 f#
b100 {#
b0 R#
b1 S#
b100 F
b100 <"
b100 n#
b1000 D"
b100000010000100001000001111011 g
b100000010000100001000001111011 "#
b100000010000100001000001111011 K#
b100000010000100001000001111011 P#
b11 c
b11 J#
b11 Q#
b11 u#
b10 L
b10 %"
b10 I"
b10 Z"
b10 <#
b100 T
b100 1"
b100 F"
b100 T"
b0 R
b0 0"
b0 G"
b0 V"
b100 <
b100 l"
b100 @#
b100 C#
b1 .
b1 !"
b1 h#
b1 l#
b1 ~#
b101 ,
b100 B
b100 ;"
b100 H#
b100 T#
b100 q#
b100000010000100001000001111011 '
b1000 )
1&
#110000
0&
#115000
b0 ]
b0 ^"
b0 n"
b0 p
b0 P"
b0 ($
b0 W
b0 '"
b0 x#
b0 j"
b0 o
b0 O"
b0 r#
b0 $$
b0 k
b0 L"
b0 s#
b0 #$
b1111011 8"
b1111011 m#
b0 l
b0 M"
b0 '$
0x
0w
b0 h"
b0 8
b0 q"
b0 f#
b0 {#
b1111011 S
b1111011 &"
b1111011 6"
b1111011 :#
b1111011 y#
b0 &$
b0 h
b0 ##
b0 t#
b0 `
b0 ("
b0 K"
b0 |"
b0 a
b0 )"
b0 }"
b0 w#
b0 b
b0 *"
b0 ~"
b0 v#
b100 %$
b100 /
b100 i#
b100 k#
b100 }#
b10 5
b10 #"
b10 ?#
b10 F#
b10 g#
b0 <
b0 l"
b0 @#
b0 C#
b0 T
b0 1"
b0 F"
b0 T"
b1111011 R
b1111011 0"
b1111011 G"
b1111011 V"
b100000000000000000000000000000 g
b100000000000000000000000000000 "#
b100000000000000000000000000000 K#
b100000000000000000000000000000 P#
b100 c
b100 J#
b100 Q#
b100 u#
b10 b#
b1 c#
b1 \#
b100000000000000000000000000000 '
b1001 )
1&
#120000
0&
#125000
b11110 ]
b11110 ^"
b11110 n"
b11 W
b11 '"
b11 x#
b0 8"
b0 m#
b11110 j"
b11 i"
1x
1w
b0 S
b0 &"
b0 6"
b0 :#
b0 y#
b1111011 h"
b1111011 8
b1111011 q"
b1111011 f#
b1111011 {#
b1 b#
b0 L
b0 %"
b0 I"
b0 Z"
b0 <#
b0 R
b0 0"
b0 G"
b0 V"
b1111011 <
b1111011 l"
b1111011 @#
b1111011 C#
b10 .
b10 !"
b10 h#
b10 l#
b10 ~#
b0 /
b0 i#
b0 k#
b0 }#
b1010 )
1&
#130000
0&
#135000
b0 ]
b0 ^"
b0 n"
b0 j"
b0 i"
1z
b11 >
b11 $"
b11 z#
1y
b0 h"
b0 8
b0 q"
b0 f#
b0 {#
0?
1A
b1111011 /
b1111011 i#
b1111011 k#
b1111011 }#
b0 5
b0 #"
b0 ?#
b0 F#
b0 g#
b0 <
b0 l"
b0 @#
b0 C#
1C
b101100000000000110000000000100001011000000000001011000000001000010110000000000010100000000010000110000000000100000000000000100 D
b101100000000000110000000000100001011000000000001011000000001000010110000000000010100000000010000110000000000100000000000000100 U#
b101100000000000110000000000100001011000000000001011000000001000010110000000000010100000000010000110000000000100000000000000100 a#
b0 b#
b1011 )
1&
#140000
0&
#145000
b101 F
b101 <"
b101 n#
b110000000000100000000000000100 E
b110000000000100000000000000100 I#
b110000000000100000000000000100 W#
b1 [#
1Z#
b100 ]#
0A
1}
b11 0
b11 ""
b11 |#
1|
b10 Y#
0C
b0 .
b0 !"
b0 h#
b0 l#
b0 ~#
b0 /
b0 i#
b0 k#
b0 }#
b1100 )
1&
#150000
0&
