rtl/cpu_run_tb.vcd
$date
	Tue Nov 18 15:55:20 2025
$end
$version
	Icarus Verilog
$end
$timescale
	1ps
$end
$scope module cpu_run_tb $end
$var parameter 32 ! ADDR_SIZE $end
$var parameter 32 " END_PC $end
$var parameter 32 # PC_BITS $end
$var parameter 32 $ REG_NUM $end
$var parameter 32 % XLEN $end
$var reg 1 & clk $end
$var reg 32 ' curr_inst [31:0] $end
$var reg 1 ( rst $end
$var integer 32 ) cycles [31:0] $end
$var integer 32 * i [31:0] $end
$scope module dut $end
$var wire 1 & clk $end
$var wire 1 ( rst $end
$var wire 1 + stall_D $end
$var wire 12 , pc_plus_1 [11:0] $end
$var wire 1 - WB_we $end
$var wire 5 . WB_rd [4:0] $end
$var wire 32 / WB_data_mem [31:0] $end
$var wire 2 0 WB_D_bp [1:0] $end
$var wire 1 1 MEM_we $end
$var wire 1 2 MEM_taken $end
$var wire 1 3 MEM_str $end
$var wire 1 4 MEM_stall $end
$var wire 5 5 MEM_rd [4:0] $end
$var wire 1 6 MEM_mem_valid $end
$var wire 1 7 MEM_ld $end
$var wire 32 8 MEM_data_mem [31:0] $end
$var wire 128 9 MEM_data_line [127:0] $end
$var wire 1 : MEM_byt $end
$var wire 32 ; MEM_b2 [31:0] $end
$var wire 32 < MEM_alu_out [31:0] $end
$var wire 32 = MEM_a2 [31:0] $end
$var wire 2 > MEM_D_bp [1:0] $end
$var wire 1 ? Ic_mem_req $end
$var wire 10 @ Ic_mem_addr [9:0] $end
$var wire 1 A F_stall $end
$var wire 12 B F_pc [11:0] $end
$var wire 1 C F_mem_valid $end
$var wire 128 D F_mem_inst [127:0] $end
$var wire 32 E F_inst [31:0] $end
$var wire 12 F F_BP_target_pc [11:0] $end
$var wire 1 G F_BP_taken $end
$var wire 1 H EX_we $end
$var wire 1 I EX_true_taken $end
$var wire 1 J EX_taken $end
$var wire 1 K EX_str $end
$var wire 5 L EX_rd [4:0] $end
$var wire 1 M EX_mul $end
$var wire 1 N EX_ld $end
$var wire 1 O EX_byt $end
$var wire 1 P EX_brn $end
$var wire 32 Q EX_b2 [31:0] $end
$var wire 32 R EX_b [31:0] $end
$var wire 32 S EX_alu_out [31:0] $end
$var wire 4 T EX_alu_op [3:0] $end
$var wire 32 U EX_a2 [31:0] $end
$var wire 32 V EX_a [31:0] $end
$var wire 2 W EX_D_bp [1:0] $end
$var wire 12 X EX_BP_target_pc [11:0] $end
$var wire 1 Y EX_BP_taken $end
$var wire 128 Z Dc_wb_wline [127:0] $end
$var wire 1 [ Dc_wb_we $end
$var wire 10 \ Dc_wb_addr [9:0] $end
$var wire 1 ] Dc_mem_req $end
$var wire 10 ^ Dc_mem_addr [9:0] $end
$var wire 1 _ D_we $end
$var wire 1 ` D_str $end
$var wire 5 a D_rd [4:0] $end
$var wire 5 b D_rb [4:0] $end
$var wire 5 c D_ra [4:0] $end
$var wire 12 d D_pc [11:0] $end
$var wire 6 e D_opc [5:0] $end
$var wire 1 f D_mul $end
$var wire 1 g D_ld $end
$var wire 32 h D_inst [31:0] $end
$var wire 11 i D_imd [10:0] $end
$var wire 1 j D_byt $end
$var wire 1 k D_brn $end
$var wire 32 l D_b2 [31:0] $end
$var wire 32 m D_b [31:0] $end
$var wire 4 n D_alu_op [3:0] $end
$var wire 1 o D_addi $end
$var wire 32 p D_a2 [31:0] $end
$var wire 32 q D_a [31:0] $end
$var wire 12 r D_BP_target_pc [11:0] $end
$var wire 1 s D_BP_taken $end
$var parameter 32 t ADDR_SIZE $end
$var parameter 32 u PC_BITS $end
$var parameter 32 v REG_NUM $end
$var parameter 12 w RESET_PC $end
$var parameter 32 x XLEN $end
$scope module u_Hazard_unit $end
$var wire 1 & clk $end
$var wire 1 y ex_hit_ra $end
$var wire 1 z ex_hit_rb $end
$var wire 1 { mem_hit_ra $end
$var wire 1 | mem_hit_rb $end
$var wire 1 } mul_start $end
$var wire 1 ( rst $end
$var wire 1 + stall_D $end
$var wire 1 ~ wb_hit_ra $end
$var wire 1 !" wb_hit_rb $end
$var wire 1 "" mul_stall $end
$var wire 1 - WB_we $end
$var wire 5 #" WB_rd [4:0] $end
$var wire 2 $" WB_D_bp [1:0] $end
$var wire 1 1 MEM_we $end
$var wire 5 %" MEM_rd [4:0] $end
$var wire 2 &" MEM_D_bp [1:0] $end
$var wire 1 H EX_we $end
$var wire 5 '" EX_rd [4:0] $end
$var wire 1 M EX_mul $end
$var wire 1 N EX_ld $end
$var wire 32 (" EX_alu_out [31:0] $end
$var wire 2 )" EX_D_bp [1:0] $end
$var wire 5 *" D_rd [4:0] $end
$var wire 5 +" D_rb [4:0] $end
$var wire 5 ," D_ra [4:0] $end
$var parameter 32 -" ADDR_SIZE $end
$var parameter 32 ." MUL_STALLS $end
$var parameter 32 /" XLEN $end
$var reg 3 0" mul_cnt [2:0] $end
$upscope $end
$scope module u_alu $end
$var wire 1 P EX_brn $end
$var wire 32 1" EX_b2 [31:0] $end
$var wire 32 2" EX_b [31:0] $end
$var wire 4 3" EX_alu_op [3:0] $end
$var wire 32 4" EX_a2 [31:0] $end
$var wire 32 5" EX_a [31:0] $end
$var wire 12 6" EX_BP_target_pc [11:0] $end
$var wire 1 Y EX_BP_taken $end
$var parameter 32 7" PC_BITS $end
$var parameter 32 8" SHW $end
$var parameter 32 9" XLEN $end
$var reg 32 :" EX_alu_out [31:0] $end
$var reg 1 J EX_taken $end
$var reg 1 I EX_true_taken $end
$var reg 32 ;" next_pc [31:0] $end
$upscope $end
$scope module u_branch_buffer $end
$var wire 12 <" EX_alu_out [11:0] $end
$var wire 12 =" EX_pc [11:0] $end
$var wire 1 I EX_true_taken $end
$var wire 1 G F_BP_taken $end
$var wire 1 & clk $end
$var wire 1 ( rst $end
$var wire 1 >" taken_on_hit $end
$var wire 1 4 MEM_stall $end
$var wire 1 A F_stall $end
$var wire 12 ?" F_pc [11:0] $end
$var wire 12 @" F_BP_target_pc [11:0] $end
$var wire 1 P EX_brn $end
$var parameter 32 A" DEPTH $end
$var parameter 32 B" INDX $end
$var parameter 32 C" PC_BITS $end
$var reg 1 D" ex_hit $end
$var reg 3 E" ex_hit_idx [2:0] $end
$var reg 1 F" f_hit $end
$var reg 3 G" f_hit_idx [2:0] $end
$var integer 32 H" i [31:0] $end
$scope task fifo_insert_new $end
$upscope $end
$upscope $end
$scope module u_d_to_ex_reg $end
$var wire 1 Y EX_BP_taken $end
$var wire 12 I" EX_BP_target_pc [11:0] $end
$var wire 32 J" EX_a2 [31:0] $end
$var wire 4 K" EX_alu_op [3:0] $end
$var wire 32 L" EX_b [31:0] $end
$var wire 32 M" EX_b2 [31:0] $end
$var wire 1 P EX_brn $end
$var wire 1 O EX_byt $end
$var wire 1 K EX_str $end
$var wire 1 J EX_taken $end
$var wire 1 & clk $end
$var wire 1 ( rst $end
$var wire 1 + stall_D $end
$var wire 1 4 MEM_stall $end
$var wire 1 H EX_we $end
$var wire 5 N" EX_rd [4:0] $end
$var wire 1 M EX_mul $end
$var wire 1 N EX_ld $end
$var wire 32 O" EX_a [31:0] $end
$var wire 1 _ D_we $end
$var wire 1 ` D_str $end
$var wire 5 P" D_rd [4:0] $end
$var wire 1 f D_mul $end
$var wire 1 g D_ld $end
$var wire 1 j D_byt $end
$var wire 1 k D_brn $end
$var wire 32 Q" D_b2 [31:0] $end
$var wire 32 R" D_b [31:0] $end
$var wire 4 S" D_alu_op [3:0] $end
$var wire 32 T" D_a2 [31:0] $end
$var wire 32 U" D_a [31:0] $end
$var wire 12 V" D_BP_target_pc [11:0] $end
$var wire 1 s D_BP_taken $end
$var parameter 32 W" PC_BITS $end
$var parameter 32 X" XLEN $end
$var reg 32 Y" ex_a2_r [31:0] $end
$var reg 32 Z" ex_a_r [31:0] $end
$var reg 4 [" ex_alu_op_r [3:0] $end
$var reg 32 \" ex_b2_r [31:0] $end
$var reg 32 ]" ex_b_r [31:0] $end
$var reg 1 ^" ex_bp_taken_r $end
$var reg 12 _" ex_bp_target_pc_r [11:0] $end
$var reg 1 `" ex_brn_r $end
$var reg 1 a" ex_byt_r $end
$var reg 1 N ex_ld_r $end
$var reg 1 M ex_mul_r $end
$var reg 5 b" ex_rd_r [4:0] $end
$var reg 1 c" ex_str_r $end
$var reg 1 H ex_we_r $end
$upscope $end
$scope module u_dcache $end
$var wire 1 & clk $end
$var wire 1 d" op_active $end
$var wire 1 ( rst $end
$var wire 12 e" addr_word [11:0] $end
$var wire 2 f" addr_off [1:0] $end
$var wire 10 g" addr_line [9:0] $end
$var wire 1 3 MEM_str $end
$var wire 1 6 MEM_mem_valid $end
$var wire 1 7 MEM_ld $end
$var wire 128 h" MEM_data_line [127:0] $end
$var wire 1 : MEM_byt $end
$var wire 32 i" MEM_b2 [31:0] $end
$var wire 32 j" MEM_alu_out [31:0] $end
$var parameter 32 k" XLEN $end
$var reg 10 l" Dc_mem_addr [9:0] $end
$var reg 1 ] Dc_mem_req $end
$var reg 10 m" Dc_wb_addr [9:0] $end
$var reg 1 [ Dc_wb_we $end
$var reg 128 n" Dc_wb_wline [127:0] $end
$var reg 32 o" MEM_data_mem [31:0] $end
$var reg 1 4 MEM_stall $end
$var reg 2 p" fifo_ptr [1:0] $end
$var reg 1 q" hit $end
$var reg 2 r" hit_idx [1:0] $end
$var reg 10 s" miss_line [9:0] $end
$var integer 32 t" i [31:0] $end
$upscope $end
$scope module u_decode $end
$var wire 1 k D_brn $end
$var wire 1 _ D_we $end
$var wire 1 & clk $end
$var wire 1 u" is_beq $end
$var wire 1 v" is_bgt $end
$var wire 1 w" is_blt $end
$var wire 1 x" is_jmp $end
$var wire 1 y" is_ctrl $end
$var wire 1 ` D_str $end
$var wire 5 z" D_rd [4:0] $end
$var wire 5 {" D_rb [4:0] $end
$var wire 5 |" D_ra [4:0] $end
$var wire 6 }" D_opc [5:0] $end
$var wire 1 f D_mul $end
$var wire 1 g D_ld $end
$var wire 32 ~" D_inst [31:0] $end
$var wire 11 !# D_imd [10:0] $end
$var wire 1 j D_byt $end
$var wire 4 "# D_alu_op [3:0] $end
$var wire 1 o D_addi $end
$var parameter 6 ## OPC_ADD $end
$var parameter 6 $# OPC_ADDI $end
$var parameter 6 %# OPC_AND $end
$var parameter 6 &# OPC_CTRL $end
$var parameter 6 '# OPC_GT $end
$var parameter 5 (# OPC_LOAD $end
$var parameter 6 )# OPC_LT $end
$var parameter 6 *# OPC_MUL $end
$var parameter 6 +# OPC_NOT $end
$var parameter 6 ,# OPC_OR $end
$var parameter 6 -# OPC_SHL $end
$var parameter 6 .# OPC_SHR $end
$var parameter 5 /# OPC_STORE $end
$var parameter 6 0# OPC_SUB $end
$var parameter 6 1# OPC_XOR $end
$var parameter 5 2# RD_BEQ $end
$var parameter 5 3# RD_BGT $end
$var parameter 5 4# RD_BLT $end
$var parameter 5 5# RD_JMP $end
$var parameter 32 6# XLEN $end
$upscope $end
$scope module u_ex_to_mem_reg $end
$var wire 32 7# EX_a2 [31:0] $end
$var wire 32 8# EX_alu_out [31:0] $end
$var wire 32 9# EX_b2 [31:0] $end
$var wire 1 O EX_byt $end
$var wire 1 N EX_ld $end
$var wire 5 :# EX_rd [4:0] $end
$var wire 1 K EX_str $end
$var wire 1 J EX_taken $end
$var wire 1 H EX_we $end
$var wire 32 ;# MEM_a2 [31:0] $end
$var wire 32 <# MEM_b2 [31:0] $end
$var wire 1 : MEM_byt $end
$var wire 1 4 MEM_stall $end
$var wire 1 2 MEM_taken $end
$var wire 1 & clk $end
$var wire 1 ( rst $end
$var wire 1 1 MEM_we $end
$var wire 1 3 MEM_str $end
$var wire 5 =# MEM_rd [4:0] $end
$var wire 1 7 MEM_ld $end
$var wire 32 ># MEM_alu_out [31:0] $end
$var parameter 32 ?# XLEN $end
$var reg 32 @# mem_a2_r [31:0] $end
$var reg 32 A# mem_alu_out_r [31:0] $end
$var reg 32 B# mem_b2_r [31:0] $end
$var reg 1 C# mem_byt_r $end
$var reg 1 7 mem_ld_r $end
$var reg 5 D# mem_rd_r [4:0] $end
$var reg 1 3 mem_str_r $end
$var reg 1 E# mem_taken_r $end
$var reg 1 1 mem_we_r $end
$upscope $end
$scope module u_f2d $end
$var wire 1 s D_BP_taken $end
$var wire 12 F# D_BP_target_pc [11:0] $end
$var wire 1 J EX_taken $end
$var wire 1 G F_BP_taken $end
$var wire 12 G# F_BP_target_pc [11:0] $end
$var wire 1 4 MEM_stall $end
$var wire 1 & clk $end
$var wire 1 ( rst $end
$var wire 1 + stall_D $end
$var wire 12 H# F_pc [11:0] $end
$var wire 32 I# F_inst [31:0] $end
$var wire 12 J# D_pc [11:0] $end
$var wire 32 K# D_inst [31:0] $end
$var parameter 32 L# NOP $end
$var parameter 32 M# PC_BITS $end
$var parameter 32 N# XLEN $end
$var reg 1 O# d_bp_taken $end
$var reg 12 P# d_bp_target_pc [11:0] $end
$var reg 32 Q# d_inst [31:0] $end
$var reg 12 R# d_pc [11:0] $end
$upscope $end
$scope module u_icache $end
$var wire 1 & clk $end
$var wire 1 ( rst $end
$var wire 2 S# pc_word [1:0] $end
$var wire 12 T# pc_line [11:0] $end
$var wire 12 U# F_pc [11:0] $end
$var wire 1 C F_mem_valid $end
$var wire 128 V# F_mem_inst [127:0] $end
$var parameter 32 W# PC_BITS $end
$var reg 32 X# F_inst [31:0] $end
$var reg 1 A F_stall $end
$var reg 10 Y# Ic_mem_addr [9:0] $end
$var reg 1 ? Ic_mem_req $end
$var reg 2 Z# fifo_ptr [1:0] $end
$var reg 1 [# hit $end
$var reg 2 \# hit_idx [1:0] $end
$var reg 10 ]# miss_line [9:0] $end
$var integer 32 ^# i [31:0] $end
$upscope $end
$scope module u_mem_to_wb_reg $end
$var wire 32 _# MEM_data_mem [31:0] $end
$var wire 5 `# MEM_rd [4:0] $end
$var wire 1 1 MEM_we $end
$var wire 1 & clk $end
$var wire 1 ( rst $end
$var wire 1 - WB_we $end
$var wire 5 a# WB_rd [4:0] $end
$var wire 32 b# WB_data_mem [31:0] $end
$var parameter 32 c# XLEN $end
$var reg 32 d# wb_data_mem_r [31:0] $end
$var reg 5 e# wb_rd_r [4:0] $end
$var reg 1 - wb_we_r $end
$upscope $end
$scope module u_pc $end
$var wire 12 f# EX_alt_pc [11:0] $end
$var wire 1 J EX_taken $end
$var wire 12 g# F_BP_target_pc [11:0] $end
$var wire 1 & clk $end
$var wire 1 ( rst $end
$var wire 1 + stall_D $end
$var parameter 32 h# PCLEN $end
$var parameter 12 i# RESET_PC $end
$var reg 12 j# F_pc [11:0] $end
$upscope $end
$scope module u_regfile $end
$var wire 32 k# D_a2 [31:0] $end
$var wire 1 o D_addi $end
$var wire 32 l# D_b2 [31:0] $end
$var wire 1 k D_brn $end
$var wire 11 m# D_imd [10:0] $end
$var wire 1 g D_ld $end
$var wire 12 n# D_pc [11:0] $end
$var wire 5 o# D_ra [4:0] $end
$var wire 5 p# D_rb [4:0] $end
$var wire 1 ` D_str $end
$var wire 2 q# EX_D_bp [1:0] $end
$var wire 32 r# EX_alu_out [31:0] $end
$var wire 2 s# MEM_D_bp [1:0] $end
$var wire 32 t# MEM_data_mem [31:0] $end
$var wire 2 u# WB_D_bp [1:0] $end
$var wire 32 v# WB_data_mem [31:0] $end
$var wire 5 w# WB_rd [4:0] $end
$var wire 1 - WB_we $end
$var wire 1 & clk $end
$var wire 32 x# ra_raw [31:0] $end
$var wire 32 y# rb_raw [31:0] $end
$var wire 32 z# rb_fwd [31:0] $end
$var wire 32 {# ra_fwd [31:0] $end
$var wire 32 |# pc_extended [31:0] $end
$var wire 32 }# offset [31:0] $end
$var wire 32 ~# D_b [31:0] $end
$var wire 32 !$ D_a [31:0] $end
$var parameter 32 "$ ADDR_SIZE $end
$var parameter 32 #$ REG_NUM $end
$var parameter 32 $$ XLEN $end
$var integer 32 %$ i [31:0] $end
$upscope $end
$scope module u_unified_mem $end
$var wire 10 &$ Dc_mem_addr [9:0] $end
$var wire 1 ] Dc_mem_req $end
$var wire 10 '$ Dc_wb_addr [9:0] $end
$var wire 1 [ Dc_wb_we $end
$var wire 128 ($ Dc_wb_wline [127:0] $end
$var wire 10 )$ Ic_mem_addr [9:0] $end
$var wire 1 ? Ic_mem_req $end
$var wire 1 & clk $end
$var wire 1 ( rst $end
$var parameter 32 *$ LATENCY $end
$var parameter 32 +$ XLEN $end
$var reg 2 ,$ D_counter [1:0] $end
$var reg 10 -$ D_saved_line [9:0] $end
$var reg 128 .$ F_mem_inst [127:0] $end
$var reg 1 C F_mem_valid $end
$var reg 2 /$ I_counter [1:0] $end
$var reg 10 0$ I_saved_line [9:0] $end
$var reg 128 1$ MEM_data_line [127:0] $end
$var reg 1 6 MEM_mem_valid $end
$var integer 32 2$ i [31:0] $end
$var integer 32 3$ j [31:0] $end
$upscope $end
$upscope $end
$scope begin run_loop $end
$upscope $end
$upscope $end
$enddefinitions $end
$comment Show the parameter values. $end
$dumpall
b100000 +$
b11 *$
b100000 $$
b100000 #$
b101 "$
b0 i#
b1100 h#
b100000 c#
b1100 W#
b100000 N#
b1100 M#
b100000000000000000000000000000 L#
b100000 ?#
b100000 6#
b0 5#
b10 4#
b11 3#
b1 2#
b100 1#
b1 0#
b1100 /#
b111 .#
b110 -#
b11 ,#
b101 +#
b1110 *#
b1001 )#
b1011 (#
b1010 '#
b1101 &#
b10 %#
b1000 $#
b0 ##
b100000 k"
b100000 X"
b1100 W"
b1100 C"
b11 B"
b1000 A"
b100000 9"
b101 8"
b1100 7"
b100000 /"
b100 ."
b101 -"
b100000 x
b0 w
b100000 v
b1100 u
b101 t
b100000 %
b100000 $
b1100 #
b10110 "
b101 !
$end
#0
$dumpvars
b100 3$
b10000000000 2$
bx 1$
bx 0$
bx /$
bx .$
bx -$
bx ,$
b0 )$
bx ($
bx '$
b0xxxxxxxxx &$
b100000 %$
bx !$
bx ~#
bx }#
bx |#
bx {#
bx z#
bx y#
bx x#
bx w#
bx v#
bx u#
bx t#
bx s#
bx r#
bx q#
bx p#
bx o#
bx n#
bx m#
bx l#
bx k#
b0 j#
b0 g#
bx f#
bx e#
bx d#
bx b#
bx a#
bx `#
bx _#
bx ^#
bx ]#
b0 \#
0[#
bx Z#
b0 Y#
b100000000000000000000000000000 X#
bx V#
b0 U#
b0 T#
b0 S#
bx R#
bx Q#
bx P#
xO#
bx K#
bx J#
b100000000000000000000000000000 I#
b0 H#
b0 G#
bx F#
xE#
bx D#
xC#
bx B#
bx A#
bx @#
bx >#
bx =#
bx <#
bx ;#
bx :#
bx 9#
bx 8#
bx 7#
bx "#
bx !#
bx ~"
bx }"
bx |"
bx {"
bx z"
xy"
xx"
xw"
xv"
xu"
bx t"
bx s"
b0 r"
0q"
bx p"
bx o"
bx n"
bx m"
b0xxxxxxxxx l"
bx j"
bx i"
bx h"
b0xxxxxxxxx g"
bx f"
b0xxxxxxxxxxx e"
xd"
xc"
bx b"
xa"
x`"
bx _"
x^"
bx ]"
bx \"
bx ["
bx Z"
bx Y"
bx V"
bx U"
bx T"
bx S"
bx R"
bx Q"
bx P"
bx O"
bx N"
bx M"
bx L"
bx K"
bx J"
bx I"
b1000 H"
b0 G"
0F"
bx E"
xD"
b0 @"
b0 ?"
0>"
bx ="
bx <"
bx ;"
bx :"
bx 6"
bx 5"
bx 4"
bx 3"
bx 2"
bx 1"
bx 0"
bx ,"
bx +"
bx *"
bx )"
bx ("
bx '"
bx &"
bx %"
bx $"
bx #"
x""
x!"
x~
x}
x|
x{
xz
xy
xs
bx r
bx q
bx p
xo
bx n
bx m
bx l
xk
xj
bx i
bx h
xg
xf
bx e
bx d
bx c
bx b
bx a
x`
x_
b0xxxxxxxxx ^
0]
bx \
x[
bx Z
xY
bx X
bx W
bx V
bx U
bx T
bx S
bx R
bx Q
xP
xO
xN
xM
bx L
xK
xJ
xI
xH
0G
b0 F
b100000000000000000000000000000 E
bx D
xC
b0 B
1A
b0 @
x?
bx >
bx =
bx <
bx ;
x:
bx 9
bx 8
x7
x6
bx 5
04
x3
x2
x1
bx 0
bx /
bx .
x-
b1 ,
x+
bx *
bx )
1(
bx '
0&
$end
#5000
b0 q
b0 U"
b0 !$
b0 l
b0 Q"
b0 l#
b0 z#
b0 p
b0 T"
b0 k#
b0 {#
b0 m
b0 R"
b0 ~#
0v"
0w"
0u"
0x"
0g
0`
0j
1_
b0 n
b0 S"
b0 "#
b0 W
b0 )"
b0 q#
b0 <"
b0 f#
b0 ^
b0 l"
b0 &$
b0 g"
b0 f"
b0 }#
b0 i
b0 !#
b0 m#
b0 a
b0 *"
b0 P"
b0 z"
b0 y#
b0 b
b0 +"
b0 {"
b0 p#
b0 x#
b0 c
b0 ,"
b0 |"
b0 o#
0k
0y"
0f
1o
b1000 e
b1000 }"
b0 |#
0+
0}
0z
0y
b0 ="
b0 ;"
0I
0J
b0 S
b0 ("
b0 :"
b0 8#
b0 r#
b0 E"
1D"
1F"
0d"
0|
b0 >
b0 &"
b0 s#
0{
b0 e"
1?
1A
b0 8
b0 o"
b0 _#
b0 t#
0!"
b0 0
b0 $"
b0 u#
0~
b0 ]#
b0 Z#
b0 r
b0 V"
b0 F#
b0 P#
0s
0O#
b100000000000000000000000000000 h
b100000000000000000000000000000 ~"
b100000000000000000000000000000 K#
b100000000000000000000000000000 Q#
b0 d
b0 J#
b0 R#
b0 n#
0""
b0 0"
b0 X
b0 6"
b0 I"
b0 _"
0M
0H
0O
0a"
0K
0c"
0N
b0 L
b0 '"
b0 N"
b0 b"
b0 :#
0Y
0^"
0P
0`"
b0 T
b0 3"
b0 K"
b0 ["
b0 Q
b0 1"
b0 M"
b0 9#
b0 \"
b0 R
b0 2"
b0 L"
b0 ]"
b0 U
b0 4"
b0 J"
b0 7#
b0 Y"
b0 V
b0 5"
b0 O"
b0 Z"
0:
0C#
03
07
01
b0 5
b0 %"
b0 =#
b0 D#
b0 `#
b0 =
b0 ;#
b0 @#
b0 ;
b0 i"
b0 <#
b0 B#
02
0E#
b0 <
b0 j"
b0 >#
b0 A#
b0 Z
b0 n"
b0 ($
b0 \
b0 m"
b0 '$
0[
b0 s"
b0 p"
b0 /$
0C
b0 ,$
06
0-
b0 .
b0 #"
b0 a#
b0 e#
b0 w#
b0 /
b0 b#
b0 d#
b0 v#
b100 ^#
b1000 H"
b100 t"
1&
#10000
0&
#15000
b100 t"
b1000 H"
b100 ^#
1&
#20000
0&
#25000
0(
b100 ^#
b1000 H"
b100 t"
b0 )
1&
#30000
0&
#35000
b11 W
b11 )"
b11 q#
1z
1y
b11 /$
b0 0$
1H
b100000000000000000000000000000 '
b1 )
1&
#40000
0&
#45000
1|
b11 >
b11 &"
b11 s#
1{
11
b10 /$
b10 )
1&
#50000
0&
#55000
1!"
b11 0
b11 $"
b11 u#
1~
1-
b1 /$
b11 )
1&
#60000
0&
#65000
0?
1A
1C
b100000001000010000100000000001000000000000000000001000000000000010000001000010000100000000000100100000011000110001100000001010 D
b100000001000010000100000000001000000000000000000001000000000000010000001000010000100000000000100100000011000110001100000001010 V#
b100000001000010000100000000001000000000000000000001000000000000010000001000010000100000000000100100000011000110001100000001010 .$
b0 /$
b100 )
1&
#70000
0&
#75000
b1 F
b1 @"
b1 G#
b1 g#
b100000011000110001100000001010 E
b100000011000110001100000001010 I#
b100000011000110001100000001010 X#
1[#
b100 ^#
0A
0C
b1 Z#
b101 )
1&
#80000
0&
#85000
b0 W
b0 )"
b0 q#
b1010 m
b1010 R"
b1010 ~#
0!"
0|
0z
b0 0
b0 $"
b0 u#
0~
b0 >
b0 &"
b0 s#
0{
0y
b100 ^#
b100000010000100001000000000001 E
b100000010000100001000000000001 I#
b100000010000100001000000000001 X#
1[#
b1010 }#
b1010 i
b1010 !#
b1010 m#
b11 a
b11 *"
b11 P"
b11 z"
b11 b
b11 +"
b11 {"
b11 p#
b11 c
b11 ,"
b11 |"
b11 o#
b1 S#
b10 F
b10 @"
b10 G#
b10 g#
b1000 H"
0F"
b1 r
b1 V"
b1 F#
b1 P#
b100000011000110001100000001010 h
b100000011000110001100000001010 ~"
b100000011000110001100000001010 K#
b100000011000110001100000001010 Q#
b10 ,
b1 B
b1 ?"
b1 H#
b1 U#
b1 j#
b100000011000110001100000001010 '
b110 )
1&
#90000
0&
#95000
b1010 <"
b1010 f#
b1 m
b1 R"
b1 ~#
b100 ^#
b100000000000 E
b100000000000 I#
b100000000000 X#
1[#
b1010 S
b1010 ("
b1010 :"
b1010 8#
b1010 r#
b1 }#
b1 i
b1 !#
b1 m#
b10 a
b10 *"
b10 P"
b10 z"
b10 b
b10 +"
b10 {"
b10 p#
b10 c
b10 ,"
b10 |"
b10 o#
b1 |#
b10 S#
b11 F
b11 @"
b11 G#
b11 g#
b1000 H"
b1 X
b1 6"
b1 I"
b1 _"
b11 L
b11 '"
b11 N"
b11 b"
b11 :#
b1010 R
b1010 2"
b1010 L"
b1010 ]"
b10 r
b10 V"
b10 F#
b10 P#
b100000010000100001000000000001 h
b100000010000100001000000000001 ~"
b100000010000100001000000000001 K#
b100000010000100001000000000001 Q#
b1 d
b1 J#
b1 R#
b1 n#
b11 ,
b10 B
b10 ?"
b10 H#
b10 U#
b10 j#
b100000010000100001000000000001 '
b111 )
1&
#100000
0&
#105000
b0 q
b0 U"
b0 !$
b0 l
b0 Q"
b0 l#
b0 z#
b0 p
b0 T"
b0 k#
b0 {#
b10 ^
b10 l"
b10 &$
b0 m
b0 R"
b0 ~#
1!"
b11 0
b11 $"
b11 u#
1~
b0 W
b0 )"
b0 q#
b1 <"
b1 f#
b10 g"
b10 f"
b100 ^#
b100000001000010000100000000001 E
b100000001000010000100000000001 I#
b100000001000010000100000000001 X#
1[#
b0 }#
b0 i
b0 !#
b0 m#
b1 a
b1 *"
b1 P"
b1 z"
b0 b
b0 +"
b0 {"
b0 p#
b0 c
b0 ,"
b0 |"
b0 o#
0o
b0 e
b0 }"
b10 |#
0z
0y
b1 S
b1 ("
b1 :"
b1 8#
b1 r#
b1010 e"
b1010 8
b1010 o"
b1010 _#
b1010 t#
b11 S#
b100 F
b100 @"
b100 G#
b100 g#
b1000 H"
b11 r
b11 V"
b11 F#
b11 P#
b100000000000 h
b100000000000 ~"
b100000000000 K#
b100000000000 Q#
b10 d
b10 J#
b10 R#
b10 n#
b10 X
b10 6"
b10 I"
b10 _"
b10 L
b10 '"
b10 N"
b10 b"
b10 :#
b1 R
b1 2"
b1 L"
b1 ]"
b11 5
b11 %"
b11 =#
b11 D#
b11 `#
b1010 <
b1010 j"
b1010 >#
b1010 A#
b100 ,
b11 B
b11 ?"
b11 H#
b11 U#
b11 j#
b100000000000 '
b1000 )
1&
#110000
0&
#115000
b0 q
b0 U"
b0 !$
b1 m
b1 R"
b1 ~#
b0 p
b0 T"
b0 k#
b0 {#
b0 l
b0 Q"
b0 l#
b0 z#
b0 ^
b0 l"
b0 &$
b11 W
b11 )"
b11 q#
b0 g"
b1 f"
b0 <"
b0 f#
1z
1y
1?
1A
b100 ^#
b1 @
b1 Y#
b1 )$
b100000000000000000000000000000 E
b100000000000000000000000000000 I#
b100000000000000000000000000000 X#
0[#
0!"
b0 0
b0 $"
b0 u#
0~
b1 e"
b1 8
b1 o"
b1 _#
b1 t#
b0 S
b0 ("
b0 :"
b0 8#
b0 r#
b1 }#
b1 i
b1 !#
b1 m#
b1 b
b1 +"
b1 {"
b1 p#
b1 c
b1 ,"
b1 |"
b1 o#
1o
b1000 e
b1000 }"
b11 |#
b0 S#
b1 T#
b100 F
b100 @"
b100 G#
b100 g#
b1000 H"
b11 .
b11 #"
b11 a#
b11 e#
b11 w#
b1010 /
b1010 b#
b1010 d#
b1010 v#
b10 5
b10 %"
b10 =#
b10 D#
b10 `#
b1 <
b1 j"
b1 >#
b1 A#
b11 X
b11 6"
b11 I"
b11 _"
b1 L
b1 '"
b1 N"
b1 b"
b1 :#
b0 R
b0 2"
b0 L"
b0 ]"
b100 r
b100 V"
b100 F#
b100 P#
b100000001000010000100000000001 h
b100000001000010000100000000001 ~"
b100000001000010000100000000001 K#
b100000001000010000100000000001 Q#
b11 d
b11 J#
b11 R#
b11 n#
b101 ,
b100 B
b100 ?"
b100 H#
b100 U#
b100 j#
b100000001000010000100000000001 '
b1001 )
1&
#120000
0&
#125000
b0 W
b0 )"
b0 q#
b0 q
b0 U"
b0 !$
b0 m
b0 R"
b0 ~#
0z
0y
b0 p
b0 T"
b0 k#
b0 {#
b0 l
b0 Q"
b0 l#
b0 z#
b1 <"
b1 f#
b0 f"
b0 }#
b0 i
b0 !#
b0 m#
b0 a
b0 *"
b0 P"
b0 z"
b0 b
b0 +"
b0 {"
b0 p#
b0 c
b0 ,"
b0 |"
b0 o#
b100 |#
b1 S
b1 ("
b1 :"
b1 8#
b1 r#
0|
b0 >
b0 &"
b0 s#
0{
b0 e"
b0 8
b0 o"
b0 _#
b0 t#
b1 ]#
b100000000000000000000000000000 h
b100000000000000000000000000000 ~"
b100000000000000000000000000000 K#
b100000000000000000000000000000 Q#
b100 d
b100 J#
b100 R#
b100 n#
b100 X
b100 6"
b100 I"
b100 _"
b1 R
b1 2"
b1 L"
b1 ]"
b1 5
b1 %"
b1 =#
b1 D#
b1 `#
b0 <
b0 j"
b0 >#
b0 A#
b11 /$
b1 0$
b10 .
b10 #"
b10 a#
b10 e#
b10 w#
b1 /
b1 b#
b1 d#
b1 v#
b100000000000000000000000000000 '
b1010 )
1&
#130000
0&
