rtl/cpu_run_tb.vcd
$date
	Mon Nov 24 19:34:47 2025
$end
$version
	Icarus Verilog
$end
$timescale
	1ps
$end
$scope module cpu_run_tb $end
$var parameter 32 ! ADDR_SIZE $end
$var parameter 32 " END_PC $end
$var parameter 32 # PC_BITS $end
$var parameter 32 $ REG_NUM $end
$var parameter 32 % XLEN $end
$var reg 1 & clk $end
$var reg 32 ' curr_inst [31:0] $end
$var reg 1 ( rst $end
$var integer 32 ) cycles [31:0] $end
$var integer 32 * i [31:0] $end
$scope module dut $end
$var wire 1 + EX_jmp $end
$var wire 1 & clk $end
$var wire 1 ( rst $end
$var wire 1 , stall_D $end
$var wire 12 - pc_plus_1 [11:0] $end
$var wire 1 . WB_we $end
$var wire 5 / WB_rd [4:0] $end
$var wire 32 0 WB_data_mem [31:0] $end
$var wire 2 1 WB_D_bp [1:0] $end
$var wire 1 2 MEM_we $end
$var wire 1 3 MEM_taken $end
$var wire 1 4 MEM_str $end
$var wire 1 5 MEM_stall $end
$var wire 5 6 MEM_rd [4:0] $end
$var wire 1 7 MEM_mem_valid $end
$var wire 1 8 MEM_ld $end
$var wire 32 9 MEM_data_mem [31:0] $end
$var wire 128 : MEM_data_line [127:0] $end
$var wire 1 ; MEM_byt $end
$var wire 32 < MEM_b2 [31:0] $end
$var wire 32 = MEM_alu_out [31:0] $end
$var wire 32 > MEM_a2 [31:0] $end
$var wire 2 ? MEM_D_bp [1:0] $end
$var wire 1 @ Ic_mem_req $end
$var wire 10 A Ic_mem_addr [9:0] $end
$var wire 1 B F_stall $end
$var wire 12 C F_pc [11:0] $end
$var wire 1 D F_mem_valid $end
$var wire 128 E F_mem_inst [127:0] $end
$var wire 32 F F_inst [31:0] $end
$var wire 12 G F_BP_target_pc [11:0] $end
$var wire 1 H F_BP_taken $end
$var wire 1 I EX_we $end
$var wire 1 J EX_true_taken $end
$var wire 1 K EX_taken $end
$var wire 1 L EX_str $end
$var wire 5 M EX_rd [4:0] $end
$var wire 1 N EX_mul $end
$var wire 1 O EX_ld $end
$var wire 1 P EX_byt $end
$var wire 1 Q EX_brn $end
$var wire 32 R EX_b2 [31:0] $end
$var wire 32 S EX_b [31:0] $end
$var wire 32 T EX_alu_out [31:0] $end
$var wire 4 U EX_alu_op [3:0] $end
$var wire 32 V EX_a2 [31:0] $end
$var wire 32 W EX_a [31:0] $end
$var wire 2 X EX_D_bp [1:0] $end
$var wire 12 Y EX_BP_target_pc [11:0] $end
$var wire 1 Z EX_BP_taken $end
$var wire 128 [ Dc_wb_wline [127:0] $end
$var wire 1 \ Dc_wb_we $end
$var wire 10 ] Dc_wb_addr [9:0] $end
$var wire 1 ^ Dc_mem_req $end
$var wire 10 _ Dc_mem_addr [9:0] $end
$var wire 1 ` D_we $end
$var wire 1 a D_str $end
$var wire 5 b D_rd [4:0] $end
$var wire 5 c D_rb [4:0] $end
$var wire 5 d D_ra [4:0] $end
$var wire 12 e D_pc [11:0] $end
$var wire 6 f D_opc [5:0] $end
$var wire 1 g D_mul $end
$var wire 1 h D_ld $end
$var wire 1 i D_jmp $end
$var wire 32 j D_inst [31:0] $end
$var wire 11 k D_imd [10:0] $end
$var wire 1 l D_byt $end
$var wire 1 m D_brn $end
$var wire 32 n D_b2 [31:0] $end
$var wire 32 o D_b [31:0] $end
$var wire 4 p D_alu_op [3:0] $end
$var wire 1 q D_addi $end
$var wire 32 r D_a2 [31:0] $end
$var wire 32 s D_a [31:0] $end
$var wire 12 t D_BP_target_pc [11:0] $end
$var wire 1 u D_BP_taken $end
$var parameter 32 v ADDR_SIZE $end
$var parameter 32 w PC_BITS $end
$var parameter 32 x REG_NUM $end
$var parameter 12 y RESET_PC $end
$var parameter 32 z XLEN $end
$scope module u_Hazard_unit $end
$var wire 1 & clk $end
$var wire 1 { ex_hit_ra $end
$var wire 1 | ex_hit_rb $end
$var wire 1 } mem_hit_ra $end
$var wire 1 ~ mem_hit_rb $end
$var wire 1 !" mul_start $end
$var wire 1 ( rst $end
$var wire 1 , stall_D $end
$var wire 1 "" wb_hit_ra $end
$var wire 1 #" wb_hit_rb $end
$var wire 1 $" mul_stall $end
$var wire 1 . WB_we $end
$var wire 5 %" WB_rd [4:0] $end
$var wire 2 &" WB_D_bp [1:0] $end
$var wire 1 2 MEM_we $end
$var wire 5 '" MEM_rd [4:0] $end
$var wire 2 (" MEM_D_bp [1:0] $end
$var wire 1 I EX_we $end
$var wire 5 )" EX_rd [4:0] $end
$var wire 1 N EX_mul $end
$var wire 1 O EX_ld $end
$var wire 32 *" EX_alu_out [31:0] $end
$var wire 2 +" EX_D_bp [1:0] $end
$var wire 5 ," D_rd [4:0] $end
$var wire 5 -" D_rb [4:0] $end
$var wire 5 ." D_ra [4:0] $end
$var parameter 32 /" ADDR_SIZE $end
$var parameter 32 0" MUL_STALLS $end
$var parameter 32 1" XLEN $end
$var reg 3 2" mul_cnt [2:0] $end
$upscope $end
$scope module u_alu $end
$var wire 1 + EX_jmp $end
$var wire 1 Q EX_brn $end
$var wire 32 3" EX_b2 [31:0] $end
$var wire 32 4" EX_b [31:0] $end
$var wire 4 5" EX_alu_op [3:0] $end
$var wire 32 6" EX_a2 [31:0] $end
$var wire 32 7" EX_a [31:0] $end
$var wire 12 8" EX_BP_target_pc [11:0] $end
$var wire 1 Z EX_BP_taken $end
$var parameter 32 9" PC_BITS $end
$var parameter 32 :" SHW $end
$var parameter 32 ;" XLEN $end
$var reg 32 <" EX_alu_out [31:0] $end
$var reg 1 K EX_taken $end
$var reg 1 J EX_true_taken $end
$var reg 32 =" next_pc [31:0] $end
$upscope $end
$scope module u_branch_buffer $end
$var wire 12 >" EX_alu_out [11:0] $end
$var wire 12 ?" EX_pc [11:0] $end
$var wire 1 J EX_true_taken $end
$var wire 1 H F_BP_taken $end
$var wire 1 & clk $end
$var wire 1 ( rst $end
$var wire 1 @" taken_on_hit $end
$var wire 1 5 MEM_stall $end
$var wire 1 B F_stall $end
$var wire 12 A" F_pc [11:0] $end
$var wire 12 B" F_BP_target_pc [11:0] $end
$var wire 1 Q EX_brn $end
$var parameter 32 C" DEPTH $end
$var parameter 32 D" INDX $end
$var parameter 32 E" PC_BITS $end
$var reg 1 F" ex_hit $end
$var reg 3 G" ex_hit_idx [2:0] $end
$var reg 1 H" f_hit $end
$var reg 3 I" f_hit_idx [2:0] $end
$var integer 32 J" i [31:0] $end
$scope task fifo_insert_new $end
$upscope $end
$upscope $end
$scope module u_d_to_ex_reg $end
$var wire 1 Z EX_BP_taken $end
$var wire 12 K" EX_BP_target_pc [11:0] $end
$var wire 32 L" EX_a2 [31:0] $end
$var wire 4 M" EX_alu_op [3:0] $end
$var wire 32 N" EX_b [31:0] $end
$var wire 32 O" EX_b2 [31:0] $end
$var wire 1 Q EX_brn $end
$var wire 1 P EX_byt $end
$var wire 1 P" EX_jmp $end
$var wire 1 L EX_str $end
$var wire 1 K EX_taken $end
$var wire 1 & clk $end
$var wire 1 ( rst $end
$var wire 1 , stall_D $end
$var wire 1 5 MEM_stall $end
$var wire 1 I EX_we $end
$var wire 5 Q" EX_rd [4:0] $end
$var wire 1 N EX_mul $end
$var wire 1 O EX_ld $end
$var wire 32 R" EX_a [31:0] $end
$var wire 1 ` D_we $end
$var wire 1 a D_str $end
$var wire 5 S" D_rd [4:0] $end
$var wire 1 g D_mul $end
$var wire 1 h D_ld $end
$var wire 1 i D_jmp $end
$var wire 1 l D_byt $end
$var wire 1 m D_brn $end
$var wire 32 T" D_b2 [31:0] $end
$var wire 32 U" D_b [31:0] $end
$var wire 4 V" D_alu_op [3:0] $end
$var wire 32 W" D_a2 [31:0] $end
$var wire 32 X" D_a [31:0] $end
$var wire 12 Y" D_BP_target_pc [11:0] $end
$var wire 1 u D_BP_taken $end
$var parameter 32 Z" PC_BITS $end
$var parameter 32 [" XLEN $end
$var reg 32 \" ex_a2_r [31:0] $end
$var reg 32 ]" ex_a_r [31:0] $end
$var reg 4 ^" ex_alu_op_r [3:0] $end
$var reg 32 _" ex_b2_r [31:0] $end
$var reg 32 `" ex_b_r [31:0] $end
$var reg 1 a" ex_bp_taken_r $end
$var reg 12 b" ex_bp_target_pc_r [11:0] $end
$var reg 1 c" ex_brn_r $end
$var reg 1 d" ex_byt_r $end
$var reg 1 e" ex_jmp_r $end
$var reg 1 O ex_ld_r $end
$var reg 1 N ex_mul_r $end
$var reg 5 f" ex_rd_r [4:0] $end
$var reg 1 g" ex_str_r $end
$var reg 1 I ex_we_r $end
$upscope $end
$scope module u_dcache $end
$var wire 1 & clk $end
$var wire 1 h" op_active $end
$var wire 1 ( rst $end
$var wire 12 i" addr_word [11:0] $end
$var wire 2 j" addr_off [1:0] $end
$var wire 10 k" addr_line [9:0] $end
$var wire 1 4 MEM_str $end
$var wire 1 7 MEM_mem_valid $end
$var wire 1 8 MEM_ld $end
$var wire 128 l" MEM_data_line [127:0] $end
$var wire 1 ; MEM_byt $end
$var wire 32 m" MEM_b2 [31:0] $end
$var wire 32 n" MEM_alu_out [31:0] $end
$var parameter 32 o" XLEN $end
$var reg 10 p" Dc_mem_addr [9:0] $end
$var reg 1 ^ Dc_mem_req $end
$var reg 10 q" Dc_wb_addr [9:0] $end
$var reg 1 \ Dc_wb_we $end
$var reg 128 r" Dc_wb_wline [127:0] $end
$var reg 32 s" MEM_data_mem [31:0] $end
$var reg 1 5 MEM_stall $end
$var reg 2 t" fifo_ptr [1:0] $end
$var reg 1 u" hit $end
$var reg 2 v" hit_idx [1:0] $end
$var reg 10 w" miss_line [9:0] $end
$var integer 32 x" i [31:0] $end
$upscope $end
$scope module u_decode $end
$var wire 1 m D_brn $end
$var wire 1 i D_jmp $end
$var wire 1 ` D_we $end
$var wire 1 & clk $end
$var wire 1 y" is_beq $end
$var wire 1 z" is_bgt $end
$var wire 1 {" is_blt $end
$var wire 1 |" is_jmp $end
$var wire 1 }" is_ctrl $end
$var wire 1 a D_str $end
$var wire 5 ~" D_rd [4:0] $end
$var wire 5 !# D_rb [4:0] $end
$var wire 5 "# D_ra [4:0] $end
$var wire 6 ## D_opc [5:0] $end
$var wire 1 g D_mul $end
$var wire 1 h D_ld $end
$var wire 32 $# D_inst [31:0] $end
$var wire 11 %# D_imd [10:0] $end
$var wire 1 l D_byt $end
$var wire 4 &# D_alu_op [3:0] $end
$var wire 1 q D_addi $end
$var parameter 6 '# OPC_ADD $end
$var parameter 6 (# OPC_ADDI $end
$var parameter 6 )# OPC_AND $end
$var parameter 6 *# OPC_CTRL $end
$var parameter 6 +# OPC_GT $end
$var parameter 5 ,# OPC_LOAD $end
$var parameter 6 -# OPC_LT $end
$var parameter 6 .# OPC_MUL $end
$var parameter 6 /# OPC_NOT $end
$var parameter 6 0# OPC_OR $end
$var parameter 6 1# OPC_SHL $end
$var parameter 6 2# OPC_SHR $end
$var parameter 5 3# OPC_STORE $end
$var parameter 6 4# OPC_SUB $end
$var parameter 6 5# OPC_XOR $end
$var parameter 5 6# RD_BEQ $end
$var parameter 5 7# RD_BGT $end
$var parameter 5 8# RD_BLT $end
$var parameter 5 9# RD_JMP $end
$var parameter 32 :# XLEN $end
$upscope $end
$scope module u_ex_to_mem_reg $end
$var wire 32 ;# EX_a2 [31:0] $end
$var wire 32 <# EX_alu_out [31:0] $end
$var wire 32 =# EX_b2 [31:0] $end
$var wire 1 P EX_byt $end
$var wire 1 O EX_ld $end
$var wire 5 ># EX_rd [4:0] $end
$var wire 1 L EX_str $end
$var wire 1 K EX_taken $end
$var wire 1 I EX_we $end
$var wire 32 ?# MEM_a2 [31:0] $end
$var wire 32 @# MEM_b2 [31:0] $end
$var wire 1 ; MEM_byt $end
$var wire 1 5 MEM_stall $end
$var wire 1 3 MEM_taken $end
$var wire 1 & clk $end
$var wire 1 ( rst $end
$var wire 1 2 MEM_we $end
$var wire 1 4 MEM_str $end
$var wire 5 A# MEM_rd [4:0] $end
$var wire 1 8 MEM_ld $end
$var wire 32 B# MEM_alu_out [31:0] $end
$var parameter 32 C# XLEN $end
$var reg 32 D# mem_a2_r [31:0] $end
$var reg 32 E# mem_alu_out_r [31:0] $end
$var reg 32 F# mem_b2_r [31:0] $end
$var reg 1 G# mem_byt_r $end
$var reg 1 8 mem_ld_r $end
$var reg 5 H# mem_rd_r [4:0] $end
$var reg 1 4 mem_str_r $end
$var reg 1 I# mem_taken_r $end
$var reg 1 2 mem_we_r $end
$upscope $end
$scope module u_f2d $end
$var wire 1 u D_BP_taken $end
$var wire 12 J# D_BP_target_pc [11:0] $end
$var wire 1 K EX_taken $end
$var wire 1 H F_BP_taken $end
$var wire 12 K# F_BP_target_pc [11:0] $end
$var wire 1 5 MEM_stall $end
$var wire 1 & clk $end
$var wire 1 ( rst $end
$var wire 1 , stall_D $end
$var wire 12 L# F_pc [11:0] $end
$var wire 32 M# F_inst [31:0] $end
$var wire 12 N# D_pc [11:0] $end
$var wire 32 O# D_inst [31:0] $end
$var parameter 32 P# NOP $end
$var parameter 32 Q# PC_BITS $end
$var parameter 32 R# XLEN $end
$var reg 1 S# d_bp_taken $end
$var reg 12 T# d_bp_target_pc [11:0] $end
$var reg 32 U# d_inst [31:0] $end
$var reg 12 V# d_pc [11:0] $end
$upscope $end
$scope module u_icache $end
$var wire 1 & clk $end
$var wire 1 ( rst $end
$var wire 2 W# pc_word [1:0] $end
$var wire 12 X# pc_line [11:0] $end
$var wire 12 Y# F_pc [11:0] $end
$var wire 1 D F_mem_valid $end
$var wire 128 Z# F_mem_inst [127:0] $end
$var parameter 32 [# PC_BITS $end
$var reg 32 \# F_inst [31:0] $end
$var reg 1 B F_stall $end
$var reg 10 ]# Ic_mem_addr [9:0] $end
$var reg 1 @ Ic_mem_req $end
$var reg 2 ^# fifo_ptr [1:0] $end
$var reg 1 _# hit $end
$var reg 2 `# hit_idx [1:0] $end
$var reg 10 a# miss_line [9:0] $end
$var integer 32 b# i [31:0] $end
$upscope $end
$scope module u_mem_to_wb_reg $end
$var wire 32 c# MEM_data_mem [31:0] $end
$var wire 5 d# MEM_rd [4:0] $end
$var wire 1 2 MEM_we $end
$var wire 1 & clk $end
$var wire 1 ( rst $end
$var wire 1 . WB_we $end
$var wire 5 e# WB_rd [4:0] $end
$var wire 32 f# WB_data_mem [31:0] $end
$var parameter 32 g# XLEN $end
$var reg 32 h# wb_data_mem_r [31:0] $end
$var reg 5 i# wb_rd_r [4:0] $end
$var reg 1 . wb_we_r $end
$upscope $end
$scope module u_pc $end
$var wire 12 j# EX_alt_pc [11:0] $end
$var wire 1 K EX_taken $end
$var wire 12 k# F_BP_target_pc [11:0] $end
$var wire 1 & clk $end
$var wire 1 ( rst $end
$var wire 1 , stall_D $end
$var parameter 32 l# PCLEN $end
$var parameter 12 m# RESET_PC $end
$var reg 12 n# F_pc [11:0] $end
$upscope $end
$scope module u_regfile $end
$var wire 32 o# D_a2 [31:0] $end
$var wire 1 q D_addi $end
$var wire 32 p# D_b2 [31:0] $end
$var wire 1 m D_brn $end
$var wire 11 q# D_imd [10:0] $end
$var wire 1 i D_jmp $end
$var wire 1 h D_ld $end
$var wire 1 g D_mul $end
$var wire 12 r# D_pc [11:0] $end
$var wire 5 s# D_ra [4:0] $end
$var wire 5 t# D_rb [4:0] $end
$var wire 1 a D_str $end
$var wire 2 u# EX_D_bp [1:0] $end
$var wire 32 v# EX_alu_out [31:0] $end
$var wire 2 w# MEM_D_bp [1:0] $end
$var wire 32 x# MEM_data_mem [31:0] $end
$var wire 2 y# WB_D_bp [1:0] $end
$var wire 32 z# WB_data_mem [31:0] $end
$var wire 5 {# WB_rd [4:0] $end
$var wire 1 . WB_we $end
$var wire 1 & clk $end
$var wire 32 |# ra_raw [31:0] $end
$var wire 32 }# rb_raw [31:0] $end
$var wire 32 ~# rb_fwd [31:0] $end
$var wire 32 !$ ra_fwd [31:0] $end
$var wire 32 "$ pc_extended [31:0] $end
$var wire 32 #$ offset [31:0] $end
$var wire 32 $$ D_b [31:0] $end
$var wire 32 %$ D_a [31:0] $end
$var parameter 32 &$ ADDR_SIZE $end
$var parameter 32 '$ REG_NUM $end
$var parameter 32 ($ XLEN $end
$var integer 32 )$ i [31:0] $end
$upscope $end
$scope module u_unified_mem $end
$var wire 10 *$ Dc_mem_addr [9:0] $end
$var wire 1 ^ Dc_mem_req $end
$var wire 10 +$ Dc_wb_addr [9:0] $end
$var wire 1 \ Dc_wb_we $end
$var wire 128 ,$ Dc_wb_wline [127:0] $end
$var wire 10 -$ Ic_mem_addr [9:0] $end
$var wire 1 @ Ic_mem_req $end
$var wire 1 & clk $end
$var wire 1 ( rst $end
$var parameter 32 .$ LATENCY $end
$var parameter 32 /$ XLEN $end
$var reg 2 0$ D_counter [1:0] $end
$var reg 10 1$ D_saved_line [9:0] $end
$var reg 128 2$ F_mem_inst [127:0] $end
$var reg 1 D F_mem_valid $end
$var reg 2 3$ I_counter [1:0] $end
$var reg 10 4$ I_saved_line [9:0] $end
$var reg 128 5$ MEM_data_line [127:0] $end
$var reg 1 7 MEM_mem_valid $end
$var integer 32 6$ i [31:0] $end
$var integer 32 7$ j [31:0] $end
$upscope $end
$upscope $end
$scope begin run_loop $end
$upscope $end
$upscope $end
$enddefinitions $end
$comment Show the parameter values. $end
$dumpall
b100000 /$
b11 .$
b100000 ($
b100000 '$
b101 &$
b0 m#
b1100 l#
b100000 g#
b1100 [#
b100000 R#
b1100 Q#
b100000000000000000000000000000 P#
b100000 C#
b100000 :#
b0 9#
b10 8#
b11 7#
b1 6#
b100 5#
b1 4#
b1100 3#
b111 2#
b110 1#
b11 0#
b101 /#
b1110 .#
b1001 -#
b1011 ,#
b1010 +#
b1101 *#
b10 )#
b1000 (#
b0 '#
b100000 o"
b100000 ["
b1100 Z"
b1100 E"
b11 D"
b1000 C"
b100000 ;"
b101 :"
b1100 9"
b100000 1"
b100 0"
b101 /"
b100000 z
b0 y
b100000 x
b1100 w
b101 v
b100000 %
b100000 $
b1100 #
b10110 "
b101 !
$end
#0
$dumpvars
b100 7$
b10000000000 6$
bx 5$
bx 4$
bx 3$
bx 2$
bx 1$
bx 0$
b0 -$
bx ,$
bx +$
b0xxxxxxxxx *$
b100000 )$
bx %$
bx $$
bx #$
bx "$
bx !$
bx ~#
bx }#
bx |#
bx {#
bx z#
bx y#
bx x#
bx w#
bx v#
bx u#
bx t#
bx s#
bx r#
bx q#
bx p#
bx o#
b0 n#
b0 k#
bx j#
bx i#
bx h#
bx f#
bx e#
bx d#
bx c#
bx b#
bx a#
b0 `#
0_#
bx ^#
b0 ]#
b100000000000000000000000000000 \#
bx Z#
b0 Y#
b0 X#
b0 W#
bx V#
bx U#
bx T#
xS#
bx O#
bx N#
b100000000000000000000000000000 M#
b0 L#
b0 K#
bx J#
xI#
bx H#
xG#
bx F#
bx E#
bx D#
bx B#
bx A#
bx @#
bx ?#
bx >#
bx =#
bx <#
bx ;#
bx &#
bx %#
bx $#
bx ##
bx "#
bx !#
bx ~"
x}"
x|"
x{"
xz"
xy"
bx x"
bx w"
b0 v"
0u"
bx t"
bx s"
bx r"
bx q"
b0xxxxxxxxx p"
bx n"
bx m"
bx l"
b0xxxxxxxxx k"
bx j"
b0xxxxxxxxxxx i"
xh"
xg"
bx f"
xe"
xd"
xc"
bx b"
xa"
bx `"
bx _"
bx ^"
bx ]"
bx \"
bx Y"
bx X"
bx W"
bx V"
bx U"
bx T"
bx S"
bx R"
bx Q"
xP"
bx O"
bx N"
bx M"
bx L"
bx K"
b1000 J"
b0 I"
0H"
bx G"
xF"
b0 B"
b0 A"
0@"
bx ?"
bx >"
b0 ="
bx <"
bx 8"
bx 7"
bx 6"
bx 5"
bx 4"
bx 3"
bx 2"
bx ."
bx -"
bx ,"
bx +"
bx *"
bx )"
bx ("
bx '"
bx &"
bx %"
x$"
x#"
x""
x!"
x~
x}
x|
x{
xu
bx t
bx s
bx r
xq
bx p
bx o
bx n
xm
xl
bx k
bx j
xi
xh
xg
bx f
bx e
bx d
bx c
bx b
xa
x`
b0xxxxxxxxx _
0^
bx ]
x\
bx [
xZ
bx Y
bx X
bx W
bx V
bx U
bx T
bx S
bx R
xQ
xP
xO
xN
bx M
xL
0K
0J
xI
0H
b0 G
b100000000000000000000000000000 F
bx E
xD
b0 C
1B
b0 A
x@
bx ?
bx >
bx =
bx <
x;
bx :
bx 9
x8
x7
bx 6
05
x4
x3
x2
bx 1
bx 0
bx /
x.
b1 -
x,
z+
bx *
bx )
1(
bx '
0&
$end
#5000
b0 s
b0 X"
b0 %$
b0 n
b0 T"
b0 p#
b0 ~#
b0 r
b0 W"
b0 o#
b0 !$
b0 o
b0 U"
b0 $$
0z"
0{"
0y"
0i
0|"
0h
0a
0l
1`
b0 p
b0 V"
b0 &#
b0 X
b0 +"
b0 u#
b0 >"
b0 j#
b0 _
b0 p"
b0 *$
b0 k"
b0 j"
b0 #$
b0 k
b0 %#
b0 q#
b0 b
b0 ,"
b0 S"
b0 ~"
b0 }#
b0 c
b0 -"
b0 !#
b0 t#
b0 |#
b0 d
b0 ."
b0 "#
b0 s#
0m
0}"
0g
1q
b1000 f
b1000 ##
b0 "$
0,
0!"
0|
0{
b0 ?"
b0 T
b0 *"
b0 <"
b0 <#
b0 v#
b0 G"
1F"
1H"
0h"
0~
b0 ?
b0 ("
b0 w#
0}
b0 i"
1@
1B
b0 9
b0 s"
b0 c#
b0 x#
0#"
b0 1
b0 &"
b0 y#
0""
b0 a#
b0 ^#
b0 t
b0 Y"
b0 J#
b0 T#
0u
0S#
b100000000000000000000000000000 j
b100000000000000000000000000000 $#
b100000000000000000000000000000 O#
b100000000000000000000000000000 U#
b0 e
b0 N#
b0 V#
b0 r#
0$"
b0 2"
b0 Y
b0 8"
b0 K"
b0 b"
0P"
0e"
0N
0I
0P
0d"
0L
0g"
0O
b0 M
b0 )"
b0 Q"
b0 f"
b0 >#
0Z
0a"
0Q
0c"
b0 U
b0 5"
b0 M"
b0 ^"
b0 R
b0 3"
b0 O"
b0 =#
b0 _"
b0 S
b0 4"
b0 N"
b0 `"
b0 V
b0 6"
b0 L"
b0 ;#
b0 \"
b0 W
b0 7"
b0 R"
b0 ]"
0;
0G#
04
08
02
b0 6
b0 '"
b0 A#
b0 H#
b0 d#
b0 >
b0 ?#
b0 D#
b0 <
b0 m"
b0 @#
b0 F#
03
0I#
b0 =
b0 n"
b0 B#
b0 E#
b0 [
b0 r"
b0 ,$
b0 ]
b0 q"
b0 +$
0\
b0 w"
b0 t"
b0 3$
0D
b0 0$
07
0.
b0 /
b0 %"
b0 e#
b0 i#
b0 {#
b0 0
b0 f#
b0 h#
b0 z#
b100 b#
b1000 J"
b100 x"
1&
#10000
0&
#15000
b100 x"
b1000 J"
b100 b#
1&
#20000
0&
#25000
0(
b100 b#
b1000 J"
b100 x"
b0 )
1&
#30000
0&
#35000
b11 X
b11 +"
b11 u#
1|
1{
b11 3$
b0 4$
1I
b100000000000000000000000000000 '
b1 )
1&
#40000
0&
#45000
1~
b11 ?
b11 ("
b11 w#
1}
12
b10 3$
b10 )
1&
#50000
0&
#55000
1#"
b11 1
b11 &"
b11 y#
1""
1.
b1 3$
b11 )
1&
#60000
0&
#65000
0@
1B
1D
b110100001000000000000000000011001000000110001100011000000000110010000001000010000100000000001000100000001000010000100000000001 E
b110100001000000000000000000011001000000110001100011000000000110010000001000010000100000000001000100000001000010000100000000001 Z#
b110100001000000000000000000011001000000110001100011000000000110010000001000010000100000000001000100000001000010000100000000001 2$
b0 3$
b100 )
1&
#70000
0&
#75000
b1 G
b1 B"
b1 K#
b1 k#
b100000001000010000100000000001 F
b100000001000010000100000000001 M#
b100000001000010000100000000001 \#
1_#
b100 b#
0B
0D
b1 ^#
b101 )
1&
#80000
0&
#85000
b0 X
b0 +"
b0 u#
b1 o
b1 U"
b1 $$
0#"
0~
0|
b0 1
b0 &"
b0 y#
0""
b0 ?
b0 ("
b0 w#
0}
0{
b100 b#
b100000010000100001000000000010 F
b100000010000100001000000000010 M#
b100000010000100001000000000010 \#
1_#
b1 #$
b1 k
b1 %#
b1 q#
b1 b
b1 ,"
b1 S"
b1 ~"
b1 c
b1 -"
b1 !#
b1 t#
b1 d
b1 ."
b1 "#
b1 s#
b1 W#
b10 G
b10 B"
b10 K#
b10 k#
b1000 J"
0H"
b1 t
b1 Y"
b1 J#
b1 T#
b100000001000010000100000000001 j
b100000001000010000100000000001 $#
b100000001000010000100000000001 O#
b100000001000010000100000000001 U#
b10 -
b1 C
b1 A"
b1 L#
b1 Y#
b1 n#
b100000001000010000100000000001 '
b110 )
1&
#90000
0&
#95000
b1 >"
b1 j#
b10 o
b10 U"
b10 $$
b100 b#
b100000011000110001100000000011 F
b100000011000110001100000000011 M#
b100000011000110001100000000011 \#
1_#
b1 T
b1 *"
b1 <"
b1 <#
b1 v#
b10 #$
b10 k
b10 %#
b10 q#
b10 b
b10 ,"
b10 S"
b10 ~"
b10 c
b10 -"
b10 !#
b10 t#
b10 d
b10 ."
b10 "#
b10 s#
b1 "$
b10 W#
b11 G
b11 B"
b11 K#
b11 k#
b1000 J"
b1 Y
b1 8"
b1 K"
b1 b"
b1 M
b1 )"
b1 Q"
b1 f"
b1 >#
b1 S
b1 4"
b1 N"
b1 `"
b10 t
b10 Y"
b10 J#
b10 T#
b100000010000100001000000000010 j
b100000010000100001000000000010 $#
b100000010000100001000000000010 O#
b100000010000100001000000000010 U#
b1 e
b1 N#
b1 V#
b1 r#
b11 -
b10 C
b10 A"
b10 L#
b10 Y#
b10 n#
b100000010000100001000000000010 '
b111 )
1&
#100000
0&
#105000
b0 s
b0 X"
b0 %$
b0 n
b0 T"
b0 p#
b0 ~#
b0 r
b0 W"
b0 o#
b0 !$
b11 o
b11 U"
b11 $$
b0 X
b0 +"
b0 u#
b10 >"
b10 j#
b1 j"
b100 b#
b110100001000000000000000000011 F
b110100001000000000000000000011 M#
b110100001000000000000000000011 \#
1_#
b11 #$
b11 k
b11 %#
b11 q#
b11 b
b11 ,"
b11 S"
b11 ~"
b11 c
b11 -"
b11 !#
b11 t#
b11 d
b11 ."
b11 "#
b11 s#
b10 "$
0|
0{
b10 T
b10 *"
b10 <"
b10 <#
b10 v#
b1 i"
b1 9
b1 s"
b1 c#
b1 x#
b11 W#
b100 G
b100 B"
b100 K#
b100 k#
b1000 J"
b11 t
b11 Y"
b11 J#
b11 T#
b100000011000110001100000000011 j
b100000011000110001100000000011 $#
b100000011000110001100000000011 O#
b100000011000110001100000000011 U#
b10 e
b10 N#
b10 V#
b10 r#
b10 Y
b10 8"
b10 K"
b10 b"
b10 M
b10 )"
b10 Q"
b10 f"
b10 >#
b10 S
b10 4"
b10 N"
b10 `"
b1 6
b1 '"
b1 A#
b1 H#
b1 d#
b1 =
b1 n"
b1 B#
b1 E#
b100 -
b11 C
b11 A"
b11 L#
b11 Y#
b11 n#
b100000011000110001100000000011 '
b1000 )
1&
#110000
0&
#115000
b1 s
b1 X"
b1 %$
b1 r
b1 W"
b1 o#
b1 !$
0`
b10 j"
b11 >"
b11 j#
b10 1
b10 &"
b10 y#
1""
1i
1|"
1@
1B
b100 b#
b1 A
b1 ]#
b1 -$
b100000000000000000000000000000 F
b100000000000000000000000000000 M#
b100000000000000000000000000000 \#
0_#
b10 i"
b10 9
b10 s"
b10 c#
b10 x#
b11 T
b11 *"
b11 <"
b11 <#
b11 v#
b0 b
b0 ,"
b0 S"
b0 ~"
b0 c
b0 -"
b0 !#
b0 t#
b1 d
b1 ."
b1 "#
b1 s#
1m
1}"
0q
b1101 f
b1101 ##
b11 "$
b0 W#
b1 X#
b100 G
b100 B"
b100 K#
b100 k#
b1000 J"
b1 /
b1 %"
b1 e#
b1 i#
b1 {#
b1 0
b1 f#
b1 h#
b1 z#
b10 6
b10 '"
b10 A#
b10 H#
b10 d#
b10 =
b10 n"
b10 B#
b10 E#
b11 Y
b11 8"
b11 K"
b11 b"
b11 M
b11 )"
b11 Q"
b11 f"
b11 >#
b11 S
b11 4"
b11 N"
b11 `"
b100 t
b100 Y"
b100 J#
b100 T#
b110100001000000000000000000011 j
b110100001000000000000000000011 $#
b110100001000000000000000000011 O#
b110100001000000000000000000011 U#
b11 e
b11 N#
b11 V#
b11 r#
b101 -
b100 C
b100 A"
b100 L#
b100 Y#
b100 n#
b110100001000000000000000000011 '
b1001 )
1&
#120000
0&
#125000
b0 s
b0 X"
b0 %$
1`
b0 r
b0 W"
b0 o#
b0 !$
b0 o
b0 U"
b0 $$
0i
0|"
b1000 J"
0F"
b100 >"
b100 j#
b11 j"
b0 #$
b0 k
b0 %#
b0 q#
b0 d
b0 ."
b0 "#
b0 s#
0m
0}"
1q
b1000 f
b1000 ##
b100 "$
b1 ?"
1K
b100 ="
1J
b100 T
b100 *"
b100 <"
b100 <#
b100 v#
b11 i"
b11 9
b11 s"
b11 c#
b11 x#
b0 1
b0 &"
b0 y#
0""
b1 a#
b100000000000000000000000000000 j
b100000000000000000000000000000 $#
b100000000000000000000000000000 O#
b100000000000000000000000000000 U#
b100 e
b100 N#
b100 V#
b100 r#
b0 |#
b100 Y
b100 8"
b100 K"
b100 b"
1P"
1e"
0I
b0 M
b0 )"
b0 Q"
b0 f"
b0 >#
1Q
1c"
b1 V
b1 6"
b1 L"
b1 ;#
b1 \"
b1 W
b1 7"
b1 R"
b1 ]"
b11 6
b11 '"
b11 A#
b11 H#
b11 d#
b11 =
b11 n"
b11 B#
b11 E#
b11 3$
b1 4$
b10 /
b10 %"
b10 e#
b10 i#
b10 {#
b10 0
b10 f#
b10 h#
b10 z#
b100000000000000000000000000000 '
b1010 )
1&
#130000
0&
