rtl/cpu_run_tb.vcd
$date
	Fri Nov 14 10:44:23 2025
$end
$version
	Icarus Verilog
$end
$timescale
	1ps
$end
$scope module cpu_run_tb $end
$var parameter 32 ! ADDR_SIZE $end
$var parameter 32 " END_PC $end
$var parameter 32 # PC_BITS $end
$var parameter 32 $ REG_NUM $end
$var parameter 32 % XLEN $end
$var reg 1 & clk $end
$var reg 32 ' curr_inst [31:0] $end
$var reg 1 ( rst $end
$var integer 32 ) cycles [31:0] $end
$var integer 32 * i [31:0] $end
$scope module dut $end
$var wire 1 & clk $end
$var wire 1 ( rst $end
$var wire 1 + stall_D $end
$var wire 5 , pc_plus_1 [4:0] $end
$var wire 1 - WB_we $end
$var wire 5 . WB_rd [4:0] $end
$var wire 32 / WB_data_mem [31:0] $end
$var wire 2 0 WB_D_bp [1:0] $end
$var wire 1 1 MEM_we $end
$var wire 1 2 MEM_taken $end
$var wire 1 3 MEM_str $end
$var wire 5 4 MEM_rd [4:0] $end
$var wire 1 5 MEM_ld $end
$var wire 32 6 MEM_data_mem [31:0] $end
$var wire 1 7 MEM_byt $end
$var wire 32 8 MEM_b2 [31:0] $end
$var wire 32 9 MEM_alu_out [31:0] $end
$var wire 32 : MEM_a2 [31:0] $end
$var wire 2 ; MEM_D_bp [1:0] $end
$var wire 1 < F_stall $end
$var wire 5 = F_pc [4:0] $end
$var wire 1 > F_mem_valid $end
$var wire 1 ? F_mem_req $end
$var wire 128 @ F_mem_inst [127:0] $end
$var wire 3 A F_mem_addr [2:0] $end
$var wire 32 B F_inst [31:0] $end
$var wire 5 C F_BP_target_pc [4:0] $end
$var wire 1 D F_BP_taken $end
$var wire 1 E EX_we $end
$var wire 1 F EX_true_taken $end
$var wire 1 G EX_taken $end
$var wire 1 H EX_str $end
$var wire 5 I EX_rd [4:0] $end
$var wire 1 J EX_mul $end
$var wire 1 K EX_ld $end
$var wire 1 L EX_byt $end
$var wire 1 M EX_brn $end
$var wire 32 N EX_b2 [31:0] $end
$var wire 32 O EX_b [31:0] $end
$var wire 32 P EX_alu_out [31:0] $end
$var wire 4 Q EX_alu_op [3:0] $end
$var wire 32 R EX_a2 [31:0] $end
$var wire 32 S EX_a [31:0] $end
$var wire 2 T EX_D_bp [1:0] $end
$var wire 1 U EX_BP_taken $end
$var wire 1 V D_we $end
$var wire 1 W D_str $end
$var wire 5 X D_rd [4:0] $end
$var wire 5 Y D_rb [4:0] $end
$var wire 5 Z D_ra [4:0] $end
$var wire 5 [ D_pc [4:0] $end
$var wire 6 \ D_opc [5:0] $end
$var wire 1 ] D_mul $end
$var wire 1 ^ D_ld $end
$var wire 32 _ D_inst [31:0] $end
$var wire 11 ` D_imd [10:0] $end
$var wire 1 a D_byt $end
$var wire 1 b D_brn $end
$var wire 32 c D_b2 [31:0] $end
$var wire 32 d D_b [31:0] $end
$var wire 4 e D_alu_op [3:0] $end
$var wire 1 f D_addi $end
$var wire 32 g D_a2 [31:0] $end
$var wire 32 h D_a [31:0] $end
$var wire 1 i D_BP_taken $end
$var parameter 32 j ADDR_SIZE $end
$var parameter 32 k PC_BITS $end
$var parameter 32 l REG_NUM $end
$var parameter 5 m RESET_PC $end
$var parameter 32 n XLEN $end
$scope module u_Hazard_unit $end
$var wire 1 & clk $end
$var wire 1 o ex_hit_ra $end
$var wire 1 p ex_hit_rb $end
$var wire 1 q mem_hit_ra $end
$var wire 1 r mem_hit_rb $end
$var wire 1 s mul_start $end
$var wire 1 ( rst $end
$var wire 1 + stall_D $end
$var wire 1 t wb_hit_ra $end
$var wire 1 u wb_hit_rb $end
$var wire 1 v mul_stall $end
$var wire 1 - WB_we $end
$var wire 5 w WB_rd [4:0] $end
$var wire 2 x WB_D_bp [1:0] $end
$var wire 1 1 MEM_we $end
$var wire 5 y MEM_rd [4:0] $end
$var wire 2 z MEM_D_bp [1:0] $end
$var wire 1 E EX_we $end
$var wire 5 { EX_rd [4:0] $end
$var wire 1 J EX_mul $end
$var wire 1 K EX_ld $end
$var wire 32 | EX_alu_out [31:0] $end
$var wire 2 } EX_D_bp [1:0] $end
$var wire 5 ~ D_rd [4:0] $end
$var wire 5 !" D_rb [4:0] $end
$var wire 5 "" D_ra [4:0] $end
$var parameter 32 #" ADDR_SIZE $end
$var parameter 32 $" MUL_STALLS $end
$var parameter 32 %" XLEN $end
$var reg 3 &" mul_cnt [2:0] $end
$upscope $end
$scope module u_alu $end
$var wire 1 M EX_brn $end
$var wire 32 '" EX_b2 [31:0] $end
$var wire 32 (" EX_b [31:0] $end
$var wire 4 )" EX_alu_op [3:0] $end
$var wire 32 *" EX_a2 [31:0] $end
$var wire 32 +" EX_a [31:0] $end
$var wire 1 U EX_BP_taken $end
$var parameter 32 ," SHW $end
$var parameter 32 -" XLEN $end
$var reg 32 ." EX_alu_out [31:0] $end
$var reg 1 G EX_taken $end
$var reg 1 F EX_true_taken $end
$var reg 32 /" next_pc [31:0] $end
$upscope $end
$scope module u_branch_buffer $end
$var wire 5 0" EX_alu_out [4:0] $end
$var wire 5 1" EX_pc [4:0] $end
$var wire 1 F EX_true_taken $end
$var wire 1 D F_BP_taken $end
$var wire 1 & clk $end
$var wire 1 ( rst $end
$var wire 1 2" taken_on_hit $end
$var wire 1 < F_stall $end
$var wire 5 3" F_pc [4:0] $end
$var wire 5 4" F_BP_target_pc [4:0] $end
$var wire 1 M EX_brn $end
$var parameter 32 5" DEPTH $end
$var parameter 32 6" INDX $end
$var reg 1 7" ex_hit $end
$var reg 3 8" ex_hit_idx [2:0] $end
$var reg 1 9" f_hit $end
$var reg 3 :" f_hit_idx [2:0] $end
$var integer 32 ;" i [31:0] $end
$scope task fifo_insert_new $end
$upscope $end
$upscope $end
$scope module u_d_to_ex_reg $end
$var wire 1 U EX_BP_taken $end
$var wire 32 <" EX_a2 [31:0] $end
$var wire 4 =" EX_alu_op [3:0] $end
$var wire 32 >" EX_b [31:0] $end
$var wire 32 ?" EX_b2 [31:0] $end
$var wire 1 M EX_brn $end
$var wire 1 L EX_byt $end
$var wire 1 H EX_str $end
$var wire 1 G EX_taken $end
$var wire 1 & clk $end
$var wire 1 ( rst $end
$var wire 1 + stall_D $end
$var wire 1 E EX_we $end
$var wire 5 @" EX_rd [4:0] $end
$var wire 1 J EX_mul $end
$var wire 1 K EX_ld $end
$var wire 32 A" EX_a [31:0] $end
$var wire 1 V D_we $end
$var wire 1 W D_str $end
$var wire 5 B" D_rd [4:0] $end
$var wire 1 ] D_mul $end
$var wire 1 ^ D_ld $end
$var wire 1 a D_byt $end
$var wire 1 b D_brn $end
$var wire 32 C" D_b2 [31:0] $end
$var wire 32 D" D_b [31:0] $end
$var wire 4 E" D_alu_op [3:0] $end
$var wire 32 F" D_a2 [31:0] $end
$var wire 32 G" D_a [31:0] $end
$var wire 1 i D_BP_taken $end
$var parameter 32 H" XLEN $end
$var reg 32 I" ex_a2_r [31:0] $end
$var reg 32 J" ex_a_r [31:0] $end
$var reg 4 K" ex_alu_op_r [3:0] $end
$var reg 32 L" ex_b2_r [31:0] $end
$var reg 32 M" ex_b_r [31:0] $end
$var reg 1 N" ex_bp_taken_r $end
$var reg 1 O" ex_brn_r $end
$var reg 1 P" ex_byt_r $end
$var reg 1 K ex_ld_r $end
$var reg 1 J ex_mul_r $end
$var reg 5 Q" ex_rd_r [4:0] $end
$var reg 1 R" ex_str_r $end
$var reg 1 E ex_we_r $end
$upscope $end
$scope module u_decode $end
$var wire 1 b D_brn $end
$var wire 1 V D_we $end
$var wire 1 & clk $end
$var wire 1 S" is_beq $end
$var wire 1 T" is_bgt $end
$var wire 1 U" is_blt $end
$var wire 1 V" is_jmp $end
$var wire 1 W" is_ctrl $end
$var wire 1 W D_str $end
$var wire 5 X" D_rd [4:0] $end
$var wire 5 Y" D_rb [4:0] $end
$var wire 5 Z" D_ra [4:0] $end
$var wire 6 [" D_opc [5:0] $end
$var wire 1 ] D_mul $end
$var wire 1 ^ D_ld $end
$var wire 32 \" D_inst [31:0] $end
$var wire 11 ]" D_imd [10:0] $end
$var wire 1 a D_byt $end
$var wire 4 ^" D_alu_op [3:0] $end
$var wire 1 f D_addi $end
$var parameter 6 _" OPC_ADD $end
$var parameter 6 `" OPC_ADDI $end
$var parameter 6 a" OPC_AND $end
$var parameter 6 b" OPC_CTRL $end
$var parameter 6 c" OPC_GT $end
$var parameter 5 d" OPC_LOAD $end
$var parameter 6 e" OPC_LT $end
$var parameter 6 f" OPC_MUL $end
$var parameter 6 g" OPC_NOT $end
$var parameter 6 h" OPC_OR $end
$var parameter 6 i" OPC_SHL $end
$var parameter 6 j" OPC_SHR $end
$var parameter 5 k" OPC_STORE $end
$var parameter 6 l" OPC_SUB $end
$var parameter 6 m" OPC_XOR $end
$var parameter 5 n" RD_BEQ $end
$var parameter 5 o" RD_BGT $end
$var parameter 5 p" RD_BLT $end
$var parameter 5 q" RD_JMP $end
$var parameter 32 r" XLEN $end
$upscope $end
$scope module u_ex_to_mem_reg $end
$var wire 32 s" EX_a2 [31:0] $end
$var wire 32 t" EX_alu_out [31:0] $end
$var wire 32 u" EX_b2 [31:0] $end
$var wire 1 L EX_byt $end
$var wire 1 K EX_ld $end
$var wire 5 v" EX_rd [4:0] $end
$var wire 1 H EX_str $end
$var wire 1 G EX_taken $end
$var wire 1 E EX_we $end
$var wire 32 w" MEM_a2 [31:0] $end
$var wire 32 x" MEM_b2 [31:0] $end
$var wire 1 3 MEM_str $end
$var wire 1 2 MEM_taken $end
$var wire 1 & clk $end
$var wire 1 ( rst $end
$var wire 1 1 MEM_we $end
$var wire 5 y" MEM_rd [4:0] $end
$var wire 1 5 MEM_ld $end
$var wire 1 7 MEM_byt $end
$var wire 32 z" MEM_alu_out [31:0] $end
$var parameter 32 {" XLEN $end
$var reg 32 |" mem_a2_r [31:0] $end
$var reg 32 }" mem_alu_out_r [31:0] $end
$var reg 32 ~" mem_b2_r [31:0] $end
$var reg 1 7 mem_byt_r $end
$var reg 1 5 mem_ld_r $end
$var reg 5 !# mem_rd_r [4:0] $end
$var reg 1 "# mem_str_r $end
$var reg 1 ## mem_taken_r $end
$var reg 1 1 mem_we_r $end
$upscope $end
$scope module u_f2d $end
$var wire 1 i D_BP_taken $end
$var wire 1 G EX_taken $end
$var wire 1 D F_BP_taken $end
$var wire 1 & clk $end
$var wire 1 ( rst $end
$var wire 1 + stall_D $end
$var wire 5 $# F_pc [4:0] $end
$var wire 32 %# F_inst [31:0] $end
$var wire 5 &# D_pc [4:0] $end
$var wire 32 '# D_inst [31:0] $end
$var parameter 32 (# NOP $end
$var parameter 32 )# PC_BITS $end
$var parameter 32 *# XLEN $end
$var reg 1 +# d_bp_taken $end
$var reg 32 ,# d_inst [31:0] $end
$var reg 5 -# d_pc [4:0] $end
$upscope $end
$scope module u_icache $end
$var wire 1 & clk $end
$var wire 1 ( rst $end
$var wire 2 .# pc_word [1:0] $end
$var wire 3 /# pc_line [2:0] $end
$var wire 5 0# F_pc [4:0] $end
$var wire 1 > F_mem_valid $end
$var wire 128 1# F_mem_inst [127:0] $end
$var reg 32 2# F_inst [31:0] $end
$var reg 3 3# F_mem_addr [2:0] $end
$var reg 1 ? F_mem_req $end
$var reg 1 < F_stall $end
$var reg 2 4# fifo_ptr [1:0] $end
$var reg 1 5# hit $end
$var reg 2 6# hit_idx [1:0] $end
$var reg 3 7# miss_line [2:0] $end
$var integer 32 8# i [31:0] $end
$upscope $end
$scope module u_instruct_mem $end
$var wire 3 9# F_mem_addr [2:0] $end
$var wire 1 ? F_mem_req $end
$var wire 1 & clk $end
$var wire 1 ( rst $end
$var parameter 32 :# LATENCY $end
$var parameter 32 ;# XLEN $end
$var reg 128 <# F_mem_inst [127:0] $end
$var reg 1 > F_mem_valid $end
$var reg 2 =# counter [1:0] $end
$var reg 3 ># saved_line [2:0] $end
$upscope $end
$scope module u_mem_to_wb_reg $end
$var wire 5 ?# MEM_rd [4:0] $end
$var wire 1 1 MEM_we $end
$var wire 1 & clk $end
$var wire 1 ( rst $end
$var wire 1 - WB_we $end
$var wire 5 @# WB_rd [4:0] $end
$var wire 32 A# WB_data_mem [31:0] $end
$var wire 32 B# MEM_data_mem [31:0] $end
$var parameter 32 C# XLEN $end
$var reg 32 D# wb_data_mem_r [31:0] $end
$var reg 5 E# wb_rd_r [4:0] $end
$var reg 1 - wb_we_r $end
$upscope $end
$scope module u_memory $end
$var wire 32 F# MEM_alu_out [31:0] $end
$var wire 32 G# MEM_b2 [31:0] $end
$var wire 1 7 MEM_byt $end
$var wire 1 5 MEM_ld $end
$var wire 1 3 MEM_str $end
$var wire 1 & clk $end
$var wire 5 H# addr [4:0] $end
$var wire 32 I# MEM_data_mem [31:0] $end
$var parameter 32 J# ADDR_SIZE $end
$var parameter 32 K# REG_NUM $end
$var parameter 32 L# XLEN $end
$var integer 32 M# i [31:0] $end
$upscope $end
$scope module u_pc $end
$var wire 5 N# EX_alt_pc [4:0] $end
$var wire 1 G EX_taken $end
$var wire 5 O# F_BP_target_pc [4:0] $end
$var wire 1 & clk $end
$var wire 1 ( rst $end
$var wire 1 + stall_D $end
$var parameter 5 P# RESET_PC $end
$var parameter 32 Q# XLEN $end
$var reg 5 R# F_pc [4:0] $end
$upscope $end
$scope module u_regfile $end
$var wire 32 S# D_a2 [31:0] $end
$var wire 1 f D_addi $end
$var wire 32 T# D_b2 [31:0] $end
$var wire 1 b D_brn $end
$var wire 11 U# D_imd [10:0] $end
$var wire 1 ^ D_ld $end
$var wire 5 V# D_pc [4:0] $end
$var wire 5 W# D_ra [4:0] $end
$var wire 5 X# D_rb [4:0] $end
$var wire 1 W D_str $end
$var wire 2 Y# EX_D_bp [1:0] $end
$var wire 32 Z# EX_alu_out [31:0] $end
$var wire 2 [# MEM_D_bp [1:0] $end
$var wire 32 \# MEM_data_mem [31:0] $end
$var wire 2 ]# WB_D_bp [1:0] $end
$var wire 32 ^# WB_data_mem [31:0] $end
$var wire 5 _# WB_rd [4:0] $end
$var wire 1 - WB_we $end
$var wire 1 & clk $end
$var wire 32 `# ra_raw [31:0] $end
$var wire 32 a# rb_raw [31:0] $end
$var wire 32 b# rb_fwd [31:0] $end
$var wire 32 c# ra_fwd [31:0] $end
$var wire 32 d# pc_extended [31:0] $end
$var wire 32 e# offset [31:0] $end
$var wire 32 f# D_b [31:0] $end
$var wire 32 g# D_a [31:0] $end
$var parameter 32 h# ADDR_SIZE $end
$var parameter 32 i# REG_NUM $end
$var parameter 32 j# XLEN $end
$var integer 32 k# i [31:0] $end
$upscope $end
$upscope $end
$scope begin run_loop $end
$upscope $end
$upscope $end
$enddefinitions $end
$comment Show the parameter values. $end
$dumpall
b100000 j#
b100000 i#
b101 h#
b101 Q#
b0 P#
b100000 L#
b100000 K#
b101 J#
b100000 C#
b100000 ;#
b10 :#
b100000 *#
b101 )#
b100000000000000000000000000000 (#
b100000 {"
b100000 r"
b0 q"
b10 p"
b11 o"
b1 n"
b100 m"
b1 l"
b1100 k"
b111 j"
b110 i"
b11 h"
b101 g"
b1110 f"
b1001 e"
b1011 d"
b1010 c"
b1101 b"
b10 a"
b1000 `"
b0 _"
b100000 H"
b11 6"
b1000 5"
b100000 -"
b101 ,"
b100000 %"
b100 $"
b101 #"
b100000 n
b0 m
b100000 l
b101 k
b101 j
b100000 %
b100000 $
b101 #
b10110 "
b101 !
$end
#0
$dumpvars
b100000 k#
bx g#
bx f#
b0xxxxxxxxxxx e#
b0xxxxx d#
bx c#
bx b#
bx a#
bx `#
bx _#
bx ^#
bx ]#
bx \#
bx [#
bx Z#
bx Y#
bx X#
bx W#
bx V#
bx U#
bx T#
bx S#
b0 R#
b0 O#
bx N#
b100000 M#
bx I#
bx H#
bx G#
bx F#
bx E#
bx D#
bx B#
bx A#
bx @#
bx ?#
bx >#
bx =#
bx <#
b0 9#
bx 8#
bx 7#
b0 6#
05#
bx 4#
b0 3#
b100000000000000000000000000000 2#
bx 1#
b0 0#
b0 /#
b0 .#
bx -#
bx ,#
x+#
bx '#
bx &#
b100000000000000000000000000000 %#
b0 $#
x##
x"#
bx !#
bx ~"
bx }"
bx |"
bx z"
bx y"
bx x"
bx w"
bx v"
bx u"
bx t"
bx s"
bx ^"
bx ]"
bx \"
bx ["
bx Z"
bx Y"
bx X"
xW"
xV"
xU"
xT"
xS"
xR"
bx Q"
xP"
xO"
xN"
bx M"
bx L"
bx K"
bx J"
bx I"
bx G"
bx F"
bx E"
bx D"
bx C"
bx B"
bx A"
bx @"
bx ?"
bx >"
bx ="
bx <"
b1000 ;"
b0 :"
09"
bx 8"
x7"
b0 4"
b0 3"
02"
bx 1"
bx 0"
bx /"
bx ."
bx +"
bx *"
bx )"
bx ("
bx '"
bx &"
bx ""
bx !"
bx ~
bx }
bx |
bx {
bx z
bx y
bx x
bx w
xv
xu
xt
xs
xr
xq
xp
xo
xi
bx h
bx g
xf
bx e
bx d
bx c
xb
xa
bx `
bx _
x^
x]
bx \
bx [
bx Z
bx Y
bx X
xW
xV
xU
bx T
bx S
bx R
bx Q
bx P
bx O
bx N
xM
xL
xK
xJ
bx I
xH
xG
xF
xE
0D
b0 C
b100000000000000000000000000000 B
b0 A
bx @
x?
x>
b0 =
1<
bx ;
bx :
bx 9
bx 8
x7
bx 6
x5
bx 4
x3
x2
x1
bx 0
bx /
bx .
x-
b1 ,
x+
bx *
bx )
1(
bx '
0&
$end
#5000
b0 h
b0 G"
b0 g#
b0 c
b0 C"
b0 T#
b0 b#
b0 g
b0 F"
b0 S#
b0 c#
b0 d
b0 D"
b0 f#
0T"
0U"
0S"
0V"
0^
0W
0a
1V
b0 e
b0 E"
b0 ^"
b0 T
b0 }
b0 Y#
b0 0"
b0 N#
1?
1<
b0 e#
b0 `
b0 ]"
b0 U#
b0 X
b0 ~
b0 B"
b0 X"
b0 a#
b0 Y
b0 !"
b0 Y"
b0 X#
b0 `#
b0 Z
b0 ""
b0 Z"
b0 W#
0b
0W"
0]
1f
b1000 \
b1000 ["
0+
0s
0p
0o
b0 1"
b0 /"
0F
0G
b0 P
b0 |
b0 ."
b0 t"
b0 Z#
b0 8"
17"
19"
0r
b0 ;
b0 z
b0 [#
0q
b0 H#
b0 6
b0 B#
b0 I#
b0 \#
0u
b0 0
b0 x
b0 ]#
0t
b0 7#
b0 4#
b0 =#
0>
0i
0+#
b100000000000000000000000000000 _
b100000000000000000000000000000 \"
b100000000000000000000000000000 '#
b100000000000000000000000000000 ,#
b0 d#
b0 [
b0 &#
b0 -#
b0 V#
0v
b0 &"
0J
0E
0L
0P"
0H
0R"
0K
b0 I
b0 {
b0 @"
b0 Q"
b0 v"
0U
0N"
0M
0O"
b0 Q
b0 )"
b0 ="
b0 K"
b0 N
b0 '"
b0 ?"
b0 u"
b0 L"
b0 O
b0 ("
b0 >"
b0 M"
b0 R
b0 *"
b0 <"
b0 s"
b0 I"
b0 S
b0 +"
b0 A"
b0 J"
07
03
0"#
05
01
b0 4
b0 y
b0 y"
b0 !#
b0 ?#
b0 :
b0 w"
b0 |"
b0 8
b0 x"
b0 G#
b0 ~"
02
0##
b0 9
b0 z"
b0 }"
b0 F#
0-
b0 .
b0 w
b0 @#
b0 E#
b0 _#
b0 /
b0 A#
b0 D#
b0 ^#
b100 8#
b1000 ;"
1&
#10000
0&
#15000
b1000 ;"
b100 8#
1&
#20000
0&
#25000
0(
b100 8#
b1000 ;"
b0 )
1&
#30000
0&
#35000
b11 T
b11 }
b11 Y#
1p
1o
1E
b10 =#
b0 >#
b100000000000000000000000000000 '
b1 )
1&
#40000
0&
#45000
1r
b11 ;
b11 z
b11 [#
1q
b1 =#
11
b10 )
1&
#50000
0&
#55000
1u
b11 0
b11 x
b11 ]#
1t
0?
1<
1-
1>
b100000100001000010000000000001001000000010000100001000000000010000000000000000000010000000000000100000011000110001100000001010 @
b100000100001000010000000000001001000000010000100001000000000010000000000000000000010000000000000100000011000110001100000001010 1#
b100000100001000010000000000001001000000010000100001000000000010000000000000000000010000000000000100000011000110001100000001010 <#
b0 =#
b11 )
1&
#60000
0&
#65000
b1 C
b1 4"
b1 O#
b100000011000110001100000001010 B
b100000011000110001100000001010 %#
b100000011000110001100000001010 2#
15#
b100 8#
0<
b1 4#
0>
b100 )
1&
#70000
0&
#75000
b0 T
b0 }
b0 Y#
b1010 d
b1010 D"
b1010 f#
0u
0r
0p
b0 0
b0 x
b0 ]#
0t
b0 ;
b0 z
b0 [#
0q
0o
b100 8#
b100000000000 B
b100000000000 %#
b100000000000 2#
15#
b1010 e#
b1010 `
b1010 ]"
b1010 U#
b11 X
b11 ~
b11 B"
b11 X"
b11 Y
b11 !"
b11 Y"
b11 X#
b11 Z
b11 ""
b11 Z"
b11 W#
b1 .#
b10 C
b10 4"
b10 O#
b1000 ;"
09"
b100000011000110001100000001010 _
b100000011000110001100000001010 \"
b100000011000110001100000001010 '#
b100000011000110001100000001010 ,#
b10 ,
b1 =
b1 3"
b1 $#
b1 0#
b1 R#
b100000011000110001100000001010 '
b101 )
1&
#80000
0&
#85000
b0 h
b0 G"
b0 g#
b0 c
b0 C"
b0 T#
b0 b#
b0 g
b0 F"
b0 S#
b0 c#
b0 d
b0 D"
b0 f#
1u
1r
b11 0
b11 x
b11 ]#
1t
b11 ;
b11 z
b11 [#
1q
b0 T
b0 }
b0 Y#
b1010 0"
b1010 N#
b100 8#
b100000001000010000100000000001 B
b100000001000010000100000000001 %#
b100000001000010000100000000001 2#
15#
b0 e#
b0 `
b0 ]"
b0 U#
b1 X
b1 ~
b1 B"
b1 X"
b0 Y
b0 !"
b0 Y"
b0 X#
b0 Z
b0 ""
b0 Z"
b0 W#
0f
b0 \
b0 ["
0p
0o
b1010 P
b1010 |
b1010 ."
b1010 t"
b1010 Z#
b10 .#
b11 C
b11 4"
b11 O#
b1000 ;"
b100000000000 _
b100000000000 \"
b100000000000 '#
b100000000000 ,#
b1 d#
b1 [
b1 &#
b1 -#
b1 V#
b11 I
b11 {
b11 @"
b11 Q"
b11 v"
b1010 O
b1010 ("
b1010 >"
b1010 M"
b11 ,
b10 =
b10 3"
b10 $#
b10 0#
b10 R#
b100000000000 '
b110 )
1&
#90000
0&
#95000
b0 h
b0 G"
b0 g#
b1 d
b1 D"
b1 f#
b0 g
b0 F"
b0 S#
b0 c#
b0 c
b0 C"
b0 T#
b0 b#
b11 T
b11 }
b11 Y#
b0 0"
b0 N#
0u
1p
b0 0
b0 x
b0 ]#
0t
1o
b100 8#
b100000100001000010000000000001 B
b100000100001000010000000000001 %#
b100000100001000010000000000001 2#
15#
0r
b0 ;
b0 z
b0 [#
0q
b1010 H#
b1010 6
b1010 B#
b1010 I#
b1010 \#
b0 P
b0 |
b0 ."
b0 t"
b0 Z#
b1 e#
b1 `
b1 ]"
b1 U#
b1 Y
b1 !"
b1 Y"
b1 X#
b1 Z
b1 ""
b1 Z"
b1 W#
1f
b1000 \
b1000 ["
b11 .#
b100 C
b100 4"
b100 O#
b1000 ;"
b11 4
b11 y
b11 y"
b11 !#
b11 ?#
b1010 9
b1010 z"
b1010 }"
b1010 F#
b1 I
b1 {
b1 @"
b1 Q"
b1 v"
b0 O
b0 ("
b0 >"
b0 M"
b100000001000010000100000000001 _
b100000001000010000100000000001 \"
b100000001000010000100000000001 '#
b100000001000010000100000000001 ,#
b10 d#
b10 [
b10 &#
b10 -#
b10 V#
b100 ,
b11 =
b11 3"
b11 $#
b11 0#
b11 R#
b100000001000010000100000000001 '
b111 )
1&
#100000
0&
#105000
b0 T
b0 }
b0 Y#
b0 h
b0 G"
b0 g#
0p
0o
b0 g
b0 F"
b0 S#
b0 c#
b0 c
b0 C"
b0 T#
b0 b#
b1 0"
b1 N#
1?
1<
b100 8#
b1 A
b1 3#
b1 9#
b100000000000000000000000000000 B
b100000000000000000000000000000 %#
b100000000000000000000000000000 2#
05#
b100 X
b100 ~
b100 B"
b100 X"
b100 Y
b100 !"
b100 Y"
b100 X#
b100 Z
b100 ""
b100 Z"
b100 W#
b1 P
b1 |
b1 ."
b1 t"
b1 Z#
0r
b0 ;
b0 z
b0 [#
0q
b0 H#
b0 6
b0 B#
b0 I#
b0 \#
b0 .#
b1 /#
b100 C
b100 4"
b100 O#
b1000 ;"
b100000100001000010000000000001 _
b100000100001000010000000000001 \"
b100000100001000010000000000001 '#
b100000100001000010000000000001 ,#
b11 d#
b11 [
b11 &#
b11 -#
b11 V#
b1 O
b1 ("
b1 >"
b1 M"
b1 4
b1 y
b1 y"
b1 !#
b1 ?#
b0 9
b0 z"
b0 }"
b0 F#
b11 .
b11 w
b11 @#
b11 E#
b11 _#
b1010 /
b1010 A#
b1010 D#
b1010 ^#
b101 ,
b100 =
b100 3"
b100 $#
b100 0#
b100 R#
b100000100001000010000000000001 '
b1000 )
1&
#110000
0&
#115000
b0 d
b0 D"
b0 f#
b1 H#
b1 6
b1 B#
b1 I#
b1 \#
b0 e#
b0 `
b0 ]"
b0 U#
b0 X
b0 ~
b0 B"
b0 X"
b0 Y
b0 !"
b0 Y"
b0 X#
b0 Z
b0 ""
b0 Z"
b0 W#
b1 .
b1 w
b1 @#
b1 E#
b1 _#
b0 /
b0 A#
b0 D#
b0 ^#
b1 9
b1 z"
b1 }"
b1 F#
b100 I
b100 {
b100 @"
b100 Q"
b100 v"
b100000000000000000000000000000 _
b100000000000000000000000000000 \"
b100000000000000000000000000000 '#
b100000000000000000000000000000 ,#
b100 d#
b100 [
b100 &#
b100 -#
b100 V#
b10 =#
b1 >#
b1 7#
b100000000000000000000000000000 '
b1001 )
1&
#120000
0&
#125000
b11 T
b11 }
b11 Y#
b0 0"
b0 N#
1p
1o
b0 P
b0 |
b0 ."
b0 t"
b0 Z#
b1 =#
b0 I
b0 {
b0 @"
b0 Q"
b0 v"
b0 O
b0 ("
b0 >"
b0 M"
b100 4
b100 y
b100 y"
b100 !#
b100 ?#
b1 /
b1 A#
b1 D#
b1 ^#
b1010 )
1&
#130000
0&
#135000
1r
b11 ;
b11 z
b11 [#
1q
b0 H#
b0 6
b0 B#
b0 I#
b0 \#
0?
1<
b100 .
b100 w
b100 @#
b100 E#
b100 _#
b0 4
b0 y
b0 y"
b0 !#
b0 ?#
b0 9
b0 z"
b0 }"
b0 F#
1>
b110100000000000000100000011010001101000100001100001000000110010010000001000010000100000000000100110100001000110001000000011110 @
b110100000000000000100000011010001101000100001100001000000110010010000001000010000100000000000100110100001000110001000000011110 1#
b110100000000000000100000011010001101000100001100001000000110010010000001000010000100000000000100110100001000110001000000011110 <#
b0 =#
b1011 )
1&
#140000
0&
#145000
b101 C
b101 4"
b101 O#
b110100001000110001000000011110 B
b110100001000110001000000011110 %#
b110100001000110001000000011110 2#
b1 6#
15#
b100 8#
0<
1u
b11 0
b11 x
b11 ]#
1t
b10 4#
0>
b0 .
b0 w
b0 @#
b0 E#
b0 _#
b0 /
b0 A#
b0 D#
b0 ^#
b1100 )
1&
#150000
0&
#155000
b1001 e
b1001 E"
b1001 ^"
b1010 c
b1010 C"
b1010 T#
b1010 b#
b1 g
b1 F"
b1 S#
b1 c#
b0 T
b0 }
b0 Y#
0V
b11110 d
b11110 D"
b11110 f#
0u
0r
0p
b0 0
b0 x
b0 ]#
0t
b0 ;
b0 z
b0 [#
0q
0o
b100 h
b100 G"
b100 g#
1U"
b100 8#
b100000010000100001000000000001 B
b100000010000100001000000000001 %#
b100000010000100001000000000001 2#
b1 6#
15#
b11110 e#
b11110 `
b11110 ]"
b11110 U#
b10 X
b10 ~
b10 B"
b10 X"
b1010 a#
b11 Y
b11 !"
b11 Y"
b11 X#
b1 `#
b1 Z
b1 ""
b1 Z"
b1 W#
1b
1W"
0f
b1101 \
b1101 ["
b1 .#
b110 C
b110 4"
b110 O#
b1000 ;"
b110100001000110001000000011110 _
b110100001000110001000000011110 \"
b110100001000110001000000011110 '#
b110100001000110001000000011110 ,#
b110 ,
b101 =
b101 3"
b101 $#
b101 0#
b101 R#
b110100001000110001000000011110 '
b1101 )
1&
#160000
0&
#165000
b0 e
b0 E"
b0 ^"
b0 c
b0 C"
b0 T#
b0 b#
b0 g
b0 F"
b0 S#
b0 c#
1V
b1 d
b1 D"
b1 f#
0U"
07"
b10 0"
b10 N#
b100 8#
b110100010000110000100000011001 B
b110100010000110000100000011001 %#
b110100010000110000100000011001 2#
b1 6#
15#
b1 e#
b1 `
b1 ]"
b1 U#
b0 a#
b10 Y
b10 !"
b10 Y"
b10 X#
b0 `#
b10 Z
b10 ""
b10 Z"
b10 W#
0b
0W"
1f
b1000 \
b1000 ["
b0 h
b0 G"
b0 g#
b100 1"
1G
b100010 P
b100010 |
b100010 ."
b100010 t"
b100010 Z#
b100010 /"
1F
b10 .#
b111 C
b111 4"
b111 O#
b1000 ;"
b100000010000100001000000000001 _
b100000010000100001000000000001 \"
b100000010000100001000000000001 '#
b100000010000100001000000000001 ,#
b101 d#
b101 [
b101 &#
b101 -#
b101 V#
0E
b10 I
b10 {
b10 @"
b10 Q"
b10 v"
1M
1O"
b1001 Q
b1001 )"
b1001 ="
b1001 K"
b1010 N
b1010 '"
b1010 ?"
b1010 u"
b1010 L"
b11110 O
b11110 ("
b11110 >"
b11110 M"
b1 R
b1 *"
b1 <"
b1 s"
b1 I"
b100 S
b100 +"
b100 A"
b100 J"
b111 ,
b110 =
b110 3"
b110 $#
b110 0#
b110 R#
b100000010000100001000000000001 '
b1110 )
1&
#170000
0&
