rtl/cpu_run_tb.vcd
$date
	Tue Dec  2 17:02:02 2025
$end
$version
	Icarus Verilog
$end
$timescale
	1ps
$end
$scope module cpu_run_tb $end
$var parameter 32 ! ADDR_SIZE $end
$var parameter 32 " END_PC $end
$var parameter 32 # PC_BITS $end
$var parameter 32 $ REG_NUM $end
$var parameter 32 % XLEN $end
$var reg 1 & clk $end
$var reg 32 ' curr_inst [31:0] $end
$var reg 1 ( rst $end
$var integer 32 ) cycles [31:0] $end
$var integer 32 * i [31:0] $end
$scope module dut $end
$var wire 1 & clk $end
$var wire 1 ( rst $end
$var wire 1 + stall_D $end
$var wire 1 , WB_we $end
$var wire 5 - WB_rd [4:0] $end
$var wire 32 . WB_data_mem [31:0] $end
$var wire 2 / WB_D_bp [1:0] $end
$var wire 1 0 MEM_we $end
$var wire 1 1 MEM_taken $end
$var wire 1 2 MEM_str $end
$var wire 1 3 MEM_stall $end
$var wire 5 4 MEM_rd [4:0] $end
$var wire 1 5 MEM_mem_valid $end
$var wire 1 6 MEM_ld $end
$var wire 32 7 MEM_data_mem [31:0] $end
$var wire 128 8 MEM_data_line [127:0] $end
$var wire 1 9 MEM_byt $end
$var wire 32 : MEM_b2 [31:0] $end
$var wire 32 ; MEM_alu_out [31:0] $end
$var wire 32 < MEM_a2 [31:0] $end
$var wire 2 = MEM_D_bp [1:0] $end
$var wire 1 > Ic_mem_req $end
$var wire 16 ? Ic_mem_addr [15:0] $end
$var wire 1 @ F_stall $end
$var wire 20 A F_pc [19:0] $end
$var wire 1 B F_mem_valid $end
$var wire 128 C F_mem_inst [127:0] $end
$var wire 32 D F_inst [31:0] $end
$var wire 20 E F_BP_target_pc [19:0] $end
$var wire 1 F F_BP_taken $end
$var wire 1 G EX_we $end
$var wire 1 H EX_true_taken $end
$var wire 1 I EX_taken $end
$var wire 1 J EX_str $end
$var wire 5 K EX_rd [4:0] $end
$var wire 1 L EX_mul $end
$var wire 1 M EX_ld $end
$var wire 1 N EX_byt $end
$var wire 1 O EX_brn $end
$var wire 32 P EX_b2 [31:0] $end
$var wire 32 Q EX_b [31:0] $end
$var wire 32 R EX_alu_out [31:0] $end
$var wire 4 S EX_alu_op [3:0] $end
$var wire 32 T EX_a2 [31:0] $end
$var wire 32 U EX_a [31:0] $end
$var wire 2 V EX_D_bp [1:0] $end
$var wire 20 W EX_BP_target_pc [19:0] $end
$var wire 1 X EX_BP_taken $end
$var wire 128 Y Dc_wb_wline [127:0] $end
$var wire 1 Z Dc_wb_we $end
$var wire 16 [ Dc_wb_addr [15:0] $end
$var wire 1 \ Dc_mem_req $end
$var wire 16 ] Dc_mem_addr [15:0] $end
$var wire 1 ^ D_we $end
$var wire 1 _ D_str $end
$var wire 5 ` D_rd [4:0] $end
$var wire 5 a D_rb [4:0] $end
$var wire 5 b D_ra [4:0] $end
$var wire 20 c D_pc [19:0] $end
$var wire 6 d D_opc [5:0] $end
$var wire 1 e D_mul $end
$var wire 1 f D_ld $end
$var wire 32 g D_inst [31:0] $end
$var wire 11 h D_imd [10:0] $end
$var wire 1 i D_byt $end
$var wire 1 j D_brn $end
$var wire 32 k D_b2 [31:0] $end
$var wire 32 l D_b [31:0] $end
$var wire 4 m D_alu_op [3:0] $end
$var wire 1 n D_addi $end
$var wire 32 o D_a2 [31:0] $end
$var wire 32 p D_a [31:0] $end
$var wire 20 q D_BP_target_pc [19:0] $end
$var wire 1 r D_BP_taken $end
$var parameter 32 s ADDR_SIZE $end
$var parameter 32 t PC_BITS $end
$var parameter 32 u REG_NUM $end
$var parameter 20 v RESET_PC $end
$var parameter 32 w XLEN $end
$scope module u_Hazard_unit $end
$var wire 1 & clk $end
$var wire 1 x ex_hit_ra $end
$var wire 1 y ex_hit_rb $end
$var wire 1 z mem_hit_ra $end
$var wire 1 { mem_hit_rb $end
$var wire 1 | mul_start $end
$var wire 1 ( rst $end
$var wire 1 + stall_D $end
$var wire 1 } wb_hit_ra $end
$var wire 1 ~ wb_hit_rb $end
$var wire 1 !" mul_stall $end
$var wire 1 , WB_we $end
$var wire 5 "" WB_rd [4:0] $end
$var wire 2 #" WB_D_bp [1:0] $end
$var wire 1 0 MEM_we $end
$var wire 5 $" MEM_rd [4:0] $end
$var wire 2 %" MEM_D_bp [1:0] $end
$var wire 1 G EX_we $end
$var wire 5 &" EX_rd [4:0] $end
$var wire 1 L EX_mul $end
$var wire 1 M EX_ld $end
$var wire 32 '" EX_alu_out [31:0] $end
$var wire 2 (" EX_D_bp [1:0] $end
$var wire 5 )" D_rd [4:0] $end
$var wire 5 *" D_rb [4:0] $end
$var wire 5 +" D_ra [4:0] $end
$var parameter 32 ," ADDR_SIZE $end
$var parameter 32 -" MUL_STALLS $end
$var parameter 32 ." XLEN $end
$var reg 3 /" mul_cnt [2:0] $end
$upscope $end
$scope module u_alu $end
$var wire 1 O EX_brn $end
$var wire 32 0" EX_b2 [31:0] $end
$var wire 32 1" EX_b [31:0] $end
$var wire 4 2" EX_alu_op [3:0] $end
$var wire 32 3" EX_a2 [31:0] $end
$var wire 32 4" EX_a [31:0] $end
$var wire 20 5" EX_BP_target_pc [19:0] $end
$var wire 1 X EX_BP_taken $end
$var parameter 32 6" PC_BITS $end
$var parameter 32 7" SHW $end
$var parameter 32 8" XLEN $end
$var reg 32 9" EX_alu_out [31:0] $end
$var reg 1 I EX_taken $end
$var reg 1 H EX_true_taken $end
$var reg 32 :" next_pc [31:0] $end
$upscope $end
$scope module u_branch_buffer $end
$var wire 20 ;" EX_alu_out [19:0] $end
$var wire 20 <" EX_pc [19:0] $end
$var wire 1 H EX_true_taken $end
$var wire 1 F F_BP_taken $end
$var wire 1 & clk $end
$var wire 1 ( rst $end
$var wire 1 =" taken_on_hit $end
$var wire 20 >" seq_pc [19:0] $end
$var wire 1 3 MEM_stall $end
$var wire 1 @ F_stall $end
$var wire 20 ?" F_pc [19:0] $end
$var wire 20 @" F_BP_target_pc [19:0] $end
$var wire 1 O EX_brn $end
$var parameter 32 A" DEPTH $end
$var parameter 32 B" INDX $end
$var parameter 32 C" PC_BITS $end
$var reg 1 D" ex_hit $end
$var reg 3 E" ex_hit_idx [2:0] $end
$var reg 1 F" f_hit $end
$var reg 3 G" f_hit_idx [2:0] $end
$var integer 32 H" i [31:0] $end
$scope task fifo_insert_new $end
$upscope $end
$upscope $end
$scope module u_d_to_ex_reg $end
$var wire 1 X EX_BP_taken $end
$var wire 20 I" EX_BP_target_pc [19:0] $end
$var wire 32 J" EX_a2 [31:0] $end
$var wire 4 K" EX_alu_op [3:0] $end
$var wire 32 L" EX_b [31:0] $end
$var wire 32 M" EX_b2 [31:0] $end
$var wire 1 O EX_brn $end
$var wire 1 N EX_byt $end
$var wire 1 J EX_str $end
$var wire 1 I EX_taken $end
$var wire 1 & clk $end
$var wire 1 ( rst $end
$var wire 1 + stall_D $end
$var wire 1 3 MEM_stall $end
$var wire 1 G EX_we $end
$var wire 5 N" EX_rd [4:0] $end
$var wire 1 L EX_mul $end
$var wire 1 M EX_ld $end
$var wire 32 O" EX_a [31:0] $end
$var wire 1 ^ D_we $end
$var wire 1 _ D_str $end
$var wire 5 P" D_rd [4:0] $end
$var wire 1 e D_mul $end
$var wire 1 f D_ld $end
$var wire 1 i D_byt $end
$var wire 1 j D_brn $end
$var wire 32 Q" D_b2 [31:0] $end
$var wire 32 R" D_b [31:0] $end
$var wire 4 S" D_alu_op [3:0] $end
$var wire 32 T" D_a2 [31:0] $end
$var wire 32 U" D_a [31:0] $end
$var wire 20 V" D_BP_target_pc [19:0] $end
$var wire 1 r D_BP_taken $end
$var parameter 32 W" PC_BITS $end
$var parameter 32 X" XLEN $end
$var reg 32 Y" ex_a2_r [31:0] $end
$var reg 32 Z" ex_a_r [31:0] $end
$var reg 4 [" ex_alu_op_r [3:0] $end
$var reg 32 \" ex_b2_r [31:0] $end
$var reg 32 ]" ex_b_r [31:0] $end
$var reg 1 ^" ex_bp_taken_r $end
$var reg 20 _" ex_bp_target_pc_r [19:0] $end
$var reg 1 `" ex_brn_r $end
$var reg 1 a" ex_byt_r $end
$var reg 1 M ex_ld_r $end
$var reg 1 L ex_mul_r $end
$var reg 5 b" ex_rd_r [4:0] $end
$var reg 1 c" ex_str_r $end
$var reg 1 G ex_we_r $end
$upscope $end
$scope module u_dcache $end
$var wire 1 & clk $end
$var wire 1 d" op_active $end
$var wire 1 ( rst $end
$var wire 2 e" addr_word [1:0] $end
$var wire 16 f" addr_line [15:0] $end
$var wire 2 g" addr_byte [1:0] $end
$var wire 1 2 MEM_str $end
$var wire 1 5 MEM_mem_valid $end
$var wire 1 6 MEM_ld $end
$var wire 128 h" MEM_data_line [127:0] $end
$var wire 1 9 MEM_byt $end
$var wire 32 i" MEM_b2 [31:0] $end
$var wire 32 j" MEM_alu_out [31:0] $end
$var parameter 32 k" LINE_BITS $end
$var parameter 32 l" XLEN $end
$var reg 16 m" Dc_mem_addr [15:0] $end
$var reg 1 \ Dc_mem_req $end
$var reg 16 n" Dc_wb_addr [15:0] $end
$var reg 1 Z Dc_wb_we $end
$var reg 128 o" Dc_wb_wline [127:0] $end
$var reg 32 p" MEM_data_mem [31:0] $end
$var reg 1 3 MEM_stall $end
$var reg 2 q" fifo_ptr [1:0] $end
$var reg 1 r" hit $end
$var reg 2 s" hit_idx [1:0] $end
$var reg 16 t" miss_line [15:0] $end
$var reg 32 u" tmp_load_word [31:0] $end
$var reg 32 v" tmp_store_word [31:0] $end
$var integer 32 w" i [31:0] $end
$upscope $end
$scope module u_decode $end
$var wire 1 j D_brn $end
$var wire 1 ^ D_we $end
$var wire 1 & clk $end
$var wire 1 x" is_beq $end
$var wire 1 y" is_bgt $end
$var wire 1 z" is_blt $end
$var wire 1 {" is_jmp $end
$var wire 1 |" is_ctrl $end
$var wire 1 _ D_str $end
$var wire 5 }" D_rd [4:0] $end
$var wire 5 ~" D_rb [4:0] $end
$var wire 5 !# D_ra [4:0] $end
$var wire 6 "# D_opc [5:0] $end
$var wire 1 e D_mul $end
$var wire 1 f D_ld $end
$var wire 32 ## D_inst [31:0] $end
$var wire 11 $# D_imd [10:0] $end
$var wire 1 i D_byt $end
$var wire 4 %# D_alu_op [3:0] $end
$var wire 1 n D_addi $end
$var parameter 6 &# OPC_ADD $end
$var parameter 6 '# OPC_ADDI $end
$var parameter 6 (# OPC_AND $end
$var parameter 6 )# OPC_CTRL $end
$var parameter 6 *# OPC_GT $end
$var parameter 5 +# OPC_LOAD $end
$var parameter 6 ,# OPC_LT $end
$var parameter 6 -# OPC_MUL $end
$var parameter 6 .# OPC_NOT $end
$var parameter 6 /# OPC_OR $end
$var parameter 6 0# OPC_SHL $end
$var parameter 6 1# OPC_SHR $end
$var parameter 5 2# OPC_STORE $end
$var parameter 6 3# OPC_SUB $end
$var parameter 6 4# OPC_XOR $end
$var parameter 5 5# RD_BEQ $end
$var parameter 5 6# RD_BGT $end
$var parameter 5 7# RD_BLT $end
$var parameter 5 8# RD_JMP $end
$var parameter 32 9# XLEN $end
$upscope $end
$scope module u_ex_to_mem_reg $end
$var wire 32 :# EX_a2 [31:0] $end
$var wire 32 ;# EX_alu_out [31:0] $end
$var wire 32 <# EX_b2 [31:0] $end
$var wire 1 N EX_byt $end
$var wire 1 M EX_ld $end
$var wire 5 =# EX_rd [4:0] $end
$var wire 1 J EX_str $end
$var wire 1 I EX_taken $end
$var wire 1 G EX_we $end
$var wire 32 ># MEM_a2 [31:0] $end
$var wire 32 ?# MEM_b2 [31:0] $end
$var wire 1 9 MEM_byt $end
$var wire 1 3 MEM_stall $end
$var wire 1 1 MEM_taken $end
$var wire 1 & clk $end
$var wire 1 ( rst $end
$var wire 1 0 MEM_we $end
$var wire 1 2 MEM_str $end
$var wire 5 @# MEM_rd [4:0] $end
$var wire 1 6 MEM_ld $end
$var wire 32 A# MEM_alu_out [31:0] $end
$var parameter 32 B# XLEN $end
$var reg 32 C# mem_a2_r [31:0] $end
$var reg 32 D# mem_alu_out_r [31:0] $end
$var reg 32 E# mem_b2_r [31:0] $end
$var reg 1 F# mem_byt_r $end
$var reg 1 6 mem_ld_r $end
$var reg 5 G# mem_rd_r [4:0] $end
$var reg 1 2 mem_str_r $end
$var reg 1 H# mem_taken_r $end
$var reg 1 0 mem_we_r $end
$upscope $end
$scope module u_f2d $end
$var wire 1 r D_BP_taken $end
$var wire 20 I# D_BP_target_pc [19:0] $end
$var wire 1 I EX_taken $end
$var wire 1 F F_BP_taken $end
$var wire 20 J# F_BP_target_pc [19:0] $end
$var wire 1 3 MEM_stall $end
$var wire 1 & clk $end
$var wire 1 ( rst $end
$var wire 1 + stall_D $end
$var wire 20 K# F_pc [19:0] $end
$var wire 32 L# F_inst [31:0] $end
$var wire 20 M# D_pc [19:0] $end
$var wire 32 N# D_inst [31:0] $end
$var parameter 32 O# NOP $end
$var parameter 32 P# PC_BITS $end
$var parameter 32 Q# XLEN $end
$var reg 1 R# d_bp_taken $end
$var reg 20 S# d_bp_target_pc [19:0] $end
$var reg 32 T# d_inst [31:0] $end
$var reg 20 U# d_pc [19:0] $end
$upscope $end
$scope module u_icache $end
$var wire 1 & clk $end
$var wire 1 ( rst $end
$var wire 2 V# pc_word [1:0] $end
$var wire 16 W# pc_line [15:0] $end
$var wire 20 X# F_pc [19:0] $end
$var wire 1 B F_mem_valid $end
$var wire 128 Y# F_mem_inst [127:0] $end
$var parameter 32 Z# LINE_BITS $end
$var parameter 32 [# PC_BITS $end
$var reg 32 \# F_inst [31:0] $end
$var reg 1 @ F_stall $end
$var reg 16 ]# Ic_mem_addr [15:0] $end
$var reg 1 > Ic_mem_req $end
$var reg 2 ^# fifo_ptr [1:0] $end
$var reg 1 _# hit $end
$var reg 2 `# hit_idx [1:0] $end
$var reg 16 a# miss_line [15:0] $end
$var integer 32 b# i [31:0] $end
$upscope $end
$scope module u_mem_to_wb_reg $end
$var wire 32 c# MEM_data_mem [31:0] $end
$var wire 5 d# MEM_rd [4:0] $end
$var wire 1 0 MEM_we $end
$var wire 1 & clk $end
$var wire 1 ( rst $end
$var wire 1 , WB_we $end
$var wire 5 e# WB_rd [4:0] $end
$var wire 32 f# WB_data_mem [31:0] $end
$var parameter 32 g# XLEN $end
$var reg 32 h# wb_data_mem_r [31:0] $end
$var reg 5 i# wb_rd_r [4:0] $end
$var reg 1 , wb_we_r $end
$upscope $end
$scope module u_pc $end
$var wire 20 j# EX_alt_pc [19:0] $end
$var wire 1 I EX_taken $end
$var wire 20 k# F_BP_target_pc [19:0] $end
$var wire 1 & clk $end
$var wire 1 ( rst $end
$var wire 1 + stall_D $end
$var parameter 32 l# PCLEN $end
$var parameter 20 m# RESET_PC $end
$var reg 20 n# F_pc [19:0] $end
$upscope $end
$scope module u_regfile $end
$var wire 32 o# D_a2 [31:0] $end
$var wire 1 n D_addi $end
$var wire 32 p# D_b2 [31:0] $end
$var wire 1 j D_brn $end
$var wire 11 q# D_imd [10:0] $end
$var wire 1 f D_ld $end
$var wire 20 r# D_pc [19:0] $end
$var wire 5 s# D_ra [4:0] $end
$var wire 5 t# D_rb [4:0] $end
$var wire 1 _ D_str $end
$var wire 2 u# EX_D_bp [1:0] $end
$var wire 32 v# EX_alu_out [31:0] $end
$var wire 2 w# MEM_D_bp [1:0] $end
$var wire 32 x# MEM_data_mem [31:0] $end
$var wire 2 y# WB_D_bp [1:0] $end
$var wire 32 z# WB_data_mem [31:0] $end
$var wire 5 {# WB_rd [4:0] $end
$var wire 1 , WB_we $end
$var wire 1 & clk $end
$var wire 32 |# ra_raw [31:0] $end
$var wire 32 }# rb_raw [31:0] $end
$var wire 32 ~# rb_fwd [31:0] $end
$var wire 32 !$ ra_fwd [31:0] $end
$var wire 32 "$ pc_extended [31:0] $end
$var wire 32 #$ offset [31:0] $end
$var wire 32 $$ D_b [31:0] $end
$var wire 32 %$ D_a [31:0] $end
$var parameter 32 &$ ADDR_SIZE $end
$var parameter 32 '$ PC_BITS $end
$var parameter 32 ($ REG_NUM $end
$var parameter 32 )$ XLEN $end
$var integer 32 *$ i [31:0] $end
$upscope $end
$scope module u_unified_mem $end
$var wire 16 +$ Dc_mem_addr [15:0] $end
$var wire 1 \ Dc_mem_req $end
$var wire 16 ,$ Dc_wb_addr [15:0] $end
$var wire 1 Z Dc_wb_we $end
$var wire 128 -$ Dc_wb_wline [127:0] $end
$var wire 16 .$ Ic_mem_addr [15:0] $end
$var wire 1 > Ic_mem_req $end
$var wire 1 & clk $end
$var wire 1 ( rst $end
$var parameter 32 /$ LATENCY $end
$var parameter 32 0$ LINE_BITS $end
$var parameter 48 1$ NUM_LINES $end
$var parameter 32 2$ WORDS_PER_LINE $end
$var parameter 32 3$ XLEN $end
$var reg 2 4$ D_counter [1:0] $end
$var reg 16 5$ D_saved_line [15:0] $end
$var reg 128 6$ F_mem_inst [127:0] $end
$var reg 1 B F_mem_valid $end
$var reg 2 7$ I_counter [1:0] $end
$var reg 16 8$ I_saved_line [15:0] $end
$var reg 128 9$ MEM_data_line [127:0] $end
$var reg 1 5 MEM_mem_valid $end
$var integer 32 :$ i [31:0] $end
$var integer 32 ;$ j [31:0] $end
$upscope $end
$upscope $end
$scope begin run_loop $end
$upscope $end
$upscope $end
$enddefinitions $end
$comment Show the parameter values. $end
$dumpall
b100000 3$
b100 2$
b10000000000000000 1$
b10000 0$
b11 /$
b100000 )$
b100000 ($
b10100 '$
b101 &$
b0 m#
b10100 l#
b100000 g#
b10100 [#
b10000 Z#
b100000 Q#
b10100 P#
b100000000000000000000000000000 O#
b100000 B#
b100000 9#
b0 8#
b10 7#
b11 6#
b1 5#
b100 4#
b1 3#
b1100 2#
b111 1#
b110 0#
b11 /#
b101 .#
b1110 -#
b1001 ,#
b1011 +#
b1010 *#
b1101 )#
b10 (#
b1000 '#
b0 &#
b100000 l"
b10000 k"
b100000 X"
b10100 W"
b10100 C"
b11 B"
b1000 A"
b100000 8"
b101 7"
b10100 6"
b100000 ."
b100 -"
b101 ,"
b100000 w
b0 v
b100000 u
b10100 t
b101 s
b100000 %
b100000 $
b10100 #
b10110 "
b101 !
$end
#0
$dumpvars
b100 ;$
b10000000000000000 :$
bx 9$
bx 8$
bx 7$
bx 6$
bx 5$
bx 4$
b0 .$
bx -$
bx ,$
bx +$
b100000 *$
bx %$
bx $$
bx #$
bx "$
bx !$
bx ~#
bx }#
bx |#
bx {#
bx z#
bx y#
bx x#
bx w#
bx v#
bx u#
bx t#
bx s#
bx r#
bx q#
bx p#
bx o#
b0 n#
b0 k#
bx j#
bx i#
bx h#
bx f#
bx e#
bx d#
bx c#
bx b#
bx a#
b0 `#
0_#
bx ^#
b0 ]#
b100000000000000000000000000000 \#
bx Y#
b0 X#
b0 W#
b0 V#
bx U#
bx T#
bx S#
xR#
bx N#
bx M#
b100000000000000000000000000000 L#
b0 K#
b0 J#
bx I#
xH#
bx G#
xF#
bx E#
bx D#
bx C#
bx A#
bx @#
bx ?#
bx >#
bx =#
bx <#
bx ;#
bx :#
bx %#
bx $#
bx ##
bx "#
bx !#
bx ~"
bx }"
x|"
x{"
xz"
xy"
xx"
bx w"
bx v"
bx u"
bx t"
bx s"
xr"
bx q"
bx p"
bx o"
bx n"
bx m"
bx j"
bx i"
bx h"
bx g"
bx f"
bx e"
xd"
xc"
bx b"
xa"
x`"
bx _"
x^"
bx ]"
bx \"
bx ["
bx Z"
bx Y"
bx V"
bx U"
bx T"
bx S"
bx R"
bx Q"
bx P"
bx O"
bx N"
bx M"
bx L"
bx K"
bx J"
bx I"
b1000 H"
b0 G"
0F"
bx E"
xD"
b0 @"
b0 ?"
b0 >"
0="
bx <"
bx ;"
bx :"
bx 9"
bx 5"
bx 4"
bx 3"
bx 2"
bx 1"
bx 0"
bx /"
bx +"
bx *"
bx )"
bx ("
bx '"
bx &"
bx %"
bx $"
bx #"
bx ""
x!"
x~
x}
x|
x{
xz
xy
xx
xr
bx q
bx p
bx o
xn
bx m
bx l
bx k
xj
xi
bx h
bx g
xf
xe
bx d
bx c
bx b
bx a
bx `
x_
x^
bx ]
x\
bx [
xZ
bx Y
xX
bx W
bx V
bx U
bx T
bx S
bx R
bx Q
bx P
xO
xN
xM
xL
bx K
xJ
xI
xH
xG
0F
b0 E
b100000000000000000000000000000 D
bx C
xB
b0 A
1@
b0 ?
x>
bx =
bx <
bx ;
bx :
x9
bx 8
bx 7
x6
x5
bx 4
x3
x2
x1
x0
bx /
bx .
bx -
x,
x+
bx *
bx )
1(
bx '
0&
$end
#5000
b0 p
b0 U"
b0 %$
b0 k
b0 Q"
b0 p#
b0 ~#
b0 o
b0 T"
b0 o#
b0 !$
b0 l
b0 R"
b0 $$
0y"
0z"
0x"
0{"
0f
0_
0i
1^
b0 m
b0 S"
b0 %#
b0 V
b0 ("
b0 u#
b0 ;"
b0 j#
b0 ]
b0 m"
b0 +$
b0 #$
b0 h
b0 $#
b0 q#
b0 `
b0 )"
b0 P"
b0 }"
b0 }#
b0 a
b0 *"
b0 ~"
b0 t#
b0 |#
b0 b
b0 +"
b0 !#
b0 s#
0j
0|"
0e
1n
b1000 d
b1000 "#
b0 "$
0+
0|
0y
0x
b0 <"
b0 :"
0H
0I
b0 R
b0 '"
b0 9"
b0 ;#
b0 v#
b0 E"
1D"
1F"
0d"
0{
b0 =
b0 %"
b0 w#
0z
b0 g"
b0 e"
b0 f"
1>
1@
0\
b0 7
b0 p"
b0 c#
b0 x#
03
b0 s"
0r"
0~
b0 /
b0 #"
b0 y#
0}
b0 a#
b0 ^#
b0 q
b0 V"
b0 I#
b0 S#
0r
0R#
b100000000000000000000000000000 g
b100000000000000000000000000000 ##
b100000000000000000000000000000 N#
b100000000000000000000000000000 T#
b0 c
b0 M#
b0 U#
b0 r#
0!"
b0 /"
b0 W
b0 5"
b0 I"
b0 _"
0L
0G
0N
0a"
0J
0c"
0M
b0 K
b0 &"
b0 N"
b0 b"
b0 =#
0X
0^"
0O
0`"
b0 S
b0 2"
b0 K"
b0 ["
b0 P
b0 0"
b0 M"
b0 <#
b0 \"
b0 Q
b0 1"
b0 L"
b0 ]"
b0 T
b0 3"
b0 J"
b0 :#
b0 Y"
b0 U
b0 4"
b0 O"
b0 Z"
09
0F#
02
06
00
b0 4
b0 $"
b0 @#
b0 G#
b0 d#
b0 <
b0 >#
b0 C#
b0 :
b0 i"
b0 ?#
b0 E#
01
0H#
b0 ;
b0 j"
b0 A#
b0 D#
b0 Y
b0 o"
b0 -$
b0 [
b0 n"
b0 ,$
0Z
b0 t"
b0 q"
b0 7$
0B
b0 4$
05
0,
b0 -
b0 ""
b0 e#
b0 i#
b0 {#
b0 .
b0 f#
b0 h#
b0 z#
b100 b#
b1000 H"
b100 w"
1&
#10000
0&
#15000
b100 w"
b1000 H"
b100 b#
1&
#20000
0&
#25000
0(
b100 b#
b1000 H"
b100 w"
b0 )
1&
#30000
0&
#35000
b11 V
b11 ("
b11 u#
1y
1x
b11 7$
b0 8$
1G
b100000000000000000000000000000 '
b1 )
1&
#40000
0&
#45000
1{
b11 =
b11 %"
b11 w#
1z
10
b10 7$
b10 )
1&
#50000
0&
#55000
1~
b11 /
b11 #"
b11 y#
1}
1,
b1 7$
b11 )
1&
#60000
0&
#65000
0>
1@
1B
b100000100001000010000000000100001000000110001100011000000000110010000001000010000100000000001000100000001000010000100000000001 C
b100000100001000010000000000100001000000110001100011000000000110010000001000010000100000000001000100000001000010000100000000001 Y#
b100000100001000010000000000100001000000110001100011000000000110010000001000010000100000000001000100000001000010000100000000001 6$
b0 7$
b100 )
1&
#70000
0&
#75000
b100 E
b100 @"
b100 J#
b100 k#
b100 >"
b100000001000010000100000000001 D
b100000001000010000100000000001 L#
b100000001000010000100000000001 \#
1_#
b100 b#
0@
0B
b1 ^#
b101 )
1&
#80000
0&
#85000
b0 V
b0 ("
b0 u#
b1 l
b1 R"
b1 $$
0~
0{
0y
b0 /
b0 #"
b0 y#
0}
b0 =
b0 %"
b0 w#
0z
0x
b100 b#
b100000010000100001000000000010 D
b100000010000100001000000000010 L#
b100000010000100001000000000010 \#
1_#
b1 #$
b1 h
b1 $#
b1 q#
b1 `
b1 )"
b1 P"
b1 }"
b1 a
b1 *"
b1 ~"
b1 t#
b1 b
b1 +"
b1 !#
b1 s#
b1 V#
b1000 E
b1000 @"
b1000 J#
b1000 k#
b1000 H"
0F"
b100 q
b100 V"
b100 I#
b100 S#
b100000001000010000100000000001 g
b100000001000010000100000000001 ##
b100000001000010000100000000001 N#
b100000001000010000100000000001 T#
b1000 >"
b100 A
b100 ?"
b100 K#
b100 X#
b100 n#
b100000001000010000100000000001 '
b110 )
1&
#90000
0&
#95000
b1 ;"
b1 j#
b10 l
b10 R"
b10 $$
b100 b#
b100000011000110001100000000011 D
b100000011000110001100000000011 L#
b100000011000110001100000000011 \#
1_#
b1 R
b1 '"
b1 9"
b1 ;#
b1 v#
b10 #$
b10 h
b10 $#
b10 q#
b10 `
b10 )"
b10 P"
b10 }"
b10 a
b10 *"
b10 ~"
b10 t#
b10 b
b10 +"
b10 !#
b10 s#
b100 "$
b10 V#
b1100 E
b1100 @"
b1100 J#
b1100 k#
b1000 H"
b100 W
b100 5"
b100 I"
b100 _"
b1 K
b1 &"
b1 N"
b1 b"
b1 =#
b1 Q
b1 1"
b1 L"
b1 ]"
b1000 q
b1000 V"
b1000 I#
b1000 S#
b100000010000100001000000000010 g
b100000010000100001000000000010 ##
b100000010000100001000000000010 N#
b100000010000100001000000000010 T#
b100 c
b100 M#
b100 U#
b100 r#
b1100 >"
b1000 A
b1000 ?"
b1000 K#
b1000 X#
b1000 n#
b100000010000100001000000000010 '
b111 )
1&
#100000
0&
#105000
b0 p
b0 U"
b0 %$
b0 k
b0 Q"
b0 p#
b0 ~#
b0 o
b0 T"
b0 o#
b0 !$
b11 l
b11 R"
b11 $$
b0 V
b0 ("
b0 u#
b10 ;"
b10 j#
b100 b#
b100000100001000010000000000100 D
b100000100001000010000000000100 L#
b100000100001000010000000000100 \#
1_#
b11 #$
b11 h
b11 $#
b11 q#
b11 `
b11 )"
b11 P"
b11 }"
b11 a
b11 *"
b11 ~"
b11 t#
b11 b
b11 +"
b11 !#
b11 s#
b1000 "$
0y
0x
b10 R
b10 '"
b10 9"
b10 ;#
b10 v#
b1 g"
b1 7
b1 p"
b1 c#
b1 x#
b11 V#
b10000 E
b10000 @"
b10000 J#
b10000 k#
b1000 H"
b1100 q
b1100 V"
b1100 I#
b1100 S#
b100000011000110001100000000011 g
b100000011000110001100000000011 ##
b100000011000110001100000000011 N#
b100000011000110001100000000011 T#
b1000 c
b1000 M#
b1000 U#
b1000 r#
b1000 W
b1000 5"
b1000 I"
b1000 _"
b10 K
b10 &"
b10 N"
b10 b"
b10 =#
b10 Q
b10 1"
b10 L"
b10 ]"
b1 4
b1 $"
b1 @#
b1 G#
b1 d#
b1 ;
b1 j"
b1 A#
b1 D#
b10000 >"
b1100 A
b1100 ?"
b1100 K#
b1100 X#
b1100 n#
b100000011000110001100000000011 '
b1000 )
1&
#110000
0&
#115000
b11 ;"
b11 j#
b100 l
b100 R"
b100 $$
1>
1@
b100 b#
b1 ?
b1 ]#
b1 .$
b100000000000000000000000000000 D
b100000000000000000000000000000 L#
b100000000000000000000000000000 \#
0_#
b10 g"
b10 7
b10 p"
b10 c#
b10 x#
b11 R
b11 '"
b11 9"
b11 ;#
b11 v#
b100 #$
b100 h
b100 $#
b100 q#
b100 `
b100 )"
b100 P"
b100 }"
b100 a
b100 *"
b100 ~"
b100 t#
b100 b
b100 +"
b100 !#
b100 s#
b1100 "$
b0 V#
b1 W#
b10000 E
b10000 @"
b10000 J#
b10000 k#
b1000 H"
b1 -
b1 ""
b1 e#
b1 i#
b1 {#
b1 .
b1 f#
b1 h#
b1 z#
b10 4
b10 $"
b10 @#
b10 G#
b10 d#
b10 ;
b10 j"
b10 A#
b10 D#
b1100 W
b1100 5"
b1100 I"
b1100 _"
b11 K
b11 &"
b11 N"
b11 b"
b11 =#
b11 Q
b11 1"
b11 L"
b11 ]"
b10000 q
b10000 V"
b10000 I#
b10000 S#
b100000100001000010000000000100 g
b100000100001000010000000000100 ##
b100000100001000010000000000100 N#
b100000100001000010000000000100 T#
b1100 c
b1100 M#
b1100 U#
b1100 r#
b10000 >"
b10000 A
b10000 ?"
b10000 K#
b10000 X#
b10000 n#
b100000100001000010000000000100 '
b1001 )
1&
#120000
0&
#125000
b0 p
b0 U"
b0 %$
b0 k
b0 Q"
b0 p#
b0 ~#
b0 o
b0 T"
b0 o#
b0 !$
b0 l
b0 R"
b0 $$
b0 V
b0 ("
b0 u#
b100 ;"
b100 j#
b0 #$
b0 h
b0 $#
b0 q#
b0 `
b0 )"
b0 P"
b0 }"
b0 a
b0 *"
b0 ~"
b0 t#
b0 b
b0 +"
b0 !#
b0 s#
b10000 "$
0y
0x
b100 R
b100 '"
b100 9"
b100 ;#
b100 v#
b11 g"
b11 7
b11 p"
b11 c#
b11 x#
b1 a#
b100000000000000000000000000000 g
b100000000000000000000000000000 ##
b100000000000000000000000000000 N#
b100000000000000000000000000000 T#
b10000 c
b10000 M#
b10000 U#
b10000 r#
b10000 W
b10000 5"
b10000 I"
b10000 _"
b100 K
b100 &"
b100 N"
b100 b"
b100 =#
b100 Q
b100 1"
b100 L"
b100 ]"
b11 4
b11 $"
b11 @#
b11 G#
b11 d#
b11 ;
b11 j"
b11 A#
b11 D#
b11 7$
b1 8$
b10 -
b10 ""
b10 e#
b10 i#
b10 {#
b10 .
b10 f#
b10 h#
b10 z#
b100000000000000000000000000000 '
b1010 )
1&
#130000
0&
