rtl/cpu_run_tb.vcd
$date
	Mon Nov 17 16:12:05 2025
$end
$version
	Icarus Verilog
$end
$timescale
	1ps
$end
$scope module cpu_run_tb $end
$var parameter 32 ! ADDR_SIZE $end
$var parameter 32 " END_PC $end
$var parameter 32 # PC_BITS $end
$var parameter 32 $ REG_NUM $end
$var parameter 32 % XLEN $end
$var reg 1 & clk $end
$var reg 32 ' curr_inst [31:0] $end
$var reg 1 ( rst $end
$var integer 32 ) cycles [31:0] $end
$var integer 32 * i [31:0] $end
$scope module dut $end
$var wire 1 & clk $end
$var wire 1 ( rst $end
$var wire 1 + stall_D $end
$var wire 12 , pc_plus_1 [11:0] $end
$var wire 1 - WB_we $end
$var wire 5 . WB_rd [4:0] $end
$var wire 32 / WB_data_mem [31:0] $end
$var wire 2 0 WB_D_bp [1:0] $end
$var wire 1 1 MEM_we $end
$var wire 1 2 MEM_taken $end
$var wire 1 3 MEM_str $end
$var wire 1 4 MEM_stall $end
$var wire 5 5 MEM_rd [4:0] $end
$var wire 1 6 MEM_mem_valid $end
$var wire 1 7 MEM_ld $end
$var wire 32 8 MEM_data_mem [31:0] $end
$var wire 128 9 MEM_data_line [127:0] $end
$var wire 1 : MEM_byt $end
$var wire 32 ; MEM_b2 [31:0] $end
$var wire 32 < MEM_alu_out [31:0] $end
$var wire 32 = MEM_a2 [31:0] $end
$var wire 2 > MEM_D_bp [1:0] $end
$var wire 1 ? Ic_mem_req $end
$var wire 10 @ Ic_mem_addr [9:0] $end
$var wire 1 A F_stall $end
$var wire 12 B F_pc [11:0] $end
$var wire 1 C F_mem_valid $end
$var wire 128 D F_mem_inst [127:0] $end
$var wire 32 E F_inst [31:0] $end
$var wire 12 F F_BP_target_pc [11:0] $end
$var wire 1 G F_BP_taken $end
$var wire 1 H EX_we $end
$var wire 1 I EX_true_taken $end
$var wire 1 J EX_taken $end
$var wire 1 K EX_str $end
$var wire 5 L EX_rd [4:0] $end
$var wire 1 M EX_mul $end
$var wire 1 N EX_ld $end
$var wire 1 O EX_byt $end
$var wire 1 P EX_brn $end
$var wire 32 Q EX_b2 [31:0] $end
$var wire 32 R EX_b [31:0] $end
$var wire 32 S EX_alu_out [31:0] $end
$var wire 4 T EX_alu_op [3:0] $end
$var wire 32 U EX_a2 [31:0] $end
$var wire 32 V EX_a [31:0] $end
$var wire 2 W EX_D_bp [1:0] $end
$var wire 1 X EX_BP_taken $end
$var wire 128 Y Dc_wb_wline [127:0] $end
$var wire 1 Z Dc_wb_we $end
$var wire 10 [ Dc_wb_addr [9:0] $end
$var wire 1 \ Dc_mem_req $end
$var wire 10 ] Dc_mem_addr [9:0] $end
$var wire 1 ^ D_we $end
$var wire 1 _ D_str $end
$var wire 5 ` D_rd [4:0] $end
$var wire 5 a D_rb [4:0] $end
$var wire 5 b D_ra [4:0] $end
$var wire 12 c D_pc [11:0] $end
$var wire 6 d D_opc [5:0] $end
$var wire 1 e D_mul $end
$var wire 1 f D_ld $end
$var wire 32 g D_inst [31:0] $end
$var wire 11 h D_imd [10:0] $end
$var wire 1 i D_byt $end
$var wire 1 j D_brn $end
$var wire 32 k D_b2 [31:0] $end
$var wire 32 l D_b [31:0] $end
$var wire 4 m D_alu_op [3:0] $end
$var wire 1 n D_addi $end
$var wire 32 o D_a2 [31:0] $end
$var wire 32 p D_a [31:0] $end
$var wire 1 q D_BP_taken $end
$var parameter 32 r ADDR_SIZE $end
$var parameter 32 s PC_BITS $end
$var parameter 32 t REG_NUM $end
$var parameter 12 u RESET_PC $end
$var parameter 32 v XLEN $end
$scope module u_Hazard_unit $end
$var wire 1 & clk $end
$var wire 1 w ex_hit_ra $end
$var wire 1 x ex_hit_rb $end
$var wire 1 y mem_hit_ra $end
$var wire 1 z mem_hit_rb $end
$var wire 1 { mul_start $end
$var wire 1 ( rst $end
$var wire 1 + stall_D $end
$var wire 1 | wb_hit_ra $end
$var wire 1 } wb_hit_rb $end
$var wire 1 ~ mul_stall $end
$var wire 1 - WB_we $end
$var wire 5 !" WB_rd [4:0] $end
$var wire 2 "" WB_D_bp [1:0] $end
$var wire 1 1 MEM_we $end
$var wire 5 #" MEM_rd [4:0] $end
$var wire 2 $" MEM_D_bp [1:0] $end
$var wire 1 H EX_we $end
$var wire 5 %" EX_rd [4:0] $end
$var wire 1 M EX_mul $end
$var wire 1 N EX_ld $end
$var wire 32 &" EX_alu_out [31:0] $end
$var wire 2 '" EX_D_bp [1:0] $end
$var wire 5 (" D_rd [4:0] $end
$var wire 5 )" D_rb [4:0] $end
$var wire 5 *" D_ra [4:0] $end
$var parameter 32 +" ADDR_SIZE $end
$var parameter 32 ," MUL_STALLS $end
$var parameter 32 -" XLEN $end
$var reg 3 ." mul_cnt [2:0] $end
$upscope $end
$scope module u_alu $end
$var wire 1 P EX_brn $end
$var wire 32 /" EX_b2 [31:0] $end
$var wire 32 0" EX_b [31:0] $end
$var wire 4 1" EX_alu_op [3:0] $end
$var wire 32 2" EX_a2 [31:0] $end
$var wire 32 3" EX_a [31:0] $end
$var wire 1 X EX_BP_taken $end
$var parameter 32 4" SHW $end
$var parameter 32 5" XLEN $end
$var reg 32 6" EX_alu_out [31:0] $end
$var reg 1 J EX_taken $end
$var reg 1 I EX_true_taken $end
$var reg 32 7" next_pc [31:0] $end
$upscope $end
$scope module u_branch_buffer $end
$var wire 12 8" EX_alu_out [11:0] $end
$var wire 12 9" EX_pc [11:0] $end
$var wire 1 I EX_true_taken $end
$var wire 1 G F_BP_taken $end
$var wire 1 & clk $end
$var wire 1 ( rst $end
$var wire 1 :" taken_on_hit $end
$var wire 1 4 MEM_stall $end
$var wire 1 A F_stall $end
$var wire 12 ;" F_pc [11:0] $end
$var wire 12 <" F_BP_target_pc [11:0] $end
$var wire 1 P EX_brn $end
$var parameter 32 =" DEPTH $end
$var parameter 32 >" INDX $end
$var parameter 32 ?" PC_BITS $end
$var reg 1 @" ex_hit $end
$var reg 3 A" ex_hit_idx [2:0] $end
$var reg 1 B" f_hit $end
$var reg 3 C" f_hit_idx [2:0] $end
$var integer 32 D" i [31:0] $end
$scope task fifo_insert_new $end
$upscope $end
$upscope $end
$scope module u_d_to_ex_reg $end
$var wire 1 X EX_BP_taken $end
$var wire 32 E" EX_a2 [31:0] $end
$var wire 4 F" EX_alu_op [3:0] $end
$var wire 32 G" EX_b [31:0] $end
$var wire 32 H" EX_b2 [31:0] $end
$var wire 1 P EX_brn $end
$var wire 1 O EX_byt $end
$var wire 1 K EX_str $end
$var wire 1 J EX_taken $end
$var wire 1 & clk $end
$var wire 1 ( rst $end
$var wire 1 + stall_D $end
$var wire 1 4 MEM_stall $end
$var wire 1 H EX_we $end
$var wire 5 I" EX_rd [4:0] $end
$var wire 1 M EX_mul $end
$var wire 1 N EX_ld $end
$var wire 32 J" EX_a [31:0] $end
$var wire 1 ^ D_we $end
$var wire 1 _ D_str $end
$var wire 5 K" D_rd [4:0] $end
$var wire 1 e D_mul $end
$var wire 1 f D_ld $end
$var wire 1 i D_byt $end
$var wire 1 j D_brn $end
$var wire 32 L" D_b2 [31:0] $end
$var wire 32 M" D_b [31:0] $end
$var wire 4 N" D_alu_op [3:0] $end
$var wire 32 O" D_a2 [31:0] $end
$var wire 32 P" D_a [31:0] $end
$var wire 1 q D_BP_taken $end
$var parameter 32 Q" XLEN $end
$var reg 32 R" ex_a2_r [31:0] $end
$var reg 32 S" ex_a_r [31:0] $end
$var reg 4 T" ex_alu_op_r [3:0] $end
$var reg 32 U" ex_b2_r [31:0] $end
$var reg 32 V" ex_b_r [31:0] $end
$var reg 1 W" ex_bp_taken_r $end
$var reg 1 X" ex_brn_r $end
$var reg 1 Y" ex_byt_r $end
$var reg 1 N ex_ld_r $end
$var reg 1 M ex_mul_r $end
$var reg 5 Z" ex_rd_r [4:0] $end
$var reg 1 [" ex_str_r $end
$var reg 1 H ex_we_r $end
$upscope $end
$scope module u_dcache $end
$var wire 1 & clk $end
$var wire 1 \" op_active $end
$var wire 1 ( rst $end
$var wire 12 ]" addr_word [11:0] $end
$var wire 2 ^" addr_off [1:0] $end
$var wire 10 _" addr_line [9:0] $end
$var wire 1 3 MEM_str $end
$var wire 1 6 MEM_mem_valid $end
$var wire 1 7 MEM_ld $end
$var wire 128 `" MEM_data_line [127:0] $end
$var wire 1 : MEM_byt $end
$var wire 32 a" MEM_b2 [31:0] $end
$var wire 32 b" MEM_alu_out [31:0] $end
$var parameter 32 c" XLEN $end
$var reg 10 d" Dc_mem_addr [9:0] $end
$var reg 1 \ Dc_mem_req $end
$var reg 10 e" Dc_wb_addr [9:0] $end
$var reg 1 Z Dc_wb_we $end
$var reg 128 f" Dc_wb_wline [127:0] $end
$var reg 32 g" MEM_data_mem [31:0] $end
$var reg 1 4 MEM_stall $end
$var reg 2 h" fifo_ptr [1:0] $end
$var reg 1 i" hit $end
$var reg 2 j" hit_idx [1:0] $end
$var reg 10 k" miss_line [9:0] $end
$var integer 32 l" i [31:0] $end
$upscope $end
$scope module u_decode $end
$var wire 1 j D_brn $end
$var wire 1 ^ D_we $end
$var wire 1 & clk $end
$var wire 1 m" is_beq $end
$var wire 1 n" is_bgt $end
$var wire 1 o" is_blt $end
$var wire 1 p" is_jmp $end
$var wire 1 q" is_ctrl $end
$var wire 1 _ D_str $end
$var wire 5 r" D_rd [4:0] $end
$var wire 5 s" D_rb [4:0] $end
$var wire 5 t" D_ra [4:0] $end
$var wire 6 u" D_opc [5:0] $end
$var wire 1 e D_mul $end
$var wire 1 f D_ld $end
$var wire 32 v" D_inst [31:0] $end
$var wire 11 w" D_imd [10:0] $end
$var wire 1 i D_byt $end
$var wire 4 x" D_alu_op [3:0] $end
$var wire 1 n D_addi $end
$var parameter 6 y" OPC_ADD $end
$var parameter 6 z" OPC_ADDI $end
$var parameter 6 {" OPC_AND $end
$var parameter 6 |" OPC_CTRL $end
$var parameter 6 }" OPC_GT $end
$var parameter 5 ~" OPC_LOAD $end
$var parameter 6 !# OPC_LT $end
$var parameter 6 "# OPC_MUL $end
$var parameter 6 ## OPC_NOT $end
$var parameter 6 $# OPC_OR $end
$var parameter 6 %# OPC_SHL $end
$var parameter 6 &# OPC_SHR $end
$var parameter 5 '# OPC_STORE $end
$var parameter 6 (# OPC_SUB $end
$var parameter 6 )# OPC_XOR $end
$var parameter 5 *# RD_BEQ $end
$var parameter 5 +# RD_BGT $end
$var parameter 5 ,# RD_BLT $end
$var parameter 5 -# RD_JMP $end
$var parameter 32 .# XLEN $end
$upscope $end
$scope module u_ex_to_mem_reg $end
$var wire 32 /# EX_a2 [31:0] $end
$var wire 32 0# EX_alu_out [31:0] $end
$var wire 32 1# EX_b2 [31:0] $end
$var wire 1 O EX_byt $end
$var wire 1 N EX_ld $end
$var wire 5 2# EX_rd [4:0] $end
$var wire 1 K EX_str $end
$var wire 1 J EX_taken $end
$var wire 1 H EX_we $end
$var wire 32 3# MEM_a2 [31:0] $end
$var wire 32 4# MEM_b2 [31:0] $end
$var wire 1 : MEM_byt $end
$var wire 1 4 MEM_stall $end
$var wire 1 2 MEM_taken $end
$var wire 1 & clk $end
$var wire 1 ( rst $end
$var wire 1 1 MEM_we $end
$var wire 1 3 MEM_str $end
$var wire 5 5# MEM_rd [4:0] $end
$var wire 1 7 MEM_ld $end
$var wire 32 6# MEM_alu_out [31:0] $end
$var parameter 32 7# XLEN $end
$var reg 32 8# mem_a2_r [31:0] $end
$var reg 32 9# mem_alu_out_r [31:0] $end
$var reg 32 :# mem_b2_r [31:0] $end
$var reg 1 ;# mem_byt_r $end
$var reg 1 7 mem_ld_r $end
$var reg 5 <# mem_rd_r [4:0] $end
$var reg 1 3 mem_str_r $end
$var reg 1 =# mem_taken_r $end
$var reg 1 1 mem_we_r $end
$upscope $end
$scope module u_f2d $end
$var wire 1 q D_BP_taken $end
$var wire 1 J EX_taken $end
$var wire 1 G F_BP_taken $end
$var wire 1 4 MEM_stall $end
$var wire 1 & clk $end
$var wire 1 ( rst $end
$var wire 1 + stall_D $end
$var wire 12 ># F_pc [11:0] $end
$var wire 32 ?# F_inst [31:0] $end
$var wire 12 @# D_pc [11:0] $end
$var wire 32 A# D_inst [31:0] $end
$var parameter 32 B# NOP $end
$var parameter 32 C# PC_BITS $end
$var parameter 32 D# XLEN $end
$var reg 1 E# d_bp_taken $end
$var reg 32 F# d_inst [31:0] $end
$var reg 12 G# d_pc [11:0] $end
$upscope $end
$scope module u_icache $end
$var wire 1 & clk $end
$var wire 1 ( rst $end
$var wire 2 H# pc_word [1:0] $end
$var wire 12 I# pc_line [11:0] $end
$var wire 12 J# F_pc [11:0] $end
$var wire 1 C F_mem_valid $end
$var wire 128 K# F_mem_inst [127:0] $end
$var parameter 32 L# PC_BITS $end
$var reg 32 M# F_inst [31:0] $end
$var reg 1 A F_stall $end
$var reg 10 N# Ic_mem_addr [9:0] $end
$var reg 1 ? Ic_mem_req $end
$var reg 2 O# fifo_ptr [1:0] $end
$var reg 1 P# hit $end
$var reg 2 Q# hit_idx [1:0] $end
$var reg 10 R# miss_line [9:0] $end
$var integer 32 S# i [31:0] $end
$upscope $end
$scope module u_mem_to_wb_reg $end
$var wire 32 T# MEM_data_mem [31:0] $end
$var wire 5 U# MEM_rd [4:0] $end
$var wire 1 1 MEM_we $end
$var wire 1 & clk $end
$var wire 1 ( rst $end
$var wire 1 - WB_we $end
$var wire 5 V# WB_rd [4:0] $end
$var wire 32 W# WB_data_mem [31:0] $end
$var parameter 32 X# XLEN $end
$var reg 32 Y# wb_data_mem_r [31:0] $end
$var reg 5 Z# wb_rd_r [4:0] $end
$var reg 1 - wb_we_r $end
$upscope $end
$scope module u_pc $end
$var wire 12 [# EX_alt_pc [11:0] $end
$var wire 1 J EX_taken $end
$var wire 12 \# F_BP_target_pc [11:0] $end
$var wire 1 & clk $end
$var wire 1 ( rst $end
$var wire 1 + stall_D $end
$var parameter 32 ]# PCLEN $end
$var parameter 12 ^# RESET_PC $end
$var reg 12 _# F_pc [11:0] $end
$upscope $end
$scope module u_regfile $end
$var wire 32 `# D_a2 [31:0] $end
$var wire 1 n D_addi $end
$var wire 32 a# D_b2 [31:0] $end
$var wire 1 j D_brn $end
$var wire 11 b# D_imd [10:0] $end
$var wire 1 f D_ld $end
$var wire 12 c# D_pc [11:0] $end
$var wire 5 d# D_ra [4:0] $end
$var wire 5 e# D_rb [4:0] $end
$var wire 1 _ D_str $end
$var wire 2 f# EX_D_bp [1:0] $end
$var wire 32 g# EX_alu_out [31:0] $end
$var wire 2 h# MEM_D_bp [1:0] $end
$var wire 32 i# MEM_data_mem [31:0] $end
$var wire 2 j# WB_D_bp [1:0] $end
$var wire 32 k# WB_data_mem [31:0] $end
$var wire 5 l# WB_rd [4:0] $end
$var wire 1 - WB_we $end
$var wire 1 & clk $end
$var wire 32 m# ra_raw [31:0] $end
$var wire 32 n# rb_raw [31:0] $end
$var wire 32 o# rb_fwd [31:0] $end
$var wire 32 p# ra_fwd [31:0] $end
$var wire 32 q# pc_extended [31:0] $end
$var wire 32 r# offset [31:0] $end
$var wire 32 s# D_b [31:0] $end
$var wire 32 t# D_a [31:0] $end
$var parameter 32 u# ADDR_SIZE $end
$var parameter 32 v# REG_NUM $end
$var parameter 32 w# XLEN $end
$var integer 32 x# i [31:0] $end
$upscope $end
$scope module u_unified_mem $end
$var wire 10 y# Dc_mem_addr [9:0] $end
$var wire 1 \ Dc_mem_req $end
$var wire 10 z# Dc_wb_addr [9:0] $end
$var wire 1 Z Dc_wb_we $end
$var wire 128 {# Dc_wb_wline [127:0] $end
$var wire 10 |# Ic_mem_addr [9:0] $end
$var wire 1 ? Ic_mem_req $end
$var wire 1 & clk $end
$var wire 1 ( rst $end
$var parameter 32 }# LATENCY $end
$var parameter 32 ~# XLEN $end
$var reg 2 !$ D_counter [1:0] $end
$var reg 10 "$ D_saved_line [9:0] $end
$var reg 128 #$ F_mem_inst [127:0] $end
$var reg 1 C F_mem_valid $end
$var reg 2 $$ I_counter [1:0] $end
$var reg 10 %$ I_saved_line [9:0] $end
$var reg 128 &$ MEM_data_line [127:0] $end
$var reg 1 6 MEM_mem_valid $end
$var integer 32 '$ i [31:0] $end
$var integer 32 ($ j [31:0] $end
$upscope $end
$upscope $end
$scope begin run_loop $end
$upscope $end
$upscope $end
$enddefinitions $end
$comment Show the parameter values. $end
$dumpall
b100000 ~#
b11 }#
b100000 w#
b100000 v#
b101 u#
b0 ^#
b1100 ]#
b100000 X#
b1100 L#
b100000 D#
b1100 C#
b100000000000000000000000000000 B#
b100000 7#
b100000 .#
b0 -#
b10 ,#
b11 +#
b1 *#
b100 )#
b1 (#
b1100 '#
b111 &#
b110 %#
b11 $#
b101 ##
b1110 "#
b1001 !#
b1011 ~"
b1010 }"
b1101 |"
b10 {"
b1000 z"
b0 y"
b100000 c"
b100000 Q"
b1100 ?"
b11 >"
b1000 ="
b100000 5"
b101 4"
b100000 -"
b100 ,"
b101 +"
b100000 v
b0 u
b100000 t
b1100 s
b101 r
b100000 %
b100000 $
b1100 #
b10110 "
b101 !
$end
#0
$dumpvars
b100 ($
b10000000000 '$
bx &$
bx %$
bx $$
bx #$
bx "$
bx !$
b0 |#
bx {#
bx z#
b0xxxxxxxxx y#
b100000 x#
bx t#
bx s#
bx r#
bx q#
bx p#
bx o#
bx n#
bx m#
bx l#
bx k#
bx j#
bx i#
bx h#
bx g#
bx f#
bx e#
bx d#
bx c#
bx b#
bx a#
bx `#
b0 _#
b0 \#
bx [#
bx Z#
bx Y#
bx W#
bx V#
bx U#
bx T#
bx S#
bx R#
b0 Q#
0P#
bx O#
b0 N#
b100000000000000000000000000000 M#
bx K#
b0 J#
b0 I#
b0 H#
bx G#
bx F#
xE#
bx A#
bx @#
b100000000000000000000000000000 ?#
b0 >#
x=#
bx <#
x;#
bx :#
bx 9#
bx 8#
bx 6#
bx 5#
bx 4#
bx 3#
bx 2#
bx 1#
bx 0#
bx /#
bx x"
bx w"
bx v"
bx u"
bx t"
bx s"
bx r"
xq"
xp"
xo"
xn"
xm"
bx l"
bx k"
b0 j"
0i"
bx h"
bx g"
bx f"
bx e"
b0xxxxxxxxx d"
bx b"
bx a"
bx `"
b0xxxxxxxxx _"
bx ^"
b0xxxxxxxxxxx ]"
x\"
x["
bx Z"
xY"
xX"
xW"
bx V"
bx U"
bx T"
bx S"
bx R"
bx P"
bx O"
bx N"
bx M"
bx L"
bx K"
bx J"
bx I"
bx H"
bx G"
bx F"
bx E"
b1000 D"
b0 C"
0B"
bx A"
x@"
b0 <"
b0 ;"
0:"
bx 9"
bx 8"
bx 7"
bx 6"
bx 3"
bx 2"
bx 1"
bx 0"
bx /"
bx ."
bx *"
bx )"
bx ("
bx '"
bx &"
bx %"
bx $"
bx #"
bx ""
bx !"
x~
x}
x|
x{
xz
xy
xx
xw
xq
bx p
bx o
xn
bx m
bx l
bx k
xj
xi
bx h
bx g
xf
xe
bx d
bx c
bx b
bx a
bx `
x_
x^
b0xxxxxxxxx ]
0\
bx [
xZ
bx Y
xX
bx W
bx V
bx U
bx T
bx S
bx R
bx Q
xP
xO
xN
xM
bx L
xK
xJ
xI
xH
0G
b0 F
b100000000000000000000000000000 E
bx D
xC
b0 B
1A
b0 @
x?
bx >
bx =
bx <
bx ;
x:
bx 9
bx 8
x7
x6
bx 5
04
x3
x2
x1
bx 0
bx /
bx .
x-
b1 ,
x+
bx *
bx )
1(
bx '
0&
$end
#5000
b0 p
b0 P"
b0 t#
b0 k
b0 L"
b0 a#
b0 o#
b0 o
b0 O"
b0 `#
b0 p#
b0 l
b0 M"
b0 s#
0n"
0o"
0m"
0p"
0f
0_
0i
1^
b0 m
b0 N"
b0 x"
b0 W
b0 '"
b0 f#
b0 8"
b0 [#
b0 ]
b0 d"
b0 y#
b0 _"
b0 ^"
b0 r#
b0 h
b0 w"
b0 b#
b0 `
b0 ("
b0 K"
b0 r"
b0 n#
b0 a
b0 )"
b0 s"
b0 e#
b0 m#
b0 b
b0 *"
b0 t"
b0 d#
0j
0q"
0e
1n
b1000 d
b1000 u"
b0 q#
0+
0{
0x
0w
b0 9"
b0 7"
0I
0J
b0 S
b0 &"
b0 6"
b0 0#
b0 g#
b0 A"
1@"
1B"
0\"
0z
b0 >
b0 $"
b0 h#
0y
b0 ]"
1?
1A
b0 8
b0 g"
b0 T#
b0 i#
0}
b0 0
b0 ""
b0 j#
0|
b0 R#
b0 O#
0q
0E#
b100000000000000000000000000000 g
b100000000000000000000000000000 v"
b100000000000000000000000000000 A#
b100000000000000000000000000000 F#
b0 c
b0 @#
b0 G#
b0 c#
0~
b0 ."
0M
0H
0O
0Y"
0K
0["
0N
b0 L
b0 %"
b0 I"
b0 Z"
b0 2#
0X
0W"
0P
0X"
b0 T
b0 1"
b0 F"
b0 T"
b0 Q
b0 /"
b0 H"
b0 1#
b0 U"
b0 R
b0 0"
b0 G"
b0 V"
b0 U
b0 2"
b0 E"
b0 /#
b0 R"
b0 V
b0 3"
b0 J"
b0 S"
0:
0;#
03
07
01
b0 5
b0 #"
b0 5#
b0 <#
b0 U#
b0 =
b0 3#
b0 8#
b0 ;
b0 a"
b0 4#
b0 :#
02
0=#
b0 <
b0 b"
b0 6#
b0 9#
b0 Y
b0 f"
b0 {#
b0 [
b0 e"
b0 z#
0Z
b0 k"
b0 h"
b0 $$
0C
b0 !$
06
0-
b0 .
b0 !"
b0 V#
b0 Z#
b0 l#
b0 /
b0 W#
b0 Y#
b0 k#
b100 S#
b1000 D"
b100 l"
1&
#10000
0&
#15000
b100 l"
b1000 D"
b100 S#
1&
#20000
0&
#25000
0(
b100 S#
b1000 D"
b100 l"
b0 )
1&
#30000
0&
#35000
b11 W
b11 '"
b11 f#
1x
1w
b11 $$
b0 %$
1H
b100000000000000000000000000000 '
b1 )
1&
#40000
0&
#45000
1z
b11 >
b11 $"
b11 h#
1y
11
b10 $$
b10 )
1&
#50000
0&
#55000
1}
b11 0
b11 ""
b11 j#
1|
1-
b1 $$
b11 )
1&
#60000
0&
#65000
0?
1A
1C
b100000101001010010100110010000001000001000010000100001001011000010000001100011000110001100100000100000010000100001000001100100 D
b100000101001010010100110010000001000001000010000100001001011000010000001100011000110001100100000100000010000100001000001100100 K#
b100000101001010010100110010000001000001000010000100001001011000010000001100011000110001100100000100000010000100001000001100100 #$
b0 $$
b100 )
1&
#70000
0&
#75000
b1 F
b1 <"
b1 \#
b100000010000100001000001100100 E
b100000010000100001000001100100 ?#
b100000010000100001000001100100 M#
1P#
b100 S#
0A
0C
b1 O#
b101 )
1&
#80000
0&
#85000
b0 W
b0 '"
b0 f#
b1100100 l
b1100100 M"
b1100100 s#
0}
0z
0x
b0 0
b0 ""
b0 j#
0|
b0 >
b0 $"
b0 h#
0y
0w
b100 S#
b100000011000110001100011001000 E
b100000011000110001100011001000 ?#
b100000011000110001100011001000 M#
1P#
b1100100 r#
b1100100 h
b1100100 w"
b1100100 b#
b10 `
b10 ("
b10 K"
b10 r"
b10 a
b10 )"
b10 s"
b10 e#
b10 b
b10 *"
b10 t"
b10 d#
b1 H#
b10 F
b10 <"
b10 \#
b1000 D"
0B"
b100000010000100001000001100100 g
b100000010000100001000001100100 v"
b100000010000100001000001100100 A#
b100000010000100001000001100100 F#
b10 ,
b1 B
b1 ;"
b1 >#
b1 J#
b1 _#
b100000010000100001000001100100 '
b110 )
1&
#90000
0&
#95000
b1100100 8"
b1100100 [#
b11001000 l
b11001000 M"
b11001000 s#
b100 S#
b100000100001000010000100101100 E
b100000100001000010000100101100 ?#
b100000100001000010000100101100 M#
1P#
b1100100 S
b1100100 &"
b1100100 6"
b1100100 0#
b1100100 g#
b11001000 r#
b11001000 h
b11001000 w"
b11001000 b#
b11 `
b11 ("
b11 K"
b11 r"
b11 a
b11 )"
b11 s"
b11 e#
b11 b
b11 *"
b11 t"
b11 d#
b1 q#
b10 H#
b11 F
b11 <"
b11 \#
b1000 D"
b10 L
b10 %"
b10 I"
b10 Z"
b10 2#
b1100100 R
b1100100 0"
b1100100 G"
b1100100 V"
b100000011000110001100011001000 g
b100000011000110001100011001000 v"
b100000011000110001100011001000 A#
b100000011000110001100011001000 F#
b1 c
b1 @#
b1 G#
b1 c#
b11 ,
b10 B
b10 ;"
b10 >#
b10 J#
b10 _#
b100000011000110001100011001000 '
b111 )
1&
#100000
0&
#105000
b0 p
b0 P"
b0 t#
b0 k
b0 L"
b0 a#
b0 o#
b0 o
b0 O"
b0 `#
b0 p#
b11001 ]
b11001 d"
b11001 y#
b100101100 l
b100101100 M"
b100101100 s#
b0 W
b0 '"
b0 f#
b11001000 8"
b11001000 [#
b11001 _"
b100 S#
b100000101001010010100110010000 E
b100000101001010010100110010000 ?#
b100000101001010010100110010000 M#
1P#
b100101100 r#
b100101100 h
b100101100 w"
b100101100 b#
b100 `
b100 ("
b100 K"
b100 r"
b100 a
b100 )"
b100 s"
b100 e#
b100 b
b100 *"
b100 t"
b100 d#
b10 q#
0x
0w
b11001000 S
b11001000 &"
b11001000 6"
b11001000 0#
b11001000 g#
b1100100 ]"
b1100100 8
b1100100 g"
b1100100 T#
b1100100 i#
b11 H#
b100 F
b100 <"
b100 \#
b1000 D"
b100000100001000010000100101100 g
b100000100001000010000100101100 v"
b100000100001000010000100101100 A#
b100000100001000010000100101100 F#
b10 c
b10 @#
b10 G#
b10 c#
b11 L
b11 %"
b11 I"
b11 Z"
b11 2#
b11001000 R
b11001000 0"
b11001000 G"
b11001000 V"
b10 5
b10 #"
b10 5#
b10 <#
b10 U#
b1100100 <
b1100100 b"
b1100100 6#
b1100100 9#
b100 ,
b11 B
b11 ;"
b11 >#
b11 J#
b11 _#
b100000100001000010000100101100 '
b1000 )
1&
#110000
0&
#115000
b110010 ]
b110010 d"
b110010 y#
b110010 _"
b100101100 8"
b100101100 [#
b110010000 l
b110010000 M"
b110010000 s#
1?
1A
b100 S#
b1 @
b1 N#
b1 |#
b100000000000000000000000000000 E
b100000000000000000000000000000 ?#
b100000000000000000000000000000 M#
0P#
b11001000 ]"
b11001000 8
b11001000 g"
b11001000 T#
b11001000 i#
b100101100 S
b100101100 &"
b100101100 6"
b100101100 0#
b100101100 g#
b110010000 r#
b110010000 h
b110010000 w"
b110010000 b#
b101 `
b101 ("
b101 K"
b101 r"
b101 a
b101 )"
b101 s"
b101 e#
b101 b
b101 *"
b101 t"
b101 d#
b11 q#
b0 H#
b1 I#
b100 F
b100 <"
b100 \#
b1000 D"
b10 .
b10 !"
b10 V#
b10 Z#
b10 l#
b1100100 /
b1100100 W#
b1100100 Y#
b1100100 k#
b11 5
b11 #"
b11 5#
b11 <#
b11 U#
b11001000 <
b11001000 b"
b11001000 6#
b11001000 9#
b100 L
b100 %"
b100 I"
b100 Z"
b100 2#
b100101100 R
b100101100 0"
b100101100 G"
b100101100 V"
b100000101001010010100110010000 g
b100000101001010010100110010000 v"
b100000101001010010100110010000 A#
b100000101001010010100110010000 F#
b11 c
b11 @#
b11 G#
b11 c#
b101 ,
b100 B
b100 ;"
b100 >#
b100 J#
b100 _#
b100000101001010010100110010000 '
b1001 )
1&
#120000
0&
#125000
b0 p
b0 P"
b0 t#
b0 k
b0 L"
b0 a#
b0 o#
b0 o
b0 O"
b0 `#
b0 p#
b1001011 ]
b1001011 d"
b1001011 y#
b0 l
b0 M"
b0 s#
b0 W
b0 '"
b0 f#
b110010000 8"
b110010000 [#
b1001011 _"
b0 r#
b0 h
b0 w"
b0 b#
b0 `
b0 ("
b0 K"
b0 r"
b0 a
b0 )"
b0 s"
b0 e#
b0 b
b0 *"
b0 t"
b0 d#
b100 q#
0x
0w
b110010000 S
b110010000 &"
b110010000 6"
b110010000 0#
b110010000 g#
b100101100 ]"
b100101100 8
b100101100 g"
b100101100 T#
b100101100 i#
b1 R#
b100000000000000000000000000000 g
b100000000000000000000000000000 v"
b100000000000000000000000000000 A#
b100000000000000000000000000000 F#
b100 c
b100 @#
b100 G#
b100 c#
b101 L
b101 %"
b101 I"
b101 Z"
b101 2#
b110010000 R
b110010000 0"
b110010000 G"
b110010000 V"
b100 5
b100 #"
b100 5#
b100 <#
b100 U#
b100101100 <
b100101100 b"
b100101100 6#
b100101100 9#
b11 $$
b1 %$
b11 .
b11 !"
b11 V#
b11 Z#
b11 l#
b11001000 /
b11001000 W#
b11001000 Y#
b11001000 k#
b100000000000000000000000000000 '
b1010 )
1&
#130000
0&
#135000
b1100100 ]
b1100100 d"
b1100100 y#
b1100100 _"
b11 W
b11 '"
b11 f#
b0 8"
b0 [#
b110010000 ]"
b110010000 8
b110010000 g"
b110010000 T#
b110010000 i#
1x
1w
b0 S
b0 &"
b0 6"
b0 0#
b0 g#
b100 .
b100 !"
b100 V#
b100 Z#
b100 l#
b100101100 /
b100101100 W#
b100101100 Y#
b100101100 k#
b10 $$
b101 5
b101 #"
b101 5#
b101 <#
b101 U#
b110010000 <
b110010000 b"
b110010000 6#
b110010000 9#
b0 L
b0 %"
b0 I"
b0 Z"
b0 2#
b0 R
b0 0"
b0 G"
b0 V"
b1011 )
1&
#140000
0&
#145000
b0 ]
b0 d"
b0 y#
b0 _"
1z
b11 >
b11 $"
b11 h#
1y
b0 ]"
b0 8
b0 g"
b0 T#
b0 i#
b0 5
b0 #"
b0 5#
b0 <#
b0 U#
b0 <
b0 b"
b0 6#
b0 9#
b1 $$
b101 .
b101 !"
b101 V#
b101 Z#
b101 l#
b110010000 /
b110010000 W#
b110010000 Y#
b110010000 k#
b1100 )
1&
#150000
0&
