rtl/cpu_run_tb.vcd
$date
	Tue Nov  4 13:10:58 2025
$end
$version
	Icarus Verilog
$end
$timescale
	1ps
$end
$scope module cpu_run_tb $end
$var parameter 32 ! ADDR_SIZE $end
$var parameter 32 " END_PC $end
$var parameter 32 # PC_BITS $end
$var parameter 32 $ REG_NUM $end
$var parameter 32 % XLEN $end
$var reg 1 & clk $end
$var reg 32 ' curr_inst [31:0] $end
$var reg 1 ( rst $end
$var integer 32 ) cycles [31:0] $end
$var integer 32 * i [31:0] $end
$scope module dut $end
$var wire 1 & clk $end
$var wire 1 ( rst $end
$var wire 1 + stall_D $end
$var wire 5 , pc_plus_1 [4:0] $end
$var wire 1 - WB_we $end
$var wire 5 . WB_rd [4:0] $end
$var wire 32 / WB_data_mem [31:0] $end
$var wire 2 0 WB_D_bp [1:0] $end
$var wire 1 1 MEM_we $end
$var wire 1 2 MEM_taken $end
$var wire 1 3 MEM_str $end
$var wire 5 4 MEM_rd [4:0] $end
$var wire 1 5 MEM_ld $end
$var wire 32 6 MEM_data_mem [31:0] $end
$var wire 32 7 MEM_b2 [31:0] $end
$var wire 32 8 MEM_alu_out [31:0] $end
$var wire 32 9 MEM_a2 [31:0] $end
$var wire 2 : MEM_D_bp [1:0] $end
$var wire 5 ; F_pc [4:0] $end
$var wire 32 < F_inst [31:0] $end
$var wire 1 = EX_we $end
$var wire 1 > EX_taken $end
$var wire 1 ? EX_str $end
$var wire 5 @ EX_rd [4:0] $end
$var wire 1 A EX_ld $end
$var wire 1 B EX_brn $end
$var wire 32 C EX_b2 [31:0] $end
$var wire 32 D EX_b [31:0] $end
$var wire 32 E EX_alu_out [31:0] $end
$var wire 4 F EX_alu_op [3:0] $end
$var wire 32 G EX_a2 [31:0] $end
$var wire 32 H EX_a [31:0] $end
$var wire 2 I EX_D_bp [1:0] $end
$var wire 1 J D_we $end
$var wire 1 K D_str $end
$var wire 5 L D_rd [4:0] $end
$var wire 5 M D_rb [4:0] $end
$var wire 5 N D_ra [4:0] $end
$var wire 5 O D_pc [4:0] $end
$var wire 6 P D_opc [5:0] $end
$var wire 1 Q D_ld $end
$var wire 32 R D_inst [31:0] $end
$var wire 11 S D_imd [10:0] $end
$var wire 1 T D_brn $end
$var wire 32 U D_b2 [31:0] $end
$var wire 32 V D_b [31:0] $end
$var wire 4 W D_alu_op [3:0] $end
$var wire 1 X D_addi $end
$var wire 32 Y D_a2 [31:0] $end
$var wire 32 Z D_a [31:0] $end
$var parameter 32 [ ADDR_SIZE $end
$var parameter 32 \ PC_BITS $end
$var parameter 32 ] REG_NUM $end
$var parameter 5 ^ RESET_PC $end
$var parameter 32 _ XLEN $end
$scope module u_Hazard_unit $end
$var wire 1 ` ex_hit_ra $end
$var wire 1 a ex_hit_rb $end
$var wire 1 b mem_hit_ra $end
$var wire 1 c mem_hit_rb $end
$var wire 1 + stall_D $end
$var wire 1 d wb_hit_ra $end
$var wire 1 e wb_hit_rb $end
$var wire 1 - WB_we $end
$var wire 5 f WB_rd [4:0] $end
$var wire 2 g WB_D_bp [1:0] $end
$var wire 1 1 MEM_we $end
$var wire 5 h MEM_rd [4:0] $end
$var wire 2 i MEM_D_bp [1:0] $end
$var wire 1 = EX_we $end
$var wire 5 j EX_rd [4:0] $end
$var wire 1 A EX_ld $end
$var wire 32 k EX_alu_out [31:0] $end
$var wire 2 l EX_D_bp [1:0] $end
$var wire 5 m D_rd [4:0] $end
$var wire 5 n D_rb [4:0] $end
$var wire 5 o D_ra [4:0] $end
$var parameter 32 p ADDR_SIZE $end
$var parameter 32 q XLEN $end
$upscope $end
$scope module u_alu $end
$var wire 1 B EX_brn $end
$var wire 32 r EX_b2 [31:0] $end
$var wire 32 s EX_b [31:0] $end
$var wire 4 t EX_alu_op [3:0] $end
$var wire 32 u EX_a2 [31:0] $end
$var wire 32 v EX_a [31:0] $end
$var parameter 32 w SHW $end
$var parameter 32 x XLEN $end
$var reg 32 y EX_alu_out [31:0] $end
$var reg 1 > EX_taken $end
$upscope $end
$scope module u_d_to_ex_reg $end
$var wire 32 z EX_a [31:0] $end
$var wire 32 { EX_a2 [31:0] $end
$var wire 4 | EX_alu_op [3:0] $end
$var wire 32 } EX_b [31:0] $end
$var wire 32 ~ EX_b2 [31:0] $end
$var wire 1 B EX_brn $end
$var wire 1 ? EX_str $end
$var wire 1 & clk $end
$var wire 1 ( rst $end
$var wire 1 + stall_D $end
$var wire 1 = EX_we $end
$var wire 5 !" EX_rd [4:0] $end
$var wire 1 A EX_ld $end
$var wire 1 J D_we $end
$var wire 1 K D_str $end
$var wire 5 "" D_rd [4:0] $end
$var wire 1 Q D_ld $end
$var wire 1 T D_brn $end
$var wire 32 #" D_b2 [31:0] $end
$var wire 32 $" D_b [31:0] $end
$var wire 4 %" D_alu_op [3:0] $end
$var wire 32 &" D_a2 [31:0] $end
$var wire 32 '" D_a [31:0] $end
$var parameter 32 (" XLEN $end
$var reg 32 )" ex_a2_r [31:0] $end
$var reg 32 *" ex_a_r [31:0] $end
$var reg 4 +" ex_alu_op_r [3:0] $end
$var reg 32 ," ex_b2_r [31:0] $end
$var reg 32 -" ex_b_r [31:0] $end
$var reg 1 ." ex_brn_r $end
$var reg 1 A ex_ld_r $end
$var reg 5 /" ex_rd_r [4:0] $end
$var reg 1 0" ex_str_r $end
$var reg 1 = ex_we_r $end
$upscope $end
$scope module u_decode $end
$var wire 1 T D_brn $end
$var wire 1 J D_we $end
$var wire 1 & clk $end
$var wire 1 1" is_beq $end
$var wire 1 2" is_bgt $end
$var wire 1 3" is_blt $end
$var wire 1 4" is_jmp $end
$var wire 1 5" is_ctrl $end
$var wire 1 K D_str $end
$var wire 5 6" D_rd [4:0] $end
$var wire 5 7" D_rb [4:0] $end
$var wire 5 8" D_ra [4:0] $end
$var wire 6 9" D_opc [5:0] $end
$var wire 1 Q D_ld $end
$var wire 32 :" D_inst [31:0] $end
$var wire 11 ;" D_imd [10:0] $end
$var wire 4 <" D_alu_op [3:0] $end
$var wire 1 X D_addi $end
$var parameter 6 =" OPC_ADD $end
$var parameter 6 >" OPC_ADDI $end
$var parameter 6 ?" OPC_AND $end
$var parameter 6 @" OPC_CTRL $end
$var parameter 6 A" OPC_GT $end
$var parameter 6 B" OPC_LOAD $end
$var parameter 6 C" OPC_LT $end
$var parameter 6 D" OPC_NOT $end
$var parameter 6 E" OPC_OR $end
$var parameter 6 F" OPC_SHL $end
$var parameter 6 G" OPC_SHR $end
$var parameter 6 H" OPC_STORE $end
$var parameter 6 I" OPC_SUB $end
$var parameter 6 J" OPC_XOR $end
$var parameter 5 K" RD_BEQ $end
$var parameter 5 L" RD_BGT $end
$var parameter 5 M" RD_BLT $end
$var parameter 5 N" RD_JMP $end
$var parameter 32 O" XLEN $end
$upscope $end
$scope module u_ex_to_mem_reg $end
$var wire 32 P" EX_a2 [31:0] $end
$var wire 32 Q" EX_alu_out [31:0] $end
$var wire 32 R" EX_b2 [31:0] $end
$var wire 1 A EX_ld $end
$var wire 5 S" EX_rd [4:0] $end
$var wire 1 ? EX_str $end
$var wire 1 > EX_taken $end
$var wire 1 = EX_we $end
$var wire 32 T" MEM_a2 [31:0] $end
$var wire 32 U" MEM_b2 [31:0] $end
$var wire 1 3 MEM_str $end
$var wire 1 2 MEM_taken $end
$var wire 1 & clk $end
$var wire 1 ( rst $end
$var wire 1 1 MEM_we $end
$var wire 5 V" MEM_rd [4:0] $end
$var wire 1 5 MEM_ld $end
$var wire 32 W" MEM_alu_out [31:0] $end
$var parameter 32 X" XLEN $end
$var reg 32 Y" mem_a2_r [31:0] $end
$var reg 32 Z" mem_alu_out_r [31:0] $end
$var reg 32 [" mem_b2_r [31:0] $end
$var reg 1 5 mem_ld_r $end
$var reg 5 \" mem_rd_r [4:0] $end
$var reg 1 ]" mem_str_r $end
$var reg 1 ^" mem_taken_r $end
$var reg 1 1 mem_we_r $end
$upscope $end
$scope module u_f2d $end
$var wire 1 & clk $end
$var wire 1 ( rst $end
$var wire 1 + stall_D $end
$var wire 5 _" F_pc [4:0] $end
$var wire 32 `" F_inst [31:0] $end
$var wire 5 a" D_pc [4:0] $end
$var wire 32 b" D_inst [31:0] $end
$var parameter 32 c" PC_BITS $end
$var parameter 32 d" XLEN $end
$var reg 32 e" d_inst [31:0] $end
$var reg 5 f" d_pc [4:0] $end
$upscope $end
$scope module u_instruct_reg $end
$var wire 32 g" F_inst [31:0] $end
$var wire 1 & clk $end
$var wire 5 h" F_pc [4:0] $end
$var parameter 32 i" ADDR_SIZE $end
$var parameter 32 j" REG_NUM $end
$var parameter 32 k" XLEN $end
$upscope $end
$scope module u_mem_to_wb_reg $end
$var wire 5 l" MEM_rd [4:0] $end
$var wire 1 1 MEM_we $end
$var wire 1 & clk $end
$var wire 1 ( rst $end
$var wire 1 - WB_we $end
$var wire 5 m" WB_rd [4:0] $end
$var wire 32 n" WB_data_mem [31:0] $end
$var wire 32 o" MEM_data_mem [31:0] $end
$var parameter 32 p" XLEN $end
$var reg 32 q" wb_data_mem_r [31:0] $end
$var reg 5 r" wb_rd_r [4:0] $end
$var reg 1 - wb_we_r $end
$upscope $end
$scope module u_memory $end
$var wire 32 s" MEM_alu_out [31:0] $end
$var wire 32 t" MEM_b2 [31:0] $end
$var wire 1 5 MEM_ld $end
$var wire 1 3 MEM_str $end
$var wire 1 & clk $end
$var wire 5 u" addr [4:0] $end
$var wire 32 v" MEM_data_mem [31:0] $end
$var parameter 32 w" ADDR_SIZE $end
$var parameter 32 x" REG_NUM $end
$var parameter 32 y" XLEN $end
$var integer 32 z" i [31:0] $end
$upscope $end
$scope module u_pc $end
$var wire 5 {" EX_alt_pc [4:0] $end
$var wire 1 > EX_taken $end
$var wire 1 & clk $end
$var wire 5 |" pc [4:0] $end
$var wire 1 ( rst $end
$var wire 1 + stall_D $end
$var parameter 5 }" RESET_PC $end
$var parameter 32 ~" XLEN $end
$var reg 5 !# F_pc [4:0] $end
$upscope $end
$scope module u_regfile $end
$var wire 32 "# D_a2 [31:0] $end
$var wire 1 X D_addi $end
$var wire 32 ## D_b2 [31:0] $end
$var wire 1 T D_brn $end
$var wire 11 $# D_imd [10:0] $end
$var wire 1 Q D_ld $end
$var wire 5 %# D_pc [4:0] $end
$var wire 5 &# D_ra [4:0] $end
$var wire 5 '# D_rb [4:0] $end
$var wire 1 K D_str $end
$var wire 2 (# EX_D_bp [1:0] $end
$var wire 32 )# EX_alu_out [31:0] $end
$var wire 2 *# MEM_D_bp [1:0] $end
$var wire 32 +# MEM_data_mem [31:0] $end
$var wire 2 ,# WB_D_bp [1:0] $end
$var wire 32 -# WB_data_mem [31:0] $end
$var wire 5 .# WB_rd [4:0] $end
$var wire 1 - WB_we $end
$var wire 1 & clk $end
$var wire 32 /# ra_raw [31:0] $end
$var wire 32 0# rb_raw [31:0] $end
$var wire 32 1# rb_fwd [31:0] $end
$var wire 32 2# ra_fwd [31:0] $end
$var wire 32 3# pc_extended [31:0] $end
$var wire 32 4# offset [31:0] $end
$var wire 32 5# D_b [31:0] $end
$var wire 32 6# D_a [31:0] $end
$var parameter 32 7# ADDR_SIZE $end
$var parameter 32 8# REG_NUM $end
$var parameter 32 9# XLEN $end
$var integer 32 :# i [31:0] $end
$upscope $end
$upscope $end
$scope begin run_loop $end
$upscope $end
$upscope $end
$enddefinitions $end
$comment Show the parameter values. $end
$dumpall
b100000 9#
b100000 8#
b101 7#
b101 ~"
b0 }"
b100000 y"
b100000 x"
b101 w"
b100000 p"
b100000 k"
b100000 j"
b101 i"
b100000 d"
b101 c"
b100000 X"
b100000 O"
b0 N"
b10 M"
b11 L"
b1 K"
b100 J"
b1 I"
b1100 H"
b111 G"
b110 F"
b11 E"
b101 D"
b1001 C"
b1011 B"
b1010 A"
b1101 @"
b10 ?"
b1000 >"
b0 ="
b100000 ("
b100000 x
b101 w
b100000 q
b101 p
b100000 _
b0 ^
b100000 ]
b101 \
b101 [
b100000 %
b100000 $
b101 #
b10110 "
b101 !
$end
#0
$dumpvars
b100000 :#
bx 6#
bx 5#
b0xxxxxxxxxxx 4#
b0xxxxx 3#
bx 2#
bx 1#
bx 0#
bx /#
bx .#
bx -#
bx ,#
bx +#
bx *#
bx )#
bx (#
bx '#
bx &#
bx %#
bx $#
bx ##
bx "#
b0 !#
b1 |"
bx {"
b100000 z"
bx v"
bx u"
bx t"
bx s"
bx r"
bx q"
bx o"
bx n"
bx m"
bx l"
b0 h"
b100000001000010000100000010000 g"
bx f"
bx e"
bx b"
bx a"
b100000001000010000100000010000 `"
b0 _"
x^"
x]"
bx \"
bx ["
bx Z"
bx Y"
bx W"
bx V"
bx U"
bx T"
bx S"
bx R"
bx Q"
bx P"
bx <"
bx ;"
bx :"
bx 9"
bx 8"
bx 7"
bx 6"
x5"
x4"
x3"
x2"
x1"
x0"
bx /"
x."
bx -"
bx ,"
bx +"
bx *"
bx )"
bx '"
bx &"
bx %"
bx $"
bx #"
bx ""
bx !"
bx ~
bx }
bx |
bx {
bx z
bx y
bx v
bx u
bx t
bx s
bx r
bx o
bx n
bx m
bx l
bx k
bx j
bx i
bx h
bx g
bx f
xe
xd
xc
xb
xa
x`
bx Z
bx Y
xX
bx W
bx V
bx U
xT
bx S
bx R
xQ
bx P
bx O
bx N
bx M
bx L
xK
xJ
bx I
bx H
bx G
bx F
bx E
bx D
bx C
xB
xA
bx @
x?
x>
x=
b100000001000010000100000010000 <
b0 ;
bx :
bx 9
bx 8
bx 7
bx 6
x5
bx 4
x3
x2
x1
bx 0
bx /
bx .
x-
b1 ,
x+
bx *
bx )
1(
bx '
0&
$end
#5000
b0 Z
b0 '"
b0 6#
b0 V
b0 $"
b0 5#
b0 U
b0 #"
b0 ##
b0 1#
b0 Y
b0 &"
b0 "#
b0 2#
02"
03"
01"
04"
1J
b0 W
b0 %"
b0 <"
b0 I
b0 l
b0 (#
b0 {"
b0 4#
b0 S
b0 ;"
b0 $#
b0 L
b0 m
b0 ""
b0 6"
b0 0#
b0 M
b0 n
b0 7"
b0 '#
b0 /#
b0 N
b0 o
b0 8"
b0 &#
0T
05"
0Q
0K
0X
b0 P
b0 9"
0a
0`
0+
b0 E
b0 k
b0 y
b0 Q"
b0 )#
0>
0c
b0 :
b0 i
b0 *#
0b
b0 u"
b0 6
b0 o"
b0 v"
b0 +#
0e
b0 0
b0 g
b0 ,#
0d
b0 R
b0 :"
b0 b"
b0 e"
b0 3#
b0 O
b0 a"
b0 f"
b0 %#
0=
0?
00"
0A
b0 @
b0 j
b0 !"
b0 /"
b0 S"
0B
0."
b0 F
b0 t
b0 |
b0 +"
b0 C
b0 r
b0 ~
b0 R"
b0 ,"
b0 D
b0 s
b0 }
b0 -"
b0 G
b0 u
b0 {
b0 P"
b0 )"
b0 H
b0 v
b0 z
b0 *"
03
0]"
05
01
b0 4
b0 h
b0 V"
b0 \"
b0 l"
b0 9
b0 T"
b0 Y"
b0 7
b0 U"
b0 t"
b0 ["
02
0^"
b0 8
b0 W"
b0 Z"
b0 s"
0-
b0 .
b0 f
b0 m"
b0 r"
b0 .#
b0 /
b0 n"
b0 q"
b0 -#
1&
#10000
0&
#15000
1&
#20000
0&
#25000
0(
b0 )
1&
#30000
0&
#35000
b10000 V
b10000 $"
b10000 5#
b10000 4#
b10000 S
b10000 ;"
b10000 $#
b1 L
b1 m
b1 ""
b1 6"
b1 M
b1 n
b1 7"
b1 '#
b1 N
b1 o
b1 8"
b1 &#
1X
b1000 P
b1000 9"
1=
b100000001000010000100000010000 R
b100000001000010000100000010000 :"
b100000001000010000100000010000 b"
b100000001000010000100000010000 e"
b100000010000100001000000101010 <
b100000010000100001000000101010 `"
b100000010000100001000000101010 g"
b10 ,
b10 |"
b1 ;
b1 _"
b1 h"
b1 !#
b100000001000010000100000010000 '
b1 )
1&
#40000
0&
#45000
b0 Z
b0 '"
b0 6#
b0 U
b0 #"
b0 ##
b0 1#
b0 Y
b0 &"
b0 "#
b0 2#
b101010 V
b101010 $"
b101010 5#
b0 I
b0 l
b0 (#
b10000 {"
b101010 4#
b101010 S
b101010 ;"
b101010 $#
b10 L
b10 m
b10 ""
b10 6"
b10 M
b10 n
b10 7"
b10 '#
b10 N
b10 o
b10 8"
b10 &#
0a
0`
b10000 E
b10000 k
b10000 y
b10000 Q"
b10000 )#
b100000010000100001000000101010 R
b100000010000100001000000101010 :"
b100000010000100001000000101010 b"
b100000010000100001000000101010 e"
b1 3#
b1 O
b1 a"
b1 f"
b1 %#
b1 @
b1 j
b1 !"
b1 /"
b1 S"
b10000 D
b10000 s
b10000 }
b10000 -"
11
b100000011000110001100000000111 <
b100000011000110001100000000111 `"
b100000011000110001100000000111 g"
b11 ,
b11 |"
b10 ;
b10 _"
b10 h"
b10 !#
b100000010000100001000000101010 '
b10 )
1&
#50000
0&
#55000
b1010 {"
b111 V
b111 $"
b111 5#
b10000 u"
b10000 6
b10000 o"
b10000 v"
b10000 +#
b101010 E
b101010 k
b101010 y
b101010 Q"
b101010 )#
b111 4#
b111 S
b111 ;"
b111 $#
b11 L
b11 m
b11 ""
b11 6"
b11 M
b11 n
b11 7"
b11 '#
b11 N
b11 o
b11 8"
b11 &#
1-
b1 4
b1 h
b1 V"
b1 \"
b1 l"
b10000 8
b10000 W"
b10000 Z"
b10000 s"
b10 @
b10 j
b10 !"
b10 /"
b10 S"
b101010 D
b101010 s
b101010 }
b101010 -"
b100000011000110001100000000111 R
b100000011000110001100000000111 :"
b100000011000110001100000000111 b"
b100000011000110001100000000111 e"
b10 3#
b10 O
b10 a"
b10 f"
b10 %#
b100000100001000010000000000001 <
b100000100001000010000000000001 `"
b100000100001000010000000000001 g"
b100 ,
b100 |"
b11 ;
b11 _"
b11 h"
b11 !#
b100000011000110001100000000111 '
b11 )
1&
#60000
0&
#65000
b0 Z
b0 '"
b0 6#
b0 U
b0 #"
b0 ##
b0 1#
b0 Y
b0 &"
b0 "#
b0 2#
b1 V
b1 $"
b1 5#
b0 I
b0 l
b0 (#
b111 {"
b1 4#
b1 S
b1 ;"
b1 $#
b100 L
b100 m
b100 ""
b100 6"
b100 M
b100 n
b100 7"
b100 '#
b100 N
b100 o
b100 8"
b100 &#
0a
0`
b111 E
b111 k
b111 y
b111 Q"
b111 )#
b1010 u"
b101010 6
b101010 o"
b101010 v"
b101010 +#
b100000100001000010000000000001 R
b100000100001000010000000000001 :"
b100000100001000010000000000001 b"
b100000100001000010000000000001 e"
b11 3#
b11 O
b11 a"
b11 f"
b11 %#
b11 @
b11 j
b11 !"
b11 /"
b11 S"
b111 D
b111 s
b111 }
b111 -"
b10 4
b10 h
b10 V"
b10 \"
b10 l"
b101010 8
b101010 W"
b101010 Z"
b101010 s"
b1 .
b1 f
b1 m"
b1 r"
b1 .#
b10000 /
b10000 n"
b10000 q"
b10000 -#
b100000000000000000000000000000 <
b100000000000000000000000000000 `"
b100000000000000000000000000000 g"
b101 ,
b101 |"
b100 ;
b100 _"
b100 h"
b100 !#
b100000100001000010000000000001 '
b100 )
1&
#70000
0&
#75000
b1 {"
b0 V
b0 $"
b0 5#
b111 u"
b111 6
b111 o"
b111 v"
b111 +#
b1 E
b1 k
b1 y
b1 Q"
b1 )#
b0 4#
b0 S
b0 ;"
b0 $#
b0 L
b0 m
b0 ""
b0 6"
b0 M
b0 n
b0 7"
b0 '#
b0 N
b0 o
b0 8"
b0 &#
b10 .
b10 f
b10 m"
b10 r"
b10 .#
b101010 /
b101010 n"
b101010 q"
b101010 -#
b11 4
b11 h
b11 V"
b11 \"
b11 l"
b111 8
b111 W"
b111 Z"
b111 s"
b100 @
b100 j
b100 !"
b100 /"
b100 S"
b1 D
b1 s
b1 }
b1 -"
b100000000000000000000000000000 R
b100000000000000000000000000000 :"
b100000000000000000000000000000 b"
b100000000000000000000000000000 e"
b100 3#
b100 O
b100 a"
b100 f"
b100 %#
b10000110100000000000000 <
b10000110100000000000000 `"
b10000110100000000000000 g"
b110 ,
b110 |"
b101 ;
b101 _"
b101 h"
b101 !#
b100000000000000000000000000000 '
b101 )
1&
#80000
0&
#85000
b111 V
b111 $"
b111 5#
b111 U
b111 #"
b111 ##
b111 1#
b101010 Z
b101010 '"
b101010 6#
b101010 Y
b101010 &"
b101010 "#
b101010 2#
b1 0
b1 g
b1 ,#
1e
b0 I
b0 l
b0 (#
b0 {"
b1000 L
b1000 m
b1000 ""
b1000 6"
b11 M
b11 n
b11 7"
b11 '#
b101010 /#
b10 N
b10 o
b10 8"
b10 &#
0X
b0 P
b0 9"
0a
0`
b0 E
b0 k
b0 y
b0 Q"
b0 )#
b1 u"
b1 6
b1 o"
b1 v"
b1 +#
b10000110100000000000000 R
b10000110100000000000000 :"
b10000110100000000000000 b"
b10000110100000000000000 e"
b101 3#
b101 O
b101 a"
b101 f"
b101 %#
b0 @
b0 j
b0 !"
b0 /"
b0 S"
b0 D
b0 s
b0 }
b0 -"
b100 4
b100 h
b100 V"
b100 \"
b100 l"
b1 8
b1 W"
b1 Z"
b1 s"
b11 .
b11 f
b11 m"
b11 r"
b11 .#
b111 /
b111 n"
b111 q"
b111 -#
b110000001010000000000000000000 <
b110000001010000000000000000000 `"
b110000001010000000000000000000 g"
b111 ,
b111 |"
b110 ;
b110 _"
b110 h"
b110 !#
b10000110100000000000000 '
b110 )
1&
#90000
0&
#95000
b10000 Z
b10000 '"
b10000 6#
b10000 Y
b10000 &"
b10000 "#
b10000 2#
b0 V
b0 $"
b0 5#
b110001 U
b110001 #"
b110001 ##
b110001 1#
b1 I
b1 l
b1 (#
b10001 {"
1a
0J
b0 0
b0 g
b0 ,#
0e
b0 u"
b0 6
b0 o"
b0 v"
b0 +#
b110001 E
b110001 k
b110001 y
b110001 Q"
b110001 )#
b0 L
b0 m
b0 ""
b0 6"
b1000 M
b1000 n
b1000 7"
b1000 '#
b10000 /#
b1 N
b1 o
b1 8"
b1 &#
1K
b1100 P
b1100 9"
b100 .
b100 f
b100 m"
b100 r"
b100 .#
b1 /
b1 n"
b1 q"
b1 -#
b0 4
b0 h
b0 V"
b0 \"
b0 l"
b0 8
b0 W"
b0 Z"
b0 s"
b1000 @
b1000 j
b1000 !"
b1000 /"
b1000 S"
b111 C
b111 r
b111 ~
b111 R"
b111 ,"
b111 D
b111 s
b111 }
b111 -"
b101010 G
b101010 u
b101010 {
b101010 P"
b101010 )"
b101010 H
b101010 v
b101010 z
b101010 *"
b0 0#
b110000001010000000000000000000 R
b110000001010000000000000000000 :"
b110000001010000000000000000000 b"
b110000001010000000000000000000 e"
b110 3#
b110 O
b110 a"
b110 f"
b110 %#
b101100001000000100100000000000 <
b101100001000000100100000000000 `"
b101100001000000100100000000000 g"
b1000 ,
b1000 |"
b111 ;
b111 _"
b111 h"
b111 !#
b110000001010000000000000000000 '
b111 )
1&
#100000
0&
#105000
b1 0
b1 g
b1 ,#
1e
1J
b0 I
b0 l
b0 (#
b0 U
b0 #"
b0 ##
b0 1#
b10000 {"
b1001 L
b1001 m
b1001 ""
b1001 6"
b0 M
b0 n
b0 7"
b0 '#
1Q
0K
b1011 P
b1011 9"
0a
b10000 E
b10000 k
b10000 y
b10000 Q"
b10000 )#
b0 :
b0 i
b0 *#
0c
b10001 u"
b110001 6
b110001 o"
b110001 v"
b110001 +#
b101100001000000100100000000000 R
b101100001000000100100000000000 :"
b101100001000000100100000000000 b"
b101100001000000100100000000000 e"
b111 3#
b111 O
b111 a"
b111 f"
b111 %#
0=
1?
10"
b0 @
b0 j
b0 !"
b0 /"
b0 S"
b110001 C
b110001 r
b110001 ~
b110001 R"
b110001 ,"
b0 D
b0 s
b0 }
b0 -"
b10000 G
b10000 u
b10000 {
b10000 P"
b10000 )"
b10000 H
b10000 v
b10000 z
b10000 *"
b1000 4
b1000 h
b1000 V"
b1000 \"
b1000 l"
b101010 9
b101010 T"
b101010 Y"
b111 7
b111 U"
b111 t"
b111 ["
b110001 8
b110001 W"
b110001 Z"
b110001 s"
b0 .
b0 f
b0 m"
b0 r"
b0 .#
b0 /
b0 n"
b0 q"
b0 -#
b1001001000101000000000000 <
b1001001000101000000000000 `"
b1001001000101000000000000 g"
b1001 ,
b1001 |"
b1000 ;
b1000 _"
b1000 h"
b1000 !#
b101100001000000100100000000000 '
b1000 )
1&
#110000
0&
#115000
b0 Z
b0 '"
b0 6#
b0 Y
b0 &"
b0 "#
b0 2#
b1 V
b1 $"
b1 5#
b1 U
b1 #"
b1 ##
b1 1#
1+
b0 0
b0 g
b0 ,#
0e
b10000 u"
b10000 6
b10000 o"
b10000 v"
b10000 +#
1`
b1010 L
b1010 m
b1010 ""
b1010 6"
b1 0#
b100 M
b100 n
b100 7"
b100 '#
b0 /#
b1001 N
b1001 o
b1001 8"
b1001 &#
0Q
b0 P
b0 9"
b1000 .
b1000 f
b1000 m"
b1000 r"
b1000 .#
b110001 /
b110001 n"
b110001 q"
b110001 -#
13
1]"
01
b0 4
b0 h
b0 V"
b0 \"
b0 l"
b10000 9
b10000 T"
b10000 Y"
b110001 7
b110001 U"
b110001 t"
b110001 ["
b10000 8
b10000 W"
b10000 Z"
b10000 s"
1=
0?
00"
1A
b1001 @
b1001 j
b1001 !"
b1001 /"
b1001 S"
b0 C
b0 r
b0 ~
b0 R"
b0 ,"
b1001001000101000000000000 R
b1001001000101000000000000 :"
b1001001000101000000000000 b"
b1001001000101000000000000 e"
b1000 3#
b1000 O
b1000 a"
b1000 f"
b1000 %#
b101100001000000101100000000000 <
b101100001000000101100000000000 `"
b101100001000000101100000000000 g"
b1010 ,
b1010 |"
b1001 ;
b1001 _"
b1001 h"
b1001 !#
b1001001000101000000000000 '
b1001 )
1&
#120000
0&
#125000
b110001 Z
b110001 '"
b110001 6#
b110001 Y
b110001 &"
b110001 "#
b110001 2#
b0 {"
0+
0`
b0 E
b0 k
b0 y
b0 Q"
b0 )#
b110001 6
b110001 o"
b110001 v"
b110001 +#
b10 :
b10 i
b10 *#
1b
0=
0A
b0 @
b0 j
b0 !"
b0 /"
b0 S"
b0 G
b0 u
b0 {
b0 P"
b0 )"
b0 H
b0 v
b0 z
b0 *"
03
0]"
15
11
b1001 4
b1001 h
b1001 V"
b1001 \"
b1001 l"
b0 7
b0 U"
b0 t"
b0 ["
0-
b0 .
b0 f
b0 m"
b0 r"
b0 .#
b10000 /
b10000 n"
b10000 q"
b10000 -#
b101100001000000101100000000000 '
b1010 )
1&
#130000
0&
#135000
b10000 Z
b10000 '"
b10000 6#
b0 U
b0 #"
b0 ##
b0 1#
b0 V
b0 $"
b0 5#
b10000 Y
b10000 &"
b10000 "#
b10000 2#
b10010 {"
b0 6
b0 o"
b0 v"
b0 +#
b0 :
b0 i
b0 *#
0b
b0 u"
b110010 E
b110010 k
b110010 y
b110010 Q"
b110010 )#
b1011 L
b1011 m
b1011 ""
b1011 6"
b0 0#
b0 M
b0 n
b0 7"
b0 '#
b10000 /#
b1 N
b1 o
b1 8"
b1 &#
1Q
b1011 P
b1011 9"
1-
b1001 .
b1001 f
b1001 m"
b1001 r"
b1001 .#
b110001 /
b110001 n"
b110001 q"
b110001 -#
05
01
b0 4
b0 h
b0 V"
b0 \"
b0 l"
b0 9
b0 T"
b0 Y"
b0 8
b0 W"
b0 Z"
b0 s"
1=
b1010 @
b1010 j
b1010 !"
b1010 /"
b1010 S"
b1 C
b1 r
b1 ~
b1 R"
b1 ,"
b1 D
b1 s
b1 }
b1 -"
b110001 G
b110001 u
b110001 {
b110001 P"
b110001 )"
b110001 H
b110001 v
b110001 z
b110001 *"
b101100001000000101100000000000 R
b101100001000000101100000000000 :"
b101100001000000101100000000000 b"
b101100001000000101100000000000 e"
b1001 3#
b1001 O
b1001 a"
b1001 f"
b1001 %#
b100000000000000000000000000000 <
b100000000000000000000000000000 `"
b100000000000000000000000000000 g"
b1011 ,
b1011 |"
b1010 ;
b1010 _"
b1010 h"
b1010 !#
b1011 )
1&
#140000
0&
#145000
b0 Z
b0 '"
b0 6#
b0 Y
b0 &"
b0 "#
b0 2#
b10000 {"
b0 L
b0 m
b0 ""
b0 6"
b0 /#
b0 N
b0 o
b0 8"
b0 &#
0Q
1X
b1000 P
b1000 9"
b10000 E
b10000 k
b10000 y
b10000 Q"
b10000 )#
b10010 u"
b110010 6
b110010 o"
b110010 v"
b110010 +#
b100000000000000000000000000000 R
b100000000000000000000000000000 :"
b100000000000000000000000000000 b"
b100000000000000000000000000000 e"
b1010 3#
b1010 O
b1010 a"
b1010 f"
b1010 %#
1A
b1011 @
b1011 j
b1011 !"
b1011 /"
b1011 S"
b0 C
b0 r
b0 ~
b0 R"
b0 ,"
b0 D
b0 s
b0 }
b0 -"
b10000 G
b10000 u
b10000 {
b10000 P"
b10000 )"
b10000 H
b10000 v
b10000 z
b10000 *"
11
b1010 4
b1010 h
b1010 V"
b1010 \"
b1010 l"
b110001 9
b110001 T"
b110001 Y"
b1 7
b1 U"
b1 t"
b1 ["
b110010 8
b110010 W"
b110010 Z"
b110010 s"
0-
b0 .
b0 f
b0 m"
b0 r"
b0 .#
b0 /
b0 n"
b0 q"
b0 -#
b1100 ,
b1100 |"
b1011 ;
b1011 _"
b1011 h"
b1011 !#
b100000000000000000000000000000 '
b1100 )
1&
#150000
0&
