rtl/cpu_run_tb.vcd
$date
	Fri Dec 12 17:57:10 2025
$end
$version
	Icarus Verilog
$end
$timescale
	1ps
$end
$scope module cpu_run_tb $end
$var parameter 32 ! ADDR_SIZE $end
$var parameter 32 " END_PC $end
$var parameter 32 # PC_BITS $end
$var parameter 32 $ REG_NUM $end
$var parameter 32 % XLEN $end
$var reg 1 & clk $end
$var reg 32 ' curr_inst [31:0] $end
$var reg 1 ( rst $end
$var integer 32 ) cycles [31:0] $end
$var integer 32 * i [31:0] $end
$scope module dut $end
$var wire 1 + F_admin $end
$var wire 1 & clk $end
$var wire 1 ( rst $end
$var wire 1 , stall_D $end
$var wire 1 - WB_we $end
$var wire 5 . WB_rd [4:0] $end
$var wire 32 / WB_data_mem [31:0] $end
$var wire 2 0 WB_D_bp [1:0] $end
$var wire 1 1 Ptw_mem_valid $end
$var wire 1 2 Ptw_mem_req $end
$var wire 32 3 Ptw_mem_rdata [31:0] $end
$var wire 20 4 Ptw_mem_addr [19:0] $end
$var wire 1 5 MEM_we $end
$var wire 1 6 MEM_taken $end
$var wire 1 7 MEM_str $end
$var wire 1 8 MEM_stall $end
$var wire 5 9 MEM_rd [4:0] $end
$var wire 1 : MEM_mem_valid $end
$var wire 1 ; MEM_ld $end
$var wire 32 < MEM_data_mem [31:0] $end
$var wire 128 = MEM_data_line [127:0] $end
$var wire 1 > MEM_byt $end
$var wire 32 ? MEM_b2 [31:0] $end
$var wire 32 @ MEM_alu_out [31:0] $end
$var wire 32 A MEM_a2 [31:0] $end
$var wire 2 B MEM_D_bp [1:0] $end
$var wire 20 C Itlb_va [19:0] $end
$var wire 1 D Itlb_stall $end
$var wire 1 E Itlb_pa_request $end
$var wire 1 F Ic_mem_req $end
$var wire 16 G Ic_mem_addr [15:0] $end
$var wire 1 H F_stall $end
$var wire 1 I F_ptw_valid $end
$var wire 8 J F_ptw_pa [7:0] $end
$var wire 32 K F_pc_va [31:0] $end
$var wire 20 L F_pc [19:0] $end
$var wire 1 M F_mem_valid $end
$var wire 128 N F_mem_inst [127:0] $end
$var wire 32 O F_inst [31:0] $end
$var wire 32 P F_BP_target_pc [31:0] $end
$var wire 1 Q F_BP_taken $end
$var wire 1 R EX_we $end
$var wire 1 S EX_true_taken $end
$var wire 1 T EX_taken $end
$var wire 1 U EX_str $end
$var wire 5 V EX_rd [4:0] $end
$var wire 1 W EX_mul $end
$var wire 1 X EX_ld $end
$var wire 1 Y EX_byt $end
$var wire 1 Z EX_brn $end
$var wire 32 [ EX_b2 [31:0] $end
$var wire 32 \ EX_b [31:0] $end
$var wire 32 ] EX_alu_out [31:0] $end
$var wire 4 ^ EX_alu_op [3:0] $end
$var wire 32 _ EX_a2 [31:0] $end
$var wire 32 ` EX_a [31:0] $end
$var wire 2 a EX_D_bp [1:0] $end
$var wire 32 b EX_BP_target_pc [31:0] $end
$var wire 1 c EX_BP_taken $end
$var wire 128 d Dc_wb_wline [127:0] $end
$var wire 1 e Dc_wb_we $end
$var wire 16 f Dc_wb_addr [15:0] $end
$var wire 1 g Dc_mem_req $end
$var wire 16 h Dc_mem_addr [15:0] $end
$var wire 1 i D_we $end
$var wire 1 j D_str $end
$var wire 5 k D_rd [4:0] $end
$var wire 5 l D_rb [4:0] $end
$var wire 5 m D_ra [4:0] $end
$var wire 32 n D_pc [31:0] $end
$var wire 6 o D_opc [5:0] $end
$var wire 1 p D_mul $end
$var wire 1 q D_ld $end
$var wire 1 r D_jmp $end
$var wire 32 s D_inst [31:0] $end
$var wire 11 t D_imd [10:0] $end
$var wire 1 u D_byt $end
$var wire 1 v D_brn $end
$var wire 32 w D_b2 [31:0] $end
$var wire 32 x D_b [31:0] $end
$var wire 4 y D_alu_op [3:0] $end
$var wire 1 z D_addi $end
$var wire 32 { D_a2 [31:0] $end
$var wire 32 | D_a [31:0] $end
$var wire 32 } D_BP_target_pc [31:0] $end
$var wire 1 ~ D_BP_taken $end
$var parameter 32 !" ADDR_SIZE $end
$var parameter 32 "" PC_BITS $end
$var parameter 32 #" REG_NUM $end
$var parameter 32 $" RESET_PC $end
$var parameter 32 %" VPC_BITS $end
$var parameter 32 &" XLEN $end
$scope module u_Hazard_unit $end
$var wire 1 & clk $end
$var wire 1 '" ex_hit_ra $end
$var wire 1 (" ex_hit_rb $end
$var wire 1 )" mem_hit_ra $end
$var wire 1 *" mem_hit_rb $end
$var wire 1 +" mul_start $end
$var wire 1 ( rst $end
$var wire 1 , stall_D $end
$var wire 1 ," wb_hit_ra $end
$var wire 1 -" wb_hit_rb $end
$var wire 1 ." mul_stall $end
$var wire 1 - WB_we $end
$var wire 5 /" WB_rd [4:0] $end
$var wire 2 0" WB_D_bp [1:0] $end
$var wire 1 5 MEM_we $end
$var wire 5 1" MEM_rd [4:0] $end
$var wire 2 2" MEM_D_bp [1:0] $end
$var wire 1 R EX_we $end
$var wire 5 3" EX_rd [4:0] $end
$var wire 1 W EX_mul $end
$var wire 1 X EX_ld $end
$var wire 32 4" EX_alu_out [31:0] $end
$var wire 2 5" EX_D_bp [1:0] $end
$var wire 5 6" D_rd [4:0] $end
$var wire 5 7" D_rb [4:0] $end
$var wire 5 8" D_ra [4:0] $end
$var parameter 32 9" ADDR_SIZE $end
$var parameter 32 :" MUL_STALLS $end
$var parameter 32 ;" XLEN $end
$var reg 3 <" mul_cnt [2:0] $end
$upscope $end
$scope module u_alu $end
$var wire 1 Z EX_brn $end
$var wire 32 =" EX_b2 [31:0] $end
$var wire 32 >" EX_b [31:0] $end
$var wire 4 ?" EX_alu_op [3:0] $end
$var wire 32 @" EX_a2 [31:0] $end
$var wire 32 A" EX_a [31:0] $end
$var wire 32 B" EX_BP_target_pc [31:0] $end
$var wire 1 c EX_BP_taken $end
$var parameter 32 C" PC_BITS $end
$var parameter 32 D" SHW $end
$var parameter 32 E" VPC_BITS $end
$var parameter 32 F" XLEN $end
$var reg 32 G" EX_alu_out [31:0] $end
$var reg 1 T EX_taken $end
$var reg 1 S EX_true_taken $end
$var reg 32 H" next_pc [31:0] $end
$upscope $end
$scope module u_branch_buffer $end
$var wire 32 I" EX_alu_out [31:0] $end
$var wire 1 S EX_true_taken $end
$var wire 1 Q F_BP_taken $end
$var wire 1 & clk $end
$var wire 1 ( rst $end
$var wire 1 J" taken_on_hit $end
$var wire 32 K" seq_pc [31:0] $end
$var wire 1 8 MEM_stall $end
$var wire 1 D Itlb_stall $end
$var wire 1 H F_stall $end
$var wire 32 L" F_pc_va [31:0] $end
$var wire 32 M" F_BP_target_pc [31:0] $end
$var wire 32 N" EX_pc [31:0] $end
$var wire 1 Z EX_brn $end
$var parameter 32 O" DEPTH $end
$var parameter 32 P" INDX $end
$var parameter 32 Q" PC_BITS $end
$var reg 1 R" ex_hit $end
$var reg 3 S" ex_hit_idx [2:0] $end
$var reg 1 T" f_hit $end
$var reg 3 U" f_hit_idx [2:0] $end
$var integer 32 V" i [31:0] $end
$scope task fifo_insert_new $end
$upscope $end
$upscope $end
$scope module u_d_to_ex_reg $end
$var wire 1 c EX_BP_taken $end
$var wire 32 W" EX_BP_target_pc [31:0] $end
$var wire 32 X" EX_a [31:0] $end
$var wire 32 Y" EX_a2 [31:0] $end
$var wire 4 Z" EX_alu_op [3:0] $end
$var wire 32 [" EX_b [31:0] $end
$var wire 32 \" EX_b2 [31:0] $end
$var wire 1 Z EX_brn $end
$var wire 1 Y EX_byt $end
$var wire 1 U EX_str $end
$var wire 1 T EX_taken $end
$var wire 1 & clk $end
$var wire 1 ( rst $end
$var wire 1 , stall_D $end
$var wire 1 8 MEM_stall $end
$var wire 1 R EX_we $end
$var wire 5 ]" EX_rd [4:0] $end
$var wire 1 W EX_mul $end
$var wire 1 X EX_ld $end
$var wire 1 i D_we $end
$var wire 1 j D_str $end
$var wire 5 ^" D_rd [4:0] $end
$var wire 1 p D_mul $end
$var wire 1 q D_ld $end
$var wire 1 u D_byt $end
$var wire 1 v D_brn $end
$var wire 32 _" D_b2 [31:0] $end
$var wire 32 `" D_b [31:0] $end
$var wire 4 a" D_alu_op [3:0] $end
$var wire 32 b" D_a2 [31:0] $end
$var wire 32 c" D_a [31:0] $end
$var wire 32 d" D_BP_target_pc [31:0] $end
$var wire 1 ~ D_BP_taken $end
$var parameter 32 e" PC_BITS $end
$var parameter 32 f" VPC_BITS $end
$var parameter 32 g" XLEN $end
$var reg 32 h" ex_a2_r [31:0] $end
$var reg 32 i" ex_a_r [31:0] $end
$var reg 4 j" ex_alu_op_r [3:0] $end
$var reg 32 k" ex_b2_r [31:0] $end
$var reg 32 l" ex_b_r [31:0] $end
$var reg 1 m" ex_bp_taken_r $end
$var reg 32 n" ex_bp_target_pc_r [31:0] $end
$var reg 1 o" ex_brn_r $end
$var reg 1 p" ex_byt_r $end
$var reg 1 X ex_ld_r $end
$var reg 1 W ex_mul_r $end
$var reg 5 q" ex_rd_r [4:0] $end
$var reg 1 r" ex_str_r $end
$var reg 1 R ex_we_r $end
$upscope $end
$scope module u_dcache $end
$var wire 1 s" Dc_busy $end
$var wire 1 & clk $end
$var wire 1 t" op_active $end
$var wire 1 ( rst $end
$var wire 16 u" ptw_line [15:0] $end
$var wire 2 v" addr_word [1:0] $end
$var wire 16 w" addr_line [15:0] $end
$var wire 2 x" addr_byte [1:0] $end
$var wire 1 2 Ptw_req $end
$var wire 20 y" Ptw_addr [19:0] $end
$var wire 1 7 MEM_str $end
$var wire 1 : MEM_mem_valid $end
$var wire 1 ; MEM_ld $end
$var wire 128 z" MEM_data_line [127:0] $end
$var wire 1 > MEM_byt $end
$var wire 32 {" MEM_b2 [31:0] $end
$var wire 32 |" MEM_alu_out [31:0] $end
$var parameter 32 }" LINE_BITS $end
$var parameter 32 ~" XLEN $end
$var reg 16 !# Dc_mem_addr [15:0] $end
$var reg 1 g Dc_mem_req $end
$var reg 16 "# Dc_wb_addr [15:0] $end
$var reg 1 e Dc_wb_we $end
$var reg 128 ## Dc_wb_wline [127:0] $end
$var reg 32 $# MEM_data_mem [31:0] $end
$var reg 1 8 MEM_stall $end
$var reg 32 %# Ptw_rdata [31:0] $end
$var reg 1 1 Ptw_valid $end
$var reg 2 &# fifo_ptr [1:0] $end
$var reg 1 '# hit $end
$var reg 2 (# hit_idx [1:0] $end
$var reg 16 )# miss_line [15:0] $end
$var reg 20 *# ptw_addr_q [19:0] $end
$var reg 1 +# ptw_busy $end
$var reg 32 ,# tmp_load_word [31:0] $end
$var reg 32 -# tmp_store_word [31:0] $end
$var integer 32 .# i [31:0] $end
$upscope $end
$scope module u_decode $end
$var wire 1 v D_brn $end
$var wire 1 r D_jmp $end
$var wire 1 i D_we $end
$var wire 1 & clk $end
$var wire 1 /# is_beq $end
$var wire 1 0# is_bgt $end
$var wire 1 1# is_blt $end
$var wire 1 2# is_jmp $end
$var wire 1 3# is_ctrl $end
$var wire 1 j D_str $end
$var wire 5 4# D_rd [4:0] $end
$var wire 5 5# D_rb [4:0] $end
$var wire 5 6# D_ra [4:0] $end
$var wire 6 7# D_opc [5:0] $end
$var wire 1 p D_mul $end
$var wire 1 q D_ld $end
$var wire 32 8# D_inst [31:0] $end
$var wire 11 9# D_imd [10:0] $end
$var wire 1 u D_byt $end
$var wire 4 :# D_alu_op [3:0] $end
$var wire 1 z D_addi $end
$var parameter 6 ;# OPC_ADD $end
$var parameter 6 <# OPC_ADDI $end
$var parameter 6 =# OPC_AND $end
$var parameter 6 ># OPC_CTRL $end
$var parameter 6 ?# OPC_GT $end
$var parameter 5 @# OPC_LOAD $end
$var parameter 6 A# OPC_LT $end
$var parameter 6 B# OPC_MUL $end
$var parameter 6 C# OPC_NOT $end
$var parameter 6 D# OPC_OR $end
$var parameter 6 E# OPC_SHL $end
$var parameter 6 F# OPC_SHR $end
$var parameter 5 G# OPC_STORE $end
$var parameter 6 H# OPC_SUB $end
$var parameter 6 I# OPC_XOR $end
$var parameter 5 J# RD_BEQ $end
$var parameter 5 K# RD_BGT $end
$var parameter 5 L# RD_BLT $end
$var parameter 4 M# RD_JMP $end
$var parameter 32 N# XLEN $end
$upscope $end
$scope module u_ex_to_mem_reg $end
$var wire 32 O# EX_a2 [31:0] $end
$var wire 32 P# EX_alu_out [31:0] $end
$var wire 32 Q# EX_b2 [31:0] $end
$var wire 1 Y EX_byt $end
$var wire 1 X EX_ld $end
$var wire 5 R# EX_rd [4:0] $end
$var wire 1 U EX_str $end
$var wire 1 T EX_taken $end
$var wire 1 R EX_we $end
$var wire 32 S# MEM_a2 [31:0] $end
$var wire 32 T# MEM_b2 [31:0] $end
$var wire 1 > MEM_byt $end
$var wire 1 8 MEM_stall $end
$var wire 1 6 MEM_taken $end
$var wire 1 & clk $end
$var wire 1 ( rst $end
$var wire 1 5 MEM_we $end
$var wire 1 7 MEM_str $end
$var wire 5 U# MEM_rd [4:0] $end
$var wire 1 ; MEM_ld $end
$var wire 32 V# MEM_alu_out [31:0] $end
$var parameter 32 W# XLEN $end
$var reg 32 X# mem_a2_r [31:0] $end
$var reg 32 Y# mem_alu_out_r [31:0] $end
$var reg 32 Z# mem_b2_r [31:0] $end
$var reg 1 [# mem_byt_r $end
$var reg 1 ; mem_ld_r $end
$var reg 5 \# mem_rd_r [4:0] $end
$var reg 1 7 mem_str_r $end
$var reg 1 ]# mem_taken_r $end
$var reg 1 5 mem_we_r $end
$upscope $end
$scope module u_f2d $end
$var wire 1 ~ D_BP_taken $end
$var wire 32 ^# D_BP_target_pc [31:0] $end
$var wire 1 T EX_taken $end
$var wire 1 Q F_BP_taken $end
$var wire 32 _# F_BP_target_pc [31:0] $end
$var wire 1 8 MEM_stall $end
$var wire 1 & clk $end
$var wire 1 ( rst $end
$var wire 1 , stall_D $end
$var wire 1 D Itlb_stall $end
$var wire 32 `# F_pc [31:0] $end
$var wire 32 a# F_inst [31:0] $end
$var wire 32 b# D_pc [31:0] $end
$var wire 32 c# D_inst [31:0] $end
$var parameter 32 d# NOP $end
$var parameter 32 e# PC_BITS $end
$var parameter 32 f# VPC_BITS $end
$var parameter 32 g# XLEN $end
$var reg 1 h# d_bp_taken $end
$var reg 32 i# d_bp_target_pc [31:0] $end
$var reg 32 j# d_inst [31:0] $end
$var reg 32 k# d_pc [31:0] $end
$upscope $end
$scope module u_icache $end
$var wire 1 & clk $end
$var wire 1 ( rst $end
$var wire 2 l# pc_word [1:0] $end
$var wire 16 m# pc_line [15:0] $end
$var wire 20 n# F_pc [19:0] $end
$var wire 1 M F_mem_valid $end
$var wire 128 o# F_mem_inst [127:0] $end
$var parameter 32 p# LINE_BITS $end
$var parameter 32 q# PC_BITS $end
$var reg 32 r# F_inst [31:0] $end
$var reg 1 H F_stall $end
$var reg 16 s# Ic_mem_addr [15:0] $end
$var reg 1 F Ic_mem_req $end
$var reg 2 t# fifo_ptr [1:0] $end
$var reg 1 u# hit $end
$var reg 2 v# hit_idx [1:0] $end
$var reg 16 w# miss_line [15:0] $end
$var integer 32 x# i [31:0] $end
$upscope $end
$scope module u_itlb $end
$var wire 1 + F_admin $end
$var wire 20 y# F_pc [19:0] $end
$var wire 1 E Itlb_pa_request $end
$var wire 1 D Itlb_stall $end
$var wire 1 & clk $end
$var wire 1 ( rst $end
$var wire 20 z# va_vpn [19:0] $end
$var wire 32 {# va_in [31:0] $end
$var wire 20 |# Itlb_va [19:0] $end
$var wire 1 I F_ptw_valid $end
$var wire 8 }# F_ptw_pa [7:0] $end
$var parameter 32 ~# NUM_ENTRIES $end
$var parameter 32 !$ PAGE_OFFSET_WIDTH $end
$var parameter 32 "$ PC_BITS $end
$var parameter 33 #$ PPN_WIDTH $end
$var parameter 32 $$ VA_WIDTH $end
$var parameter 33 %$ VPN_WIDTH $end
$var reg 4 &$ fifo_ptr [3:0] $end
$var reg 1 '$ hit $end
$var reg 8 ($ hit_ppn [7:0] $end
$var reg 20 )$ miss_vpn [19:0] $end
$var reg 16 *$ valid [15:0] $end
$var integer 32 +$ i [31:0] $end
$upscope $end
$scope module u_mem_to_wb_reg $end
$var wire 32 ,$ MEM_data_mem [31:0] $end
$var wire 5 -$ MEM_rd [4:0] $end
$var wire 1 5 MEM_we $end
$var wire 1 & clk $end
$var wire 1 ( rst $end
$var wire 1 - WB_we $end
$var wire 5 .$ WB_rd [4:0] $end
$var wire 32 /$ WB_data_mem [31:0] $end
$var parameter 32 0$ XLEN $end
$var reg 32 1$ wb_data_mem_r [31:0] $end
$var reg 5 2$ wb_rd_r [4:0] $end
$var reg 1 - wb_we_r $end
$upscope $end
$scope module u_pc $end
$var wire 32 3$ EX_alt_pc [31:0] $end
$var wire 1 T EX_taken $end
$var wire 32 4$ F_BP_target_pc [31:0] $end
$var wire 1 & clk $end
$var wire 1 ( rst $end
$var wire 1 , stall_D $end
$var parameter 32 5$ PCLEN $end
$var parameter 32 6$ RESET_PC $end
$var reg 32 7$ F_pc_va [31:0] $end
$upscope $end
$scope module u_ptw $end
$var wire 1 E Itlb_pa_request $end
$var wire 20 8$ Itlb_va [19:0] $end
$var wire 1 8 MEM_stall $end
$var wire 32 9$ Ptw_mem_rdata [31:0] $end
$var wire 1 1 Ptw_mem_valid $end
$var wire 1 & clk $end
$var wire 1 ( rst $end
$var wire 10 :$ vpn1 [9:0] $end
$var wire 10 ;$ vpn0 [9:0] $end
$var wire 8 <$ pte_ppn [7:0] $end
$var parameter 32 =$ PAGE_OFFSET_WIDTH $end
$var parameter 32 >$ PC_BITS $end
$var parameter 33 ?$ PPN_WIDTH $end
$var parameter 8 @$ ROOT_PPN $end
$var parameter 3 A$ S_IDLE $end
$var parameter 3 B$ S_L1_REQ $end
$var parameter 3 C$ S_L1_WAIT $end
$var parameter 3 D$ S_L2_REQ $end
$var parameter 3 E$ S_L2_WAIT $end
$var parameter 3 F$ S_RESP $end
$var parameter 32 G$ VA_WIDTH $end
$var parameter 33 H$ VPN_WIDTH $end
$var reg 8 I$ F_ptw_pa [7:0] $end
$var reg 1 I F_ptw_valid $end
$var reg 20 J$ Ptw_mem_addr [19:0] $end
$var reg 1 2 Ptw_mem_req $end
$var reg 8 K$ l1_ppn_q [7:0] $end
$var reg 8 L$ l2_ppn_q [7:0] $end
$var reg 3 M$ next_state [2:0] $end
$var reg 3 N$ state [2:0] $end
$var reg 20 O$ vpn_q [19:0] $end
$upscope $end
$scope module u_regfile $end
$var wire 32 P$ D_a2 [31:0] $end
$var wire 1 z D_addi $end
$var wire 32 Q$ D_b2 [31:0] $end
$var wire 1 v D_brn $end
$var wire 11 R$ D_imd [10:0] $end
$var wire 1 r D_jmp $end
$var wire 1 q D_ld $end
$var wire 32 S$ D_pc [31:0] $end
$var wire 5 T$ D_ra [4:0] $end
$var wire 5 U$ D_rb [4:0] $end
$var wire 1 j D_str $end
$var wire 2 V$ EX_D_bp [1:0] $end
$var wire 32 W$ EX_alu_out [31:0] $end
$var wire 2 X$ MEM_D_bp [1:0] $end
$var wire 32 Y$ MEM_data_mem [31:0] $end
$var wire 2 Z$ WB_D_bp [1:0] $end
$var wire 32 [$ WB_data_mem [31:0] $end
$var wire 5 \$ WB_rd [4:0] $end
$var wire 1 - WB_we $end
$var wire 1 & clk $end
$var wire 32 ]$ ra_raw [31:0] $end
$var wire 32 ^$ rb_raw [31:0] $end
$var wire 32 _$ rb_fwd [31:0] $end
$var wire 32 `$ ra_fwd [31:0] $end
$var wire 32 a$ D_b [31:0] $end
$var wire 32 b$ D_a [31:0] $end
$var parameter 32 c$ ADDR_SIZE $end
$var parameter 32 d$ PC_BITS $end
$var parameter 32 e$ REG_NUM $end
$var parameter 32 f$ VPC_BITS $end
$var parameter 32 g$ XLEN $end
$var integer 32 h$ i [31:0] $end
$upscope $end
$scope module u_unified_mem $end
$var wire 16 i$ Dc_mem_addr [15:0] $end
$var wire 1 g Dc_mem_req $end
$var wire 16 j$ Dc_wb_addr [15:0] $end
$var wire 1 e Dc_wb_we $end
$var wire 128 k$ Dc_wb_wline [127:0] $end
$var wire 16 l$ Ic_mem_addr [15:0] $end
$var wire 1 F Ic_mem_req $end
$var wire 1 & clk $end
$var wire 1 ( rst $end
$var parameter 32 m$ LATENCY $end
$var parameter 32 n$ LINE_BITS $end
$var parameter 48 o$ NUM_LINES $end
$var parameter 32 p$ WORDS_PER_LINE $end
$var parameter 32 q$ XLEN $end
$var reg 2 r$ D_counter [1:0] $end
$var reg 16 s$ D_saved_line [15:0] $end
$var reg 128 t$ F_mem_inst [127:0] $end
$var reg 1 M F_mem_valid $end
$var reg 2 u$ I_counter [1:0] $end
$var reg 16 v$ I_saved_line [15:0] $end
$var reg 128 w$ MEM_data_line [127:0] $end
$var reg 1 : MEM_mem_valid $end
$var integer 32 x$ i [31:0] $end
$var integer 32 y$ j [31:0] $end
$upscope $end
$upscope $end
$scope begin run_loop $end
$upscope $end
$upscope $end
$enddefinitions $end
$comment Show the parameter values. $end
$dumpall
b100000 q$
b100 p$
b10000000000000000 o$
b10000 n$
b11 m$
b100000 g$
b100000 f$
b100000 e$
b10100 d$
b101 c$
b10100 H$
b100000 G$
b101 F$
b100 E$
b11 D$
b10 C$
b1 B$
b0 A$
b1001 @$
b1000 ?$
b10100 >$
b1100 =$
b0 6$
b100000 5$
b100000 0$
b10100 %$
b100000 $$
b1000 #$
b10100 "$
b1100 !$
b10000 ~#
b10100 q#
b10000 p#
b100000 g#
b100000 f#
b10100 e#
b100000000000000000000000000000 d#
b100000 W#
b100000 N#
b0 M#
b10 L#
b11 K#
b1 J#
b100 I#
b1 H#
b1100 G#
b111 F#
b110 E#
b11 D#
b101 C#
b1110 B#
b1001 A#
b1011 @#
b1010 ?#
b1101 >#
b10 =#
b1000 <#
b0 ;#
b100000 ~"
b10000 }"
b100000 g"
b100000 f"
b10100 e"
b100000 Q"
b11 P"
b1000 O"
b100000 F"
b100000 E"
b101 D"
b10100 C"
b100000 ;"
b100 :"
b101 9"
b100000 &"
b100000 %"
b0 $"
b100000 #"
b10100 ""
b101 !"
b100000 %
b100000 $
b10100 #
b10110 "
b101 !
$end
#0
$dumpvars
b100 y$
b10000000000000000 x$
bx w$
bx v$
bx u$
bx t$
bx s$
bx r$
b0 l$
bx k$
bx j$
bx i$
b100000 h$
bx b$
bx a$
bx `$
bx _$
bx ^$
bx ]$
bx \$
bx [$
bx Z$
bx Y$
bx X$
bx W$
bx V$
bx U$
bx T$
bx S$
bx R$
bx Q$
bx P$
bx O$
bx N$
bx M$
bx L$
bx K$
bx J$
bx I$
bx <$
bx ;$
bx :$
bx 9$
b0 8$
b0 7$
b0 4$
bx 3$
bx 2$
bx 1$
bx /$
bx .$
bx -$
bx ,$
bx +$
bx *$
bx )$
b0 ($
0'$
bx &$
bx }#
b0 |#
b0 {#
b0 z#
b0 y#
bx x#
bx w#
b0 v#
0u#
bx t#
b0 s#
b100000000000000000000000000000 r#
bx o#
b0 n#
b0 m#
b0 l#
bx k#
bx j#
bx i#
xh#
bx c#
bx b#
b100000000000000000000000000000 a#
b0 `#
b0 _#
bx ^#
x]#
bx \#
x[#
bx Z#
bx Y#
bx X#
bx V#
bx U#
bx T#
bx S#
bx R#
bx Q#
bx P#
bx O#
bx :#
bx 9#
bx 8#
bx 7#
bx 6#
bx 5#
bx 4#
x3#
x2#
x1#
x0#
x/#
bx .#
bx -#
bx ,#
x+#
bx *#
bx )#
bx (#
x'#
bx &#
bx %#
bx $#
bx ##
bx "#
bx !#
bx |"
bx {"
bx z"
bx y"
bx x"
bx w"
bx v"
bx u"
xt"
xs"
xr"
bx q"
xp"
xo"
bx n"
xm"
bx l"
bx k"
bx j"
bx i"
bx h"
bx d"
bx c"
bx b"
bx a"
bx `"
bx _"
bx ^"
bx ]"
bx \"
bx ["
bx Z"
bx Y"
bx X"
bx W"
b1000 V"
b0 U"
0T"
bx S"
xR"
bx N"
b0 M"
b0 L"
b0 K"
0J"
bx I"
bx H"
bx G"
bx B"
bx A"
bx @"
bx ?"
bx >"
bx ="
bx <"
bx 8"
bx 7"
bx 6"
bx 5"
bx 4"
bx 3"
bx 2"
bx 1"
bx 0"
bx /"
x."
x-"
x,"
x+"
x*"
x)"
x("
x'"
x~
bx }
bx |
bx {
xz
bx y
bx x
bx w
xv
xu
bx t
bx s
xr
xq
xp
bx o
bx n
bx m
bx l
bx k
xj
xi
bx h
xg
bx f
xe
bx d
xc
bx b
bx a
bx `
bx _
bx ^
bx ]
bx \
bx [
xZ
xY
xX
xW
bx V
xU
xT
xS
xR
0Q
b0 P
b100000000000000000000000000000 O
bx N
xM
b0 L
b0 K
bx J
xI
1H
b0 G
xF
xE
1D
b0 C
bx B
bx A
bx @
bx ?
x>
bx =
bx <
x;
x:
bx 9
x8
x7
x6
x5
bx 4
bx 3
x2
x1
bx 0
bx /
bx .
x-
x,
0+
bx *
bx )
1(
bx '
0&
$end
#5000
b0 |
b0 c"
b0 b$
b0 w
b0 _"
b0 Q$
b0 _$
b0 {
b0 b"
b0 P$
b0 `$
b0 x
b0 `"
b0 a$
00#
01#
0/#
0r
02#
0q
0j
0u
1i
b0 y
b0 a"
b0 :#
b0 a
b0 5"
b0 V$
b0 h
b0 !#
b0 i$
1T"
b0 u"
1E
b0 :$
b0 ;$
b0 t
b0 9#
b0 R$
b0 k
b0 6"
b0 ^"
b0 4#
b0 ^$
b0 l
b0 7"
b0 5#
b0 U$
b0 ]$
b0 m
b0 8"
b0 6#
b0 T$
0v
03#
0p
1z
b1000 o
b1000 7#
0,
0+"
0("
0'"
b0 H"
0S
0T
b0 ]
b0 4"
b0 G"
b0 I"
b0 P#
b0 3$
b0 W$
b0 S"
1R"
0t"
0*"
b0 B
b0 2"
b0 X$
0)"
b0 x"
b0 v"
b0 w"
b1 M$
b0 <$
0s"
1F
1H
0g
b0 <
b0 $#
b0 ,$
b0 Y$
08
b0 (#
0'#
0-"
b0 0
b0 0"
b0 Z$
0,"
b0 )$
b0 &$
b0 *$
b0 4
b0 y"
b0 J$
02
b0 J
b0 }#
b0 I$
0I
b0 L$
b0 K$
b0 O$
b0 N$
b0 w#
b0 t#
b0 }
b0 d"
b0 ^#
b0 i#
0~
0h#
b100000000000000000000000000000 s
b100000000000000000000000000000 8#
b100000000000000000000000000000 c#
b100000000000000000000000000000 j#
b0 n
b0 b#
b0 k#
b0 S$
0."
b0 <"
b0 b
b0 B"
b0 W"
b0 n"
0W
0R
0Y
0p"
0U
0r"
0X
b0 V
b0 3"
b0 ]"
b0 q"
b0 R#
0c
0m"
0Z
0o"
b0 ^
b0 ?"
b0 Z"
b0 j"
b0 [
b0 ="
b0 \"
b0 Q#
b0 k"
b0 \
b0 >"
b0 ["
b0 l"
b0 _
b0 @"
b0 Y"
b0 O#
b0 h"
b0 `
b0 A"
b0 N"
b0 X"
b0 i"
0>
0[#
07
0;
05
b0 9
b0 1"
b0 U#
b0 \#
b0 -$
b0 A
b0 S#
b0 X#
b0 ?
b0 {"
b0 T#
b0 Z#
06
0]#
b0 @
b0 |"
b0 V#
b0 Y#
01
b0 3
b0 %#
b0 9$
b0 *#
0+#
b0 d
b0 ##
b0 k$
b0 f
b0 "#
b0 j$
0e
b0 )#
b0 &#
b0 u$
0M
b0 r$
0:
0-
b0 .
b0 /"
b0 .$
b0 2$
b0 \$
b0 /
b0 /$
b0 1$
b0 [$
b1000 V"
b10000 +$
b100 x#
b100 .#
1&
#10000
0&
#15000
b100 .#
b100 x#
b10000 +$
b1000 V"
1&
#20000
0&
#25000
0(
b1000 V"
b10000 +$
b100 x#
b100 .#
b0 )
1&
#30000
0&
#35000
b11 a
b11 5"
b11 V$
1("
1'"
b10 M$
b11 u$
b0 v$
1R
b1 N$
b100000000000000000000000000000 '
b1 )
1&
#40000
0&
#45000
b100100000000 h
b100100000000 !#
b100100000000 i$
b100100000000 u"
1g
1*"
b11 B
b11 2"
b11 X$
1)"
b1001000000000000 4
b1001000000000000 y"
b1001000000000000 J$
12
b10 N$
15
b10 u$
b10 )
1&
#50000
0&
#55000
1-"
b11 0
b11 0"
b11 Z$
1,"
1s"
b0 h
b0 !#
b0 i$
0g
1-
b11 r$
b100100000000 s$
b1 u$
b1001000000000000 *#
1+#
02
b11 )
1&
#60000
0&
#65000
0F
1H
1M
b100000001000010000100000000001000000000000000000001000000000000010000001000010000100000000000100100000011000110001100000001010 N
b100000001000010000100000000001000000000000000000001000000000000010000001000010000100000000000100100000011000110001100000001010 o#
b100000001000010000100000000001000000000000000000001000000000000010000001000010000100000000000100100000011000110001100000001010 t$
b0 u$
b10 r$
b100 )
1&
#70000
0&
#75000
b100000011000110001100000001010 O
b100000011000110001100000001010 a#
b100000011000110001100000001010 r#
1u#
b100 x#
0H
b1 r$
0M
b1 t#
b101 )
1&
#80000
0&
#85000
1:
b1010000000000001 =
b1010000000000001 z"
b1010000000000001 w$
b0 r$
b100000011000110001100000001010 '
b110 )
1&
#90000
0&
#95000
0s"
b11 M$
b1010 <$
0:
0+#
11
b1010000000000001 3
b1010000000000001 %#
b1010000000000001 9$
b111 )
1&
#100000
0&
#105000
b100 M$
b1010 K$
b11 N$
01
b1000 )
1&
#110000
0&
#115000
b101000000000 u"
b101000000000 h
b101000000000 !#
b101000000000 i$
1g
b1010000000000000 4
b1010000000000000 y"
b1010000000000000 J$
12
b100 N$
b1001 )
1&
#120000
0&
#125000
b0 h
b0 !#
b0 i$
0g
1s"
02
b1010000000000000 *#
1+#
b11 r$
b101000000000 s$
b1010 )
1&
#130000
0&
#135000
b10 r$
b1011 )
1&
#140000
0&
#145000
b1 r$
b1100 )
1&
#150000
0&
#155000
1:
b11000000000001000000000000000000100000000000010000000000000000000100000000000100000000000000000000000000000001 =
b11000000000001000000000000000000100000000000010000000000000000000100000000000100000000000000000000000000000001 z"
b11000000000001000000000000000000100000000000010000000000000000000100000000000100000000000000000000000000000001 w$
b0 r$
b1101 )
1&
