rtl/cpu_run_tb.vcd
$date
	Wed Dec  3 14:49:38 2025
$end
$version
	Icarus Verilog
$end
$timescale
	1ps
$end
$scope module cpu_run_tb $end
$var parameter 32 ! ADDR_SIZE $end
$var parameter 32 " END_PC $end
$var parameter 32 # PC_BITS $end
$var parameter 32 $ REG_NUM $end
$var parameter 32 % XLEN $end
$var reg 1 & clk $end
$var reg 32 ' curr_inst [31:0] $end
$var reg 1 ( rst $end
$var integer 32 ) cycles [31:0] $end
$var integer 32 * i [31:0] $end
$scope module dut $end
$var wire 1 + F_admin $end
$var wire 1 & clk $end
$var wire 1 ( rst $end
$var wire 1 , stall_D $end
$var wire 1 - WB_we $end
$var wire 5 . WB_rd [4:0] $end
$var wire 32 / WB_data_mem [31:0] $end
$var wire 2 0 WB_D_bp [1:0] $end
$var wire 1 1 MEM_we $end
$var wire 1 2 MEM_taken $end
$var wire 1 3 MEM_str $end
$var wire 1 4 MEM_stall $end
$var wire 5 5 MEM_rd [4:0] $end
$var wire 1 6 MEM_mem_valid $end
$var wire 1 7 MEM_ld $end
$var wire 32 8 MEM_data_mem [31:0] $end
$var wire 128 9 MEM_data_line [127:0] $end
$var wire 1 : MEM_byt $end
$var wire 32 ; MEM_b2 [31:0] $end
$var wire 32 < MEM_alu_out [31:0] $end
$var wire 32 = MEM_a2 [31:0] $end
$var wire 2 > MEM_D_bp [1:0] $end
$var wire 20 ? Itlb_va [19:0] $end
$var wire 1 @ Itlb_stall $end
$var wire 1 A Itlb_pa_request $end
$var wire 1 B Ic_mem_req $end
$var wire 16 C Ic_mem_addr [15:0] $end
$var wire 1 D F_stall $end
$var wire 1 E F_ptw_valid $end
$var wire 8 F F_ptw_pa [7:0] $end
$var wire 32 G F_pc_va [31:0] $end
$var wire 20 H F_pc [19:0] $end
$var wire 1 I F_mem_valid $end
$var wire 128 J F_mem_inst [127:0] $end
$var wire 32 K F_inst [31:0] $end
$var wire 32 L F_BP_target_pc [31:0] $end
$var wire 1 M F_BP_taken $end
$var wire 1 N EX_we $end
$var wire 1 O EX_true_taken $end
$var wire 1 P EX_taken $end
$var wire 1 Q EX_str $end
$var wire 5 R EX_rd [4:0] $end
$var wire 1 S EX_mul $end
$var wire 1 T EX_ld $end
$var wire 1 U EX_byt $end
$var wire 1 V EX_brn $end
$var wire 32 W EX_b2 [31:0] $end
$var wire 32 X EX_b [31:0] $end
$var wire 32 Y EX_alu_out [31:0] $end
$var wire 4 Z EX_alu_op [3:0] $end
$var wire 32 [ EX_a2 [31:0] $end
$var wire 32 \ EX_a [31:0] $end
$var wire 2 ] EX_D_bp [1:0] $end
$var wire 32 ^ EX_BP_target_pc [31:0] $end
$var wire 1 _ EX_BP_taken $end
$var wire 128 ` Dc_wb_wline [127:0] $end
$var wire 1 a Dc_wb_we $end
$var wire 16 b Dc_wb_addr [15:0] $end
$var wire 1 c Dc_mem_req $end
$var wire 16 d Dc_mem_addr [15:0] $end
$var wire 1 e D_we $end
$var wire 1 f D_str $end
$var wire 5 g D_rd [4:0] $end
$var wire 5 h D_rb [4:0] $end
$var wire 5 i D_ra [4:0] $end
$var wire 32 j D_pc [31:0] $end
$var wire 6 k D_opc [5:0] $end
$var wire 1 l D_mul $end
$var wire 1 m D_ld $end
$var wire 32 n D_inst [31:0] $end
$var wire 11 o D_imd [10:0] $end
$var wire 1 p D_byt $end
$var wire 1 q D_brn $end
$var wire 32 r D_b2 [31:0] $end
$var wire 32 s D_b [31:0] $end
$var wire 4 t D_alu_op [3:0] $end
$var wire 1 u D_addi $end
$var wire 32 v D_a2 [31:0] $end
$var wire 32 w D_a [31:0] $end
$var wire 32 x D_BP_target_pc [31:0] $end
$var wire 1 y D_BP_taken $end
$var parameter 32 z ADDR_SIZE $end
$var parameter 32 { PC_BITS $end
$var parameter 32 | REG_NUM $end
$var parameter 32 } RESET_PC $end
$var parameter 32 ~ VPC_BITS $end
$var parameter 32 !" XLEN $end
$scope module u_Hazard_unit $end
$var wire 1 & clk $end
$var wire 1 "" ex_hit_ra $end
$var wire 1 #" ex_hit_rb $end
$var wire 1 $" mem_hit_ra $end
$var wire 1 %" mem_hit_rb $end
$var wire 1 &" mul_start $end
$var wire 1 ( rst $end
$var wire 1 , stall_D $end
$var wire 1 '" wb_hit_ra $end
$var wire 1 (" wb_hit_rb $end
$var wire 1 )" mul_stall $end
$var wire 1 - WB_we $end
$var wire 5 *" WB_rd [4:0] $end
$var wire 2 +" WB_D_bp [1:0] $end
$var wire 1 1 MEM_we $end
$var wire 5 ," MEM_rd [4:0] $end
$var wire 2 -" MEM_D_bp [1:0] $end
$var wire 1 N EX_we $end
$var wire 5 ." EX_rd [4:0] $end
$var wire 1 S EX_mul $end
$var wire 1 T EX_ld $end
$var wire 32 /" EX_alu_out [31:0] $end
$var wire 2 0" EX_D_bp [1:0] $end
$var wire 5 1" D_rd [4:0] $end
$var wire 5 2" D_rb [4:0] $end
$var wire 5 3" D_ra [4:0] $end
$var parameter 32 4" ADDR_SIZE $end
$var parameter 32 5" MUL_STALLS $end
$var parameter 32 6" XLEN $end
$var reg 3 7" mul_cnt [2:0] $end
$upscope $end
$scope module u_alu $end
$var wire 1 V EX_brn $end
$var wire 32 8" EX_b2 [31:0] $end
$var wire 32 9" EX_b [31:0] $end
$var wire 4 :" EX_alu_op [3:0] $end
$var wire 32 ;" EX_a2 [31:0] $end
$var wire 32 <" EX_a [31:0] $end
$var wire 32 =" EX_BP_target_pc [31:0] $end
$var wire 1 _ EX_BP_taken $end
$var parameter 32 >" PC_BITS $end
$var parameter 32 ?" SHW $end
$var parameter 32 @" VPC_BITS $end
$var parameter 32 A" XLEN $end
$var reg 32 B" EX_alu_out [31:0] $end
$var reg 1 P EX_taken $end
$var reg 1 O EX_true_taken $end
$var reg 32 C" next_pc [31:0] $end
$upscope $end
$scope module u_branch_buffer $end
$var wire 32 D" EX_alu_out [31:0] $end
$var wire 1 O EX_true_taken $end
$var wire 1 M F_BP_taken $end
$var wire 1 & clk $end
$var wire 1 ( rst $end
$var wire 1 E" taken_on_hit $end
$var wire 32 F" seq_pc [31:0] $end
$var wire 1 4 MEM_stall $end
$var wire 1 @ Itlb_stall $end
$var wire 1 D F_stall $end
$var wire 32 G" F_pc_va [31:0] $end
$var wire 32 H" F_BP_target_pc [31:0] $end
$var wire 32 I" EX_pc [31:0] $end
$var wire 1 V EX_brn $end
$var parameter 32 J" DEPTH $end
$var parameter 32 K" INDX $end
$var parameter 32 L" PC_BITS $end
$var reg 1 M" ex_hit $end
$var reg 3 N" ex_hit_idx [2:0] $end
$var reg 1 O" f_hit $end
$var reg 3 P" f_hit_idx [2:0] $end
$var integer 32 Q" i [31:0] $end
$scope task fifo_insert_new $end
$upscope $end
$upscope $end
$scope module u_d_to_ex_reg $end
$var wire 1 _ EX_BP_taken $end
$var wire 32 R" EX_BP_target_pc [31:0] $end
$var wire 32 S" EX_a [31:0] $end
$var wire 32 T" EX_a2 [31:0] $end
$var wire 4 U" EX_alu_op [3:0] $end
$var wire 32 V" EX_b [31:0] $end
$var wire 32 W" EX_b2 [31:0] $end
$var wire 1 V EX_brn $end
$var wire 1 U EX_byt $end
$var wire 1 Q EX_str $end
$var wire 1 P EX_taken $end
$var wire 1 & clk $end
$var wire 1 ( rst $end
$var wire 1 , stall_D $end
$var wire 1 4 MEM_stall $end
$var wire 1 N EX_we $end
$var wire 5 X" EX_rd [4:0] $end
$var wire 1 S EX_mul $end
$var wire 1 T EX_ld $end
$var wire 1 e D_we $end
$var wire 1 f D_str $end
$var wire 5 Y" D_rd [4:0] $end
$var wire 1 l D_mul $end
$var wire 1 m D_ld $end
$var wire 1 p D_byt $end
$var wire 1 q D_brn $end
$var wire 32 Z" D_b2 [31:0] $end
$var wire 32 [" D_b [31:0] $end
$var wire 4 \" D_alu_op [3:0] $end
$var wire 32 ]" D_a2 [31:0] $end
$var wire 32 ^" D_a [31:0] $end
$var wire 32 _" D_BP_target_pc [31:0] $end
$var wire 1 y D_BP_taken $end
$var parameter 32 `" PC_BITS $end
$var parameter 32 a" VPC_BITS $end
$var parameter 32 b" XLEN $end
$var reg 32 c" ex_a2_r [31:0] $end
$var reg 32 d" ex_a_r [31:0] $end
$var reg 4 e" ex_alu_op_r [3:0] $end
$var reg 32 f" ex_b2_r [31:0] $end
$var reg 32 g" ex_b_r [31:0] $end
$var reg 1 h" ex_bp_taken_r $end
$var reg 32 i" ex_bp_target_pc_r [31:0] $end
$var reg 1 j" ex_brn_r $end
$var reg 1 k" ex_byt_r $end
$var reg 1 T ex_ld_r $end
$var reg 1 S ex_mul_r $end
$var reg 5 l" ex_rd_r [4:0] $end
$var reg 1 m" ex_str_r $end
$var reg 1 N ex_we_r $end
$upscope $end
$scope module u_dcache $end
$var wire 1 & clk $end
$var wire 1 n" op_active $end
$var wire 1 ( rst $end
$var wire 2 o" addr_word [1:0] $end
$var wire 16 p" addr_line [15:0] $end
$var wire 2 q" addr_byte [1:0] $end
$var wire 1 3 MEM_str $end
$var wire 1 6 MEM_mem_valid $end
$var wire 1 7 MEM_ld $end
$var wire 128 r" MEM_data_line [127:0] $end
$var wire 1 : MEM_byt $end
$var wire 32 s" MEM_b2 [31:0] $end
$var wire 32 t" MEM_alu_out [31:0] $end
$var parameter 32 u" LINE_BITS $end
$var parameter 32 v" XLEN $end
$var reg 16 w" Dc_mem_addr [15:0] $end
$var reg 1 c Dc_mem_req $end
$var reg 16 x" Dc_wb_addr [15:0] $end
$var reg 1 a Dc_wb_we $end
$var reg 128 y" Dc_wb_wline [127:0] $end
$var reg 32 z" MEM_data_mem [31:0] $end
$var reg 1 4 MEM_stall $end
$var reg 2 {" fifo_ptr [1:0] $end
$var reg 1 |" hit $end
$var reg 2 }" hit_idx [1:0] $end
$var reg 16 ~" miss_line [15:0] $end
$var reg 32 !# tmp_load_word [31:0] $end
$var reg 32 "# tmp_store_word [31:0] $end
$var integer 32 ## i [31:0] $end
$upscope $end
$scope module u_decode $end
$var wire 1 q D_brn $end
$var wire 1 e D_we $end
$var wire 1 & clk $end
$var wire 1 $# is_beq $end
$var wire 1 %# is_bgt $end
$var wire 1 &# is_blt $end
$var wire 1 '# is_jmp $end
$var wire 1 (# is_ctrl $end
$var wire 1 f D_str $end
$var wire 5 )# D_rd [4:0] $end
$var wire 5 *# D_rb [4:0] $end
$var wire 5 +# D_ra [4:0] $end
$var wire 6 ,# D_opc [5:0] $end
$var wire 1 l D_mul $end
$var wire 1 m D_ld $end
$var wire 32 -# D_inst [31:0] $end
$var wire 11 .# D_imd [10:0] $end
$var wire 1 p D_byt $end
$var wire 4 /# D_alu_op [3:0] $end
$var wire 1 u D_addi $end
$var parameter 6 0# OPC_ADD $end
$var parameter 6 1# OPC_ADDI $end
$var parameter 6 2# OPC_AND $end
$var parameter 6 3# OPC_CTRL $end
$var parameter 6 4# OPC_GT $end
$var parameter 5 5# OPC_LOAD $end
$var parameter 6 6# OPC_LT $end
$var parameter 6 7# OPC_MUL $end
$var parameter 6 8# OPC_NOT $end
$var parameter 6 9# OPC_OR $end
$var parameter 6 :# OPC_SHL $end
$var parameter 6 ;# OPC_SHR $end
$var parameter 5 <# OPC_STORE $end
$var parameter 6 =# OPC_SUB $end
$var parameter 6 ># OPC_XOR $end
$var parameter 5 ?# RD_BEQ $end
$var parameter 5 @# RD_BGT $end
$var parameter 5 A# RD_BLT $end
$var parameter 5 B# RD_JMP $end
$var parameter 32 C# XLEN $end
$upscope $end
$scope module u_ex_to_mem_reg $end
$var wire 32 D# EX_a2 [31:0] $end
$var wire 32 E# EX_alu_out [31:0] $end
$var wire 32 F# EX_b2 [31:0] $end
$var wire 1 U EX_byt $end
$var wire 1 T EX_ld $end
$var wire 5 G# EX_rd [4:0] $end
$var wire 1 Q EX_str $end
$var wire 1 P EX_taken $end
$var wire 1 N EX_we $end
$var wire 32 H# MEM_a2 [31:0] $end
$var wire 32 I# MEM_b2 [31:0] $end
$var wire 1 : MEM_byt $end
$var wire 1 4 MEM_stall $end
$var wire 1 2 MEM_taken $end
$var wire 1 & clk $end
$var wire 1 ( rst $end
$var wire 1 1 MEM_we $end
$var wire 1 3 MEM_str $end
$var wire 5 J# MEM_rd [4:0] $end
$var wire 1 7 MEM_ld $end
$var wire 32 K# MEM_alu_out [31:0] $end
$var parameter 32 L# XLEN $end
$var reg 32 M# mem_a2_r [31:0] $end
$var reg 32 N# mem_alu_out_r [31:0] $end
$var reg 32 O# mem_b2_r [31:0] $end
$var reg 1 P# mem_byt_r $end
$var reg 1 7 mem_ld_r $end
$var reg 5 Q# mem_rd_r [4:0] $end
$var reg 1 3 mem_str_r $end
$var reg 1 R# mem_taken_r $end
$var reg 1 1 mem_we_r $end
$upscope $end
$scope module u_f2d $end
$var wire 1 y D_BP_taken $end
$var wire 32 S# D_BP_target_pc [31:0] $end
$var wire 1 P EX_taken $end
$var wire 1 M F_BP_taken $end
$var wire 32 T# F_BP_target_pc [31:0] $end
$var wire 1 4 MEM_stall $end
$var wire 1 & clk $end
$var wire 1 ( rst $end
$var wire 1 , stall_D $end
$var wire 32 U# F_pc [31:0] $end
$var wire 32 V# F_inst [31:0] $end
$var wire 32 W# D_pc [31:0] $end
$var wire 32 X# D_inst [31:0] $end
$var parameter 32 Y# NOP $end
$var parameter 32 Z# PC_BITS $end
$var parameter 32 [# VPC_BITS $end
$var parameter 32 \# XLEN $end
$var reg 1 ]# d_bp_taken $end
$var reg 32 ^# d_bp_target_pc [31:0] $end
$var reg 32 _# d_inst [31:0] $end
$var reg 32 `# d_pc [31:0] $end
$upscope $end
$scope module u_icache $end
$var wire 1 & clk $end
$var wire 1 ( rst $end
$var wire 2 a# pc_word [1:0] $end
$var wire 16 b# pc_line [15:0] $end
$var wire 20 c# F_pc [19:0] $end
$var wire 1 I F_mem_valid $end
$var wire 128 d# F_mem_inst [127:0] $end
$var parameter 32 e# LINE_BITS $end
$var parameter 32 f# PC_BITS $end
$var reg 32 g# F_inst [31:0] $end
$var reg 1 D F_stall $end
$var reg 16 h# Ic_mem_addr [15:0] $end
$var reg 1 B Ic_mem_req $end
$var reg 2 i# fifo_ptr [1:0] $end
$var reg 1 j# hit $end
$var reg 2 k# hit_idx [1:0] $end
$var reg 16 l# miss_line [15:0] $end
$var integer 32 m# i [31:0] $end
$upscope $end
$scope module u_itlb $end
$var wire 1 + F_admin $end
$var wire 20 n# F_pc [19:0] $end
$var wire 1 A Itlb_pa_request $end
$var wire 1 @ Itlb_stall $end
$var wire 1 & clk $end
$var wire 1 ( rst $end
$var wire 20 o# va_vpn [19:0] $end
$var wire 32 p# va_in [31:0] $end
$var wire 20 q# Itlb_va [19:0] $end
$var wire 1 E F_ptw_valid $end
$var wire 8 r# F_ptw_pa [7:0] $end
$var parameter 32 s# NUM_ENTRIES $end
$var parameter 32 t# PAGE_OFFSET_WIDTH $end
$var parameter 32 u# PC_BITS $end
$var parameter 33 v# PPN_WIDTH $end
$var parameter 32 w# VA_WIDTH $end
$var parameter 33 x# VPN_WIDTH $end
$var reg 4 y# fifo_ptr [3:0] $end
$var reg 1 z# hit $end
$var reg 8 {# hit_ppn [7:0] $end
$var reg 20 |# miss_vpn [19:0] $end
$var reg 16 }# valid [15:0] $end
$var integer 32 ~# i [31:0] $end
$upscope $end
$scope module u_mem_to_wb_reg $end
$var wire 32 !$ MEM_data_mem [31:0] $end
$var wire 5 "$ MEM_rd [4:0] $end
$var wire 1 1 MEM_we $end
$var wire 1 & clk $end
$var wire 1 ( rst $end
$var wire 1 - WB_we $end
$var wire 5 #$ WB_rd [4:0] $end
$var wire 32 $$ WB_data_mem [31:0] $end
$var parameter 32 %$ XLEN $end
$var reg 32 &$ wb_data_mem_r [31:0] $end
$var reg 5 '$ wb_rd_r [4:0] $end
$var reg 1 - wb_we_r $end
$upscope $end
$scope module u_pc $end
$var wire 32 ($ EX_alt_pc [31:0] $end
$var wire 1 P EX_taken $end
$var wire 32 )$ F_BP_target_pc [31:0] $end
$var wire 1 & clk $end
$var wire 1 ( rst $end
$var wire 1 , stall_D $end
$var parameter 32 *$ PCLEN $end
$var parameter 32 +$ RESET_PC $end
$var reg 32 ,$ F_pc_va [31:0] $end
$upscope $end
$scope module u_ptw $end
$var wire 1 A Itlb_pa_request $end
$var wire 20 -$ Itlb_va [19:0] $end
$var wire 1 & clk $end
$var wire 1 ( rst $end
$var parameter 32 .$ CNT_BITS $end
$var parameter 32 /$ PPN_WIDTH $end
$var parameter 32 0$ PTW_LATENCY $end
$var parameter 32 1$ VA_WIDTH $end
$var reg 8 2$ F_ptw_pa [7:0] $end
$var reg 1 E F_ptw_valid $end
$var reg 1 3$ busy $end
$var reg 2 4$ cnt [1:0] $end
$var reg 20 5$ va_latched [19:0] $end
$upscope $end
$scope module u_regfile $end
$var wire 32 6$ D_a2 [31:0] $end
$var wire 1 u D_addi $end
$var wire 32 7$ D_b2 [31:0] $end
$var wire 1 q D_brn $end
$var wire 11 8$ D_imd [10:0] $end
$var wire 1 m D_ld $end
$var wire 32 9$ D_pc [31:0] $end
$var wire 5 :$ D_ra [4:0] $end
$var wire 5 ;$ D_rb [4:0] $end
$var wire 1 f D_str $end
$var wire 2 <$ EX_D_bp [1:0] $end
$var wire 32 =$ EX_alu_out [31:0] $end
$var wire 2 >$ MEM_D_bp [1:0] $end
$var wire 32 ?$ MEM_data_mem [31:0] $end
$var wire 2 @$ WB_D_bp [1:0] $end
$var wire 32 A$ WB_data_mem [31:0] $end
$var wire 5 B$ WB_rd [4:0] $end
$var wire 1 - WB_we $end
$var wire 1 & clk $end
$var wire 32 C$ ra_raw [31:0] $end
$var wire 32 D$ rb_raw [31:0] $end
$var wire 32 E$ rb_fwd [31:0] $end
$var wire 32 F$ ra_fwd [31:0] $end
$var wire 32 G$ D_b [31:0] $end
$var wire 32 H$ D_a [31:0] $end
$var parameter 32 I$ ADDR_SIZE $end
$var parameter 32 J$ PC_BITS $end
$var parameter 32 K$ REG_NUM $end
$var parameter 32 L$ VPC_BITS $end
$var parameter 32 M$ XLEN $end
$var integer 32 N$ i [31:0] $end
$upscope $end
$scope module u_unified_mem $end
$var wire 16 O$ Dc_mem_addr [15:0] $end
$var wire 1 c Dc_mem_req $end
$var wire 16 P$ Dc_wb_addr [15:0] $end
$var wire 1 a Dc_wb_we $end
$var wire 128 Q$ Dc_wb_wline [127:0] $end
$var wire 16 R$ Ic_mem_addr [15:0] $end
$var wire 1 B Ic_mem_req $end
$var wire 1 & clk $end
$var wire 1 ( rst $end
$var parameter 32 S$ LATENCY $end
$var parameter 32 T$ LINE_BITS $end
$var parameter 48 U$ NUM_LINES $end
$var parameter 32 V$ WORDS_PER_LINE $end
$var parameter 32 W$ XLEN $end
$var reg 2 X$ D_counter [1:0] $end
$var reg 16 Y$ D_saved_line [15:0] $end
$var reg 128 Z$ F_mem_inst [127:0] $end
$var reg 1 I F_mem_valid $end
$var reg 2 [$ I_counter [1:0] $end
$var reg 16 \$ I_saved_line [15:0] $end
$var reg 128 ]$ MEM_data_line [127:0] $end
$var reg 1 6 MEM_mem_valid $end
$var integer 32 ^$ i [31:0] $end
$var integer 32 _$ j [31:0] $end
$upscope $end
$upscope $end
$scope begin run_loop $end
$upscope $end
$upscope $end
$enddefinitions $end
$comment Show the parameter values. $end
$dumpall
b100000 W$
b100 V$
b10000000000000000 U$
b10000 T$
b11 S$
b100000 M$
b100000 L$
b100000 K$
b10100 J$
b101 I$
b10100 1$
b11 0$
b1000 /$
b10 .$
b0 +$
b100000 *$
b100000 %$
b10100 x#
b100000 w#
b1000 v#
b10100 u#
b1100 t#
b10000 s#
b10100 f#
b10000 e#
b100000 \#
b100000 [#
b10100 Z#
b100000000000000000000000000000 Y#
b100000 L#
b100000 C#
b0 B#
b10 A#
b11 @#
b1 ?#
b100 >#
b1 =#
b1100 <#
b111 ;#
b110 :#
b11 9#
b101 8#
b1110 7#
b1001 6#
b1011 5#
b1010 4#
b1101 3#
b10 2#
b1000 1#
b0 0#
b100000 v"
b10000 u"
b100000 b"
b100000 a"
b10100 `"
b100000 L"
b11 K"
b1000 J"
b100000 A"
b100000 @"
b101 ?"
b10100 >"
b100000 6"
b100 5"
b101 4"
b100000 !"
b100000 ~
b0 }
b100000 |
b10100 {
b101 z
b100000 %
b100000 $
b10100 #
b10110 "
b101 !
$end
#0
$dumpvars
b100 _$
b10000000000000000 ^$
bx ]$
bx \$
bx [$
bx Z$
bx Y$
bx X$
b0 R$
bx Q$
bx P$
bx O$
b100000 N$
bx H$
bx G$
bx F$
bx E$
bx D$
bx C$
bx B$
bx A$
bx @$
bx ?$
bx >$
bx =$
bx <$
bx ;$
bx :$
bx 9$
bx 8$
bx 7$
bx 6$
bx 5$
bx 4$
x3$
bx 2$
b0 -$
b0 ,$
b0 )$
bx ($
bx '$
bx &$
bx $$
bx #$
bx "$
bx !$
bx ~#
bx }#
bx |#
b0 {#
0z#
bx y#
bx r#
b0 q#
b0 p#
b0 o#
b0 n#
bx m#
bx l#
b0 k#
0j#
bx i#
b0 h#
b100000000000000000000000000000 g#
bx d#
b0 c#
b0 b#
b0 a#
bx `#
bx _#
bx ^#
x]#
bx X#
bx W#
b100000000000000000000000000000 V#
b0 U#
b0 T#
bx S#
xR#
bx Q#
xP#
bx O#
bx N#
bx M#
bx K#
bx J#
bx I#
bx H#
bx G#
bx F#
bx E#
bx D#
bx /#
bx .#
bx -#
bx ,#
bx +#
bx *#
bx )#
x(#
x'#
x&#
x%#
x$#
bx ##
bx "#
bx !#
bx ~"
bx }"
x|"
bx {"
bx z"
bx y"
bx x"
bx w"
bx t"
bx s"
bx r"
bx q"
bx p"
bx o"
xn"
xm"
bx l"
xk"
xj"
bx i"
xh"
bx g"
bx f"
bx e"
bx d"
bx c"
bx _"
bx ^"
bx ]"
bx \"
bx ["
bx Z"
bx Y"
bx X"
bx W"
bx V"
bx U"
bx T"
bx S"
bx R"
b1000 Q"
b0 P"
0O"
bx N"
xM"
bx I"
b0 H"
b0 G"
b0 F"
0E"
bx D"
bx C"
bx B"
bx ="
bx <"
bx ;"
bx :"
bx 9"
bx 8"
bx 7"
bx 3"
bx 2"
bx 1"
bx 0"
bx /"
bx ."
bx -"
bx ,"
bx +"
bx *"
x)"
x("
x'"
x&"
x%"
x$"
x#"
x""
xy
bx x
bx w
bx v
xu
bx t
bx s
bx r
xq
xp
bx o
bx n
xm
xl
bx k
bx j
bx i
bx h
bx g
xf
xe
bx d
xc
bx b
xa
bx `
x_
bx ^
bx ]
bx \
bx [
bx Z
bx Y
bx X
bx W
xV
xU
xT
xS
bx R
xQ
xP
xO
xN
0M
b0 L
b100000000000000000000000000000 K
bx J
xI
b0 H
b0 G
bx F
xE
1D
b0 C
xB
xA
1@
b0 ?
bx >
bx =
bx <
bx ;
x:
bx 9
bx 8
x7
x6
bx 5
x4
x3
x2
x1
bx 0
bx /
bx .
x-
x,
0+
bx *
bx )
1(
bx '
0&
$end
#5000
b0 w
b0 ^"
b0 H$
b0 r
b0 Z"
b0 7$
b0 E$
b0 v
b0 ]"
b0 6$
b0 F$
b0 s
b0 ["
b0 G$
0%#
0&#
0$#
0'#
0m
0f
0p
1e
b0 t
b0 \"
b0 /#
b0 ]
b0 0"
b0 <$
b0 d
b0 w"
b0 O$
1O"
1A
b0 o
b0 .#
b0 8$
b0 g
b0 1"
b0 Y"
b0 )#
b0 D$
b0 h
b0 2"
b0 *#
b0 ;$
b0 C$
b0 i
b0 3"
b0 +#
b0 :$
0q
0(#
0l
1u
b1000 k
b1000 ,#
0,
0&"
0#"
0""
b0 C"
0O
0P
b0 Y
b0 /"
b0 B"
b0 D"
b0 E#
b0 ($
b0 =$
b0 N"
1M"
0n"
0%"
b0 >
b0 -"
b0 >$
0$"
b0 q"
b0 o"
b0 p"
1B
1D
0c
b0 8
b0 z"
b0 !$
b0 ?$
04
b0 }"
0|"
0("
b0 0
b0 +"
b0 @$
0'"
b0 |#
b0 y#
b0 }#
b0 F
b0 r#
b0 2$
0E
b0 4$
b0 5$
03$
b0 l#
b0 i#
b0 x
b0 _"
b0 S#
b0 ^#
0y
0]#
b100000000000000000000000000000 n
b100000000000000000000000000000 -#
b100000000000000000000000000000 X#
b100000000000000000000000000000 _#
b0 j
b0 W#
b0 `#
b0 9$
0)"
b0 7"
b0 ^
b0 ="
b0 R"
b0 i"
0S
0N
0U
0k"
0Q
0m"
0T
b0 R
b0 ."
b0 X"
b0 l"
b0 G#
0_
0h"
0V
0j"
b0 Z
b0 :"
b0 U"
b0 e"
b0 W
b0 8"
b0 W"
b0 F#
b0 f"
b0 X
b0 9"
b0 V"
b0 g"
b0 [
b0 ;"
b0 T"
b0 D#
b0 c"
b0 \
b0 <"
b0 I"
b0 S"
b0 d"
0:
0P#
03
07
01
b0 5
b0 ,"
b0 J#
b0 Q#
b0 "$
b0 =
b0 H#
b0 M#
b0 ;
b0 s"
b0 I#
b0 O#
02
0R#
b0 <
b0 t"
b0 K#
b0 N#
b0 `
b0 y"
b0 Q$
b0 b
b0 x"
b0 P$
0a
b0 ~"
b0 {"
b0 [$
0I
b0 X$
06
0-
b0 .
b0 *"
b0 #$
b0 '$
b0 B$
b0 /
b0 $$
b0 &$
b0 A$
b1000 Q"
b10000 ~#
b100 m#
b100 ##
1&
#10000
0&
#15000
b100 ##
b100 m#
b10000 ~#
b1000 Q"
1&
#20000
0&
#25000
0(
b1000 Q"
b10000 ~#
b100 m#
b100 ##
b0 )
1&
#30000
0&
#35000
b11 ]
b11 0"
b11 <$
1#"
1""
b11 [$
b0 \$
1N
b11 4$
13$
b100000000000000000000000000000 '
b1 )
1&
#40000
0&
#45000
1%"
b11 >
b11 -"
b11 >$
1$"
b10 4$
11
b10 [$
b10 )
1&
#50000
0&
#55000
1("
b11 0
b11 +"
b11 @$
1'"
1-
b1 [$
b1 4$
b11 )
1&
#60000
0&
#65000
0B
1D
b0 4$
1I
b100000011000110001100000000011001000000100001000010000000000100010000000100001000010000000000100100000000000000000000000000000 J
b100000011000110001100000000011001000000100001000010000000000100010000000100001000010000000000100100000000000000000000000000000 d#
b100000011000110001100000000011001000000100001000010000000000100010000000100001000010000000000100100000000000000000000000000000 Z$
b0 [$
b100 )
1&
#70000
0&
#75000
1j#
b100 m#
0D
0A
0I
b1 i#
1E
03$
b101 )
1&
#80000
0&
#85000
b100 L
b100 H"
b100 T#
b100 )$
b100 F"
0@
0A
1z#
b10000 ~#
b1 y#
b1 }#
0E
b110 )
1&
#90000
0&
#95000
b100000001000010000100000000001 K
b100000001000010000100000000001 V#
b100000001000010000100000000001 g#
b100 m#
1j#
b1 a#
b100 H
b100 c#
b100 n#
b100 ?
b100 q#
b100 -$
b1000 L
b1000 H"
b1000 T#
b1000 )$
b1000 Q"
0O"
b100 x
b100 _"
b100 S#
b100 ^#
b1000 F"
b100 G
b100 G"
b100 U#
b100 p#
b100 ,$
b111 )
1&
#100000
0&
#105000
b100 m#
b100000010000100001000000000010 K
b100000010000100001000000000010 V#
b100000010000100001000000000010 g#
1j#
b0 ]
b0 0"
b0 <$
b10 a#
b1 s
b1 ["
b1 G$
0("
0%"
0#"
b0 0
b0 +"
b0 @$
0'"
b0 >
b0 -"
b0 >$
0$"
0""
b1000 H
b1000 c#
b1000 n#
b1 o
b1 .#
b1 8$
b1 g
b1 1"
b1 Y"
b1 )#
b1 h
b1 2"
b1 *#
b1 ;$
b1 i
b1 3"
b1 +#
b1 :$
b1000 ?
b1000 q#
b1000 -$
b1100 L
b1100 H"
b1100 T#
b1100 )$
b1000 Q"
b1000 x
b1000 _"
b1000 S#
b1000 ^#
b100000001000010000100000000001 n
b100000001000010000100000000001 -#
b100000001000010000100000000001 X#
b100000001000010000100000000001 _#
b100 j
b100 W#
b100 `#
b100 9$
b100 ^
b100 ="
b100 R"
b100 i"
b1100 F"
b1000 G
b1000 G"
b1000 U#
b1000 p#
b1000 ,$
b100000001000010000100000000001 '
b1000 )
1&
#110000
0&
#115000
b100 m#
b100000011000110001100000000011 K
b100000011000110001100000000011 V#
b100000011000110001100000000011 g#
1j#
b11 a#
b10 s
b10 ["
b10 G$
b1100 H
b1100 c#
b1100 n#
b1 Y
b1 /"
b1 B"
b1 D"
b1 E#
b1 ($
b1 =$
b10 o
b10 .#
b10 8$
b10 g
b10 1"
b10 Y"
b10 )#
b10 h
b10 2"
b10 *#
b10 ;$
b10 i
b10 3"
b10 +#
b10 :$
b1100 ?
b1100 q#
b1100 -$
b10000 L
b10000 H"
b10000 T#
b10000 )$
b1000 Q"
b1000 ^
b1000 ="
b1000 R"
b1000 i"
b1 R
b1 ."
b1 X"
b1 l"
b1 G#
b1 X
b1 9"
b1 V"
b1 g"
b1100 x
b1100 _"
b1100 S#
b1100 ^#
b100000010000100001000000000010 n
b100000010000100001000000000010 -#
b100000010000100001000000000010 X#
b100000010000100001000000000010 _#
b1000 j
b1000 W#
b1000 `#
b1000 9$
b10000 F"
b1100 G
b1100 G"
b1100 U#
b1100 p#
b1100 ,$
b100000010000100001000000000010 '
b1001 )
1&
#120000
0&
